^C:\USERS\EVERBEEK\GITLAB\FORMATION-CLUSTER-FLIGHT-SIMULATION\BASILISK\SRC\FSWALGORITHMS\ATTGUIDANCE\SIMPLEDEADBAND\SIMPLEDEADBAND.I
C:\USERS\EVERBEEK\GITLAB\FORMATION-CLUSTER-FLIGHT-SIMULATION\BASILISK\DIST3\BASILISK\FSWALGORITHMS\SIMPLEDEADBANDPYTHON_WRAP.C
C:\USERS\EVERBEEK\GITLAB\FORMATION-CLUSTER-FLIGHT-SIMULATION\BASILISK\DIST3\BASILISK\FSWALGORITHMS\SIMPLEDEADBAND.PY
^C:\USERS\EVERBEEK\GITLAB\FORMATION-CLUSTER-FLIGHT-SIMULATION\BASILISK\SRC\CMAKELISTS.TXT
C:\USERS\EVERBEEK\GITLAB\FORMATION-CLUSTER-FLIGHT-SIMULATION\BASILISK\DIST3\CMAKEFILES\GENERATE.STAMP
