^C:\USERS\EVERBEEK\GITLAB\FORMATION-CLUSTER-FLIGHT-SIMULATION\BASILISK\DIST3\GAUSSMARKOVCHECK.DIR\RELEASE\AVSLIBRARYSELFCHECK.OBJ|C:\USERS\EVERBEEK\GITLAB\FORMATION-CLUSTER-FLIGHT-SIMULATION\BASILISK\DIST3\GAUSSMARKOVCHECK.DIR\RELEASE\DISCRETIZECHECK.OBJ|C:\USERS\EVERBEEK\GITLAB\FORMATION-CLUSTER-FLIGHT-SIMULATION\BASILISK\DIST3\GAUSSMARKOVCHECK.DIR\RELEASE\GAUSSMARKOVCHECK.OBJ|C:\USERS\EVERBEEK\GITLAB\FORMATION-CLUSTER-FLIGHT-SIMULATION\BASILISK\DIST3\GAUSSMARKOVCHECK.DIR\RELEASE\GAUSSMARKOVCHECKPYTHON_WRAP.OBJ|C:\USERS\EVERBEEK\GITLAB\FORMATION-CLUSTER-FLIGHT-SIMULATION\BASILISK\DIST3\GAUSSMARKOVCHECK.DIR\RELEASE\SATURATECHECK.OBJ
/OUT:"C:\USERS\EVERBEEK\GITLAB\FORMATION-CLUSTER-FLIGHT-SIMULATION\BASILISK\DIST3\BASILISK\ARCHITECTURE\_GAUSSMARKOVCHECK.PYD" /INCREMENTAL:NO /NOLOGO BASILISK\ARCHITECTURELIB.LIB BASILISK\ARCHITECTUREUTILITIES.LIB ARCHITECTURE\UTILITIES\RELEASE\MODULEIDGENERATOR.LIB BASILISK\CMSGCINTERFACE.LIB C:\USERS\EVERBEEK\APPDATA\LOCAL\PROGRAMS\PYTHON\PYTHON39\LIBS\PYTHON39.LIB KERNEL32.LIB USER32.LIB GDI32.LIB WINSPOOL.LIB SHELL32.LIB OLE32.LIB OLEAUT32.LIB UUID.LIB COMDLG32.LIB ADVAPI32.LIB /MANIFEST /MANIFESTUAC:"level='asInvoker' uiAccess='false'" /manifest:embed /PDB:"C:/USERS/EVERBEEK/GITLAB/FORMATION-CLUSTER-FLIGHT-SIMULATION/BASILISK/DIST3/BASILISK/ARCHITECTURE/_GAUSSMARKOVCHECK.PDB" /SUBSYSTEM:CONSOLE /TLBID:1 /DYNAMICBASE /NXCOMPAT /IMPLIB:"C:/USERS/EVERBEEK/GITLAB/FORMATION-CLUSTER-FLIGHT-SIMULATION/BASILISK/DIST3/BASILISK/ARCHITECTURE/GAUSSMARKOVCHECK.LIB" /MACHINE:X64  /machine:x64 /DLL GAUSSMARKOVCHECK.DIR\RELEASE\GAUSSMARKOVCHECKPYTHON_WRAP.OBJ
GAUSSMARKOVCHECK.DIR\RELEASE\AVSLIBRARYSELFCHECK.OBJ
GAUSSMARKOVCHECK.DIR\RELEASE\DISCRETIZECHECK.OBJ
GAUSSMARKOVCHECK.DIR\RELEASE\GAUSSMARKOVCHECK.OBJ
GAUSSMARKOVCHECK.DIR\RELEASE\SATURATECHECK.OBJ
