^C:\Users\everbeek\GitLab\formation-cluster-flight-simulation\basilisk\dist3\swig_eigen.vcxproj
C:\Users\everbeek\GitLab\formation-cluster-flight-simulation\basilisk\dist3\Basilisk\architecture\swig_eigen.lib
C:\Users\everbeek\GitLab\formation-cluster-flight-simulation\basilisk\dist3\Basilisk\architecture\swig_eigen.exp
