^C:\Users\everbeek\GitLab\formation-cluster-flight-simulation\basilisk\dist3\avsLibrarySelfCheck.vcxproj
C:\Users\everbeek\GitLab\formation-cluster-flight-simulation\basilisk\dist3\Basilisk\architecture\avsLibrarySelfCheck.lib
C:\Users\everbeek\GitLab\formation-cluster-flight-simulation\basilisk\dist3\Basilisk\architecture\avsLibrarySelfCheck.exp
