^C:\USERS\EVERBEEK\GITLAB\FORMATION-CLUSTER-FLIGHT-SIMULATION\BASILISK\DIST3\BASILISK\FSWALGORITHMS\ATTTRACKINGERRORPYTHON_WRAP.C|C:\USERS\EVERBEEK\GITLAB\FORMATION-CLUSTER-FLIGHT-SIMULATION\BASILISK\SRC\FSWALGORITHMS\ATTGUIDANCE\ATTTRACKINGERROR\ATTTRACKINGERROR.C
C:\USERS\EVERBEEK\GITLAB\FORMATION-CLUSTER-FLIGHT-SIMULATION\BASILISK\DIST3\ATTTRACKINGERROR.DIR\RELEASE\ATTTRACKINGERRORPYTHON_WRAP.OBJ
C:\USERS\EVERBEEK\GITLAB\FORMATION-CLUSTER-FLIGHT-SIMULATION\BASILISK\DIST3\ATTTRACKINGERROR.DIR\RELEASE\ATTTRACKINGERROR.OBJ
