^C:\USERS\EVERBEEK\GITLAB\FORMATION-CLUSTER-FLIGHT-SIMULATION\BASILISK\DIST3\BASILISK\FSWALGORITHMS\CHEBYPOSEPHEMPYTHON_WRAP.C|C:\USERS\EVERBEEK\GITLAB\FORMATION-CLUSTER-FLIGHT-SIMULATION\BASILISK\SRC\FSWALGORITHMS\TRANSDETERMINATION\CHEBYPOSEPHEM\CHEBYPOSEPHEM.C
C:\USERS\EVERBEEK\GITLAB\FORMATION-CLUSTER-FLIGHT-SIMULATION\BASILISK\DIST3\CHEBYPOSEPHEM.DIR\RELEASE\CHEBYPOSEPHEMPYTHON_WRAP.OBJ
C:\USERS\EVERBEEK\GITLAB\FORMATION-CLUSTER-FLIGHT-SIMULATION\BASILISK\DIST3\CHEBYPOSEPHEM.DIR\RELEASE\CHEBYPOSEPHEM.OBJ
