^C:\Users\everbeek\GitLab\formation-cluster-flight-simulation\basilisk\dist3\hingedRigidBodyStateEffector.vcxproj
C:\Users\everbeek\GitLab\formation-cluster-flight-simulation\basilisk\dist3\Basilisk\simulation\hingedRigidBodyStateEffector.lib
C:\Users\everbeek\GitLab\formation-cluster-flight-simulation\basilisk\dist3\Basilisk\simulation\hingedRigidBodyStateEffector.exp
