^C:\USERS\EVERBEEK\GITLAB\FORMATION-CLUSTER-FLIGHT-SIMULATION\BASILISK\DIST3\BASILISK\FSWALGORITHMS\FORMATIONBARYCENTERPYTHON_WRAP.CXX|C:\USERS\EVERBEEK\GITLAB\FORMATION-CLUSTER-FLIGHT-SIMULATION\BASILISK\SRC\FSWALGORITHMS\FORMATIONFLYING\FORMATIONBARYCENTER\FORMATIONBARYCENTER.CPP
C:\USERS\EVERBEEK\GITLAB\FORMATION-CLUSTER-FLIGHT-SIMULATION\BASILISK\DIST3\FORMATIONBARYCENTER.DIR\RELEASE\FORMATIONBARYCENTERPYTHON_WRAP.OBJ
C:\USERS\EVERBEEK\GITLAB\FORMATION-CLUSTER-FLIGHT-SIMULATION\BASILISK\DIST3\FORMATIONBARYCENTER.DIR\RELEASE\FORMATIONBARYCENTER.OBJ
