^C:\USERS\EVERBEEK\GITLAB\FORMATION-CLUSTER-FLIGHT-SIMULATION\BASILISK\SRC\ARCHITECTURE\_GENERALMODULEFILES\SYS_MODEL.CPP|C:\USERS\EVERBEEK\GITLAB\FORMATION-CLUSTER-FLIGHT-SIMULATION\BASILISK\SRC\SIMULATION\POWER\_GENERALMODULEFILES\POWERNODEBASE.CPP|C:\USERS\EVERBEEK\GITLAB\FORMATION-CLUSTER-FLIGHT-SIMULATION\BASILISK\SRC\SIMULATION\POWER\_GENERALMODULEFILES\POWERSTORAGEBASE.CPP
C:\USERS\EVERBEEK\GITLAB\FORMATION-CLUSTER-FLIGHT-SIMULATION\BASILISK\DIST3\POWERLIB.DIR\RELEASE\SYS_MODEL.OBJ
C:\USERS\EVERBEEK\GITLAB\FORMATION-CLUSTER-FLIGHT-SIMULATION\BASILISK\DIST3\POWERLIB.DIR\RELEASE\POWERNODEBASE.OBJ
C:\USERS\EVERBEEK\GITLAB\FORMATION-CLUSTER-FLIGHT-SIMULATION\BASILISK\DIST3\POWERLIB.DIR\RELEASE\POWERSTORAGEBASE.OBJ
