^C:\USERS\EVERBEEK\GITLAB\FORMATION-CLUSTER-FLIGHT-SIMULATION\BASILISK\SRC\SIMULATION\POWER\_GENERALMODULEFILES\POWERNODEBASE.CPP
/c /I"C:\USERS\EVERBEEK\GITLAB\FORMATION-CLUSTER-FLIGHT-SIMULATION\BASILISK\SRC\..\DIST3\AUTOSOURCE" /I"C:\USERS\EVERBEEK\GITLAB\FORMATION-CLUSTER-FLIGHT-SIMULATION\BASILISK\SRC" /IC:\USERS\EVERBEEK\.CONAN\DATA\EIGEN\3.3.7\CONAN\STABLE\PACKAGE\5AB84D6ACFE1F23C4FAE0AB88F26E3A396351AC9\INCLUDE\EIGEN3 /nologo /W3 /WX- /diagnostics:column /O2 /Ob2 /D WIN32 /D _WINDOWS /D NDEBUG /D _CRT_SECURE_NO_WARNINGS /D _WINSOCK_DEPRECATED_NO_WARNINGS /D _WIN32_WINNT=0x0501 /D "CMAKE_INTDIR=\"Release\"" /D powerLib_EXPORTS /D _WINDLL /D _MBCS /Gm- /EHsc /MT /GS /fp:precise /Zc:wchar_t /Zc:forScope /Zc:inline /GR /Fo"POWERLIB.DIR\RELEASE\\" /Fd"POWERLIB.DIR\RELEASE\VC142.PDB" /external:env:EXTERNAL_INCLUDE /external:W3 /Gd /TP /wd4913 /wd4251 /wd5208 /wd4267  /bigobj C:\USERS\EVERBEEK\GITLAB\FORMATION-CLUSTER-FLIGHT-SIMULATION\BASILISK\SRC\SIMULATION\POWER\_GENERALMODULEFILES\POWERNODEBASE.CPP
^C:\USERS\EVERBEEK\GITLAB\FORMATION-CLUSTER-FLIGHT-SIMULATION\BASILISK\SRC\SIMULATION\POWER\_GENERALMODULEFILES\POWERSTORAGEBASE.CPP
/c /I"C:\USERS\EVERBEEK\GITLAB\FORMATION-CLUSTER-FLIGHT-SIMULATION\BASILISK\SRC\..\DIST3\AUTOSOURCE" /I"C:\USERS\EVERBEEK\GITLAB\FORMATION-CLUSTER-FLIGHT-SIMULATION\BASILISK\SRC" /IC:\USERS\EVERBEEK\.CONAN\DATA\EIGEN\3.3.7\CONAN\STABLE\PACKAGE\5AB84D6ACFE1F23C4FAE0AB88F26E3A396351AC9\INCLUDE\EIGEN3 /nologo /W3 /WX- /diagnostics:column /O2 /Ob2 /D WIN32 /D _WINDOWS /D NDEBUG /D _CRT_SECURE_NO_WARNINGS /D _WINSOCK_DEPRECATED_NO_WARNINGS /D _WIN32_WINNT=0x0501 /D "CMAKE_INTDIR=\"Release\"" /D powerLib_EXPORTS /D _WINDLL /D _MBCS /Gm- /EHsc /MT /GS /fp:precise /Zc:wchar_t /Zc:forScope /Zc:inline /GR /Fo"POWERLIB.DIR\RELEASE\\" /Fd"POWERLIB.DIR\RELEASE\VC142.PDB" /external:env:EXTERNAL_INCLUDE /external:W3 /Gd /TP /wd4913 /wd4251 /wd5208 /wd4267  /bigobj C:\USERS\EVERBEEK\GITLAB\FORMATION-CLUSTER-FLIGHT-SIMULATION\BASILISK\SRC\SIMULATION\POWER\_GENERALMODULEFILES\POWERSTORAGEBASE.CPP
^C:\USERS\EVERBEEK\GITLAB\FORMATION-CLUSTER-FLIGHT-SIMULATION\BASILISK\SRC\ARCHITECTURE\_GENERALMODULEFILES\SYS_MODEL.CPP
/c /I"C:\USERS\EVERBEEK\GITLAB\FORMATION-CLUSTER-FLIGHT-SIMULATION\BASILISK\SRC\..\DIST3\AUTOSOURCE" /I"C:\USERS\EVERBEEK\GITLAB\FORMATION-CLUSTER-FLIGHT-SIMULATION\BASILISK\SRC" /IC:\USERS\EVERBEEK\.CONAN\DATA\EIGEN\3.3.7\CONAN\STABLE\PACKAGE\5AB84D6ACFE1F23C4FAE0AB88F26E3A396351AC9\INCLUDE\EIGEN3 /nologo /W3 /WX- /diagnostics:column /O2 /Ob2 /D WIN32 /D _WINDOWS /D NDEBUG /D _CRT_SECURE_NO_WARNINGS /D _WINSOCK_DEPRECATED_NO_WARNINGS /D _WIN32_WINNT=0x0501 /D "CMAKE_INTDIR=\"Release\"" /D powerLib_EXPORTS /D _WINDLL /D _MBCS /Gm- /EHsc /MT /GS /fp:precise /Zc:wchar_t /Zc:forScope /Zc:inline /GR /Fo"POWERLIB.DIR\RELEASE\\" /Fd"POWERLIB.DIR\RELEASE\VC142.PDB" /external:env:EXTERNAL_INCLUDE /external:W3 /Gd /TP /wd4913 /wd4251 /wd5208 /wd4267  /bigobj C:\USERS\EVERBEEK\GITLAB\FORMATION-CLUSTER-FLIGHT-SIMULATION\BASILISK\SRC\ARCHITECTURE\_GENERALMODULEFILES\SYS_MODEL.CPP
