^C:\USERS\EVERBEEK\GITLAB\FORMATION-CLUSTER-FLIGHT-SIMULATION\BASILISK\DIST3\BASILISK\ARCHITECTURE\BSKLOGGINGPYTHON_WRAP.CXX
/c /I"C:\USERS\EVERBEEK\GITLAB\FORMATION-CLUSTER-FLIGHT-SIMULATION\BASILISK\SRC\..\DIST3\AUTOSOURCE" /I"C:\USERS\EVERBEEK\GITLAB\FORMATION-CLUSTER-FLIGHT-SIMULATION\BASILISK\SRC" /IC:\USERS\EVERBEEK\APPDATA\LOCAL\PROGRAMS\PYTHON\PYTHON39\INCLUDE /I"C:\USERS\EVERBEEK\GITLAB\FORMATION-CLUSTER-FLIGHT-SIMULATION\BASILISK\SRC\ARCHITECTURE\UTILITIES" /I"C:\USERS\EVERBEEK\GITLAB\FORMATION-CLUSTER-FLIGHT-SIMULATION\BASILISK\SRC\ARCHITECTURE\_GENERALMODULEFILES" /I"C:\USERS\EVERBEEK\GITLAB\FORMATION-CLUSTER-FLIGHT-SIMULATION\BASILISK\SRC\..\LIBS" /IC:\USERS\EVERBEEK\.CONAN\DATA\EIGEN\3.3.7\CONAN\STABLE\PACKAGE\5AB84D6ACFE1F23C4FAE0AB88F26E3A396351AC9\INCLUDE\EIGEN3 /nologo /W3 /WX- /diagnostics:column /O2 /Ob2 /D WIN32 /D _WINDOWS /D NDEBUG /D _CRT_SECURE_NO_WARNINGS /D _WINSOCK_DEPRECATED_NO_WARNINGS /D _WIN32_WINNT=0x0501 /D "CMAKE_INTDIR=\"Release\"" /D bskLogging_EXPORTS /D _WINDLL /D _MBCS /Gm- /EHsc /MT /GS /fp:precise /Zc:wchar_t /Zc:forScope /Zc:inline /GR /Fo"BSKLOGGING.DIR\RELEASE\\" /Fd"BSKLOGGING.DIR\RELEASE\VC142.PDB" /external:env:EXTERNAL_INCLUDE /external:W3 /Gd /TP /wd4913 /wd4251 /wd5208 /wd4267  /bigobj C:\USERS\EVERBEEK\GITLAB\FORMATION-CLUSTER-FLIGHT-SIMULATION\BASILISK\DIST3\BASILISK\ARCHITECTURE\BSKLOGGINGPYTHON_WRAP.CXX
^C:\USERS\EVERBEEK\GITLAB\FORMATION-CLUSTER-FLIGHT-SIMULATION\BASILISK\SRC\ARCHITECTURE\UTILITIES\AVSEIGENSUPPORT.CPP
/c /I"C:\USERS\EVERBEEK\GITLAB\FORMATION-CLUSTER-FLIGHT-SIMULATION\BASILISK\SRC\..\DIST3\AUTOSOURCE" /I"C:\USERS\EVERBEEK\GITLAB\FORMATION-CLUSTER-FLIGHT-SIMULATION\BASILISK\SRC" /IC:\USERS\EVERBEEK\APPDATA\LOCAL\PROGRAMS\PYTHON\PYTHON39\INCLUDE /I"C:\USERS\EVERBEEK\GITLAB\FORMATION-CLUSTER-FLIGHT-SIMULATION\BASILISK\SRC\ARCHITECTURE\UTILITIES" /I"C:\USERS\EVERBEEK\GITLAB\FORMATION-CLUSTER-FLIGHT-SIMULATION\BASILISK\SRC\ARCHITECTURE\_GENERALMODULEFILES" /I"C:\USERS\EVERBEEK\GITLAB\FORMATION-CLUSTER-FLIGHT-SIMULATION\BASILISK\SRC\..\LIBS" /IC:\USERS\EVERBEEK\.CONAN\DATA\EIGEN\3.3.7\CONAN\STABLE\PACKAGE\5AB84D6ACFE1F23C4FAE0AB88F26E3A396351AC9\INCLUDE\EIGEN3 /nologo /W3 /WX- /diagnostics:column /O2 /Ob2 /D WIN32 /D _WINDOWS /D NDEBUG /D _CRT_SECURE_NO_WARNINGS /D _WINSOCK_DEPRECATED_NO_WARNINGS /D _WIN32_WINNT=0x0501 /D "CMAKE_INTDIR=\"Release\"" /D bskLogging_EXPORTS /D _WINDLL /D _MBCS /Gm- /EHsc /MT /GS /fp:precise /Zc:wchar_t /Zc:forScope /Zc:inline /GR /Fo"BSKLOGGING.DIR\RELEASE\\" /Fd"BSKLOGGING.DIR\RELEASE\VC142.PDB" /external:env:EXTERNAL_INCLUDE /external:W3 /Gd /TP /wd4913 /wd4251 /wd5208 /wd4267  /bigobj C:\USERS\EVERBEEK\GITLAB\FORMATION-CLUSTER-FLIGHT-SIMULATION\BASILISK\SRC\ARCHITECTURE\UTILITIES\AVSEIGENSUPPORT.CPP
^C:\USERS\EVERBEEK\GITLAB\FORMATION-CLUSTER-FLIGHT-SIMULATION\BASILISK\SRC\ARCHITECTURE\UTILITIES\BSKLOGGING.CPP
/c /I"C:\USERS\EVERBEEK\GITLAB\FORMATION-CLUSTER-FLIGHT-SIMULATION\BASILISK\SRC\..\DIST3\AUTOSOURCE" /I"C:\USERS\EVERBEEK\GITLAB\FORMATION-CLUSTER-FLIGHT-SIMULATION\BASILISK\SRC" /IC:\USERS\EVERBEEK\APPDATA\LOCAL\PROGRAMS\PYTHON\PYTHON39\INCLUDE /I"C:\USERS\EVERBEEK\GITLAB\FORMATION-CLUSTER-FLIGHT-SIMULATION\BASILISK\SRC\ARCHITECTURE\UTILITIES" /I"C:\USERS\EVERBEEK\GITLAB\FORMATION-CLUSTER-FLIGHT-SIMULATION\BASILISK\SRC\ARCHITECTURE\_GENERALMODULEFILES" /I"C:\USERS\EVERBEEK\GITLAB\FORMATION-CLUSTER-FLIGHT-SIMULATION\BASILISK\SRC\..\LIBS" /IC:\USERS\EVERBEEK\.CONAN\DATA\EIGEN\3.3.7\CONAN\STABLE\PACKAGE\5AB84D6ACFE1F23C4FAE0AB88F26E3A396351AC9\INCLUDE\EIGEN3 /nologo /W3 /WX- /diagnostics:column /O2 /Ob2 /D WIN32 /D _WINDOWS /D NDEBUG /D _CRT_SECURE_NO_WARNINGS /D _WINSOCK_DEPRECATED_NO_WARNINGS /D _WIN32_WINNT=0x0501 /D "CMAKE_INTDIR=\"Release\"" /D bskLogging_EXPORTS /D _WINDLL /D _MBCS /Gm- /EHsc /MT /GS /fp:precise /Zc:wchar_t /Zc:forScope /Zc:inline /GR /Fo"BSKLOGGING.DIR\RELEASE\\" /Fd"BSKLOGGING.DIR\RELEASE\VC142.PDB" /external:env:EXTERNAL_INCLUDE /external:W3 /Gd /TP /wd4913 /wd4251 /wd5208 /wd4267  /bigobj C:\USERS\EVERBEEK\GITLAB\FORMATION-CLUSTER-FLIGHT-SIMULATION\BASILISK\SRC\ARCHITECTURE\UTILITIES\BSKLOGGING.CPP
^C:\USERS\EVERBEEK\GITLAB\FORMATION-CLUSTER-FLIGHT-SIMULATION\BASILISK\SRC\ARCHITECTURE\UTILITIES\DISCRETIZE.CPP
/c /I"C:\USERS\EVERBEEK\GITLAB\FORMATION-CLUSTER-FLIGHT-SIMULATION\BASILISK\SRC\..\DIST3\AUTOSOURCE" /I"C:\USERS\EVERBEEK\GITLAB\FORMATION-CLUSTER-FLIGHT-SIMULATION\BASILISK\SRC" /IC:\USERS\EVERBEEK\APPDATA\LOCAL\PROGRAMS\PYTHON\PYTHON39\INCLUDE /I"C:\USERS\EVERBEEK\GITLAB\FORMATION-CLUSTER-FLIGHT-SIMULATION\BASILISK\SRC\ARCHITECTURE\UTILITIES" /I"C:\USERS\EVERBEEK\GITLAB\FORMATION-CLUSTER-FLIGHT-SIMULATION\BASILISK\SRC\ARCHITECTURE\_GENERALMODULEFILES" /I"C:\USERS\EVERBEEK\GITLAB\FORMATION-CLUSTER-FLIGHT-SIMULATION\BASILISK\SRC\..\LIBS" /IC:\USERS\EVERBEEK\.CONAN\DATA\EIGEN\3.3.7\CONAN\STABLE\PACKAGE\5AB84D6ACFE1F23C4FAE0AB88F26E3A396351AC9\INCLUDE\EIGEN3 /nologo /W3 /WX- /diagnostics:column /O2 /Ob2 /D WIN32 /D _WINDOWS /D NDEBUG /D _CRT_SECURE_NO_WARNINGS /D _WINSOCK_DEPRECATED_NO_WARNINGS /D _WIN32_WINNT=0x0501 /D "CMAKE_INTDIR=\"Release\"" /D bskLogging_EXPORTS /D _WINDLL /D _MBCS /Gm- /EHsc /MT /GS /fp:precise /Zc:wchar_t /Zc:forScope /Zc:inline /GR /Fo"BSKLOGGING.DIR\RELEASE\\" /Fd"BSKLOGGING.DIR\RELEASE\VC142.PDB" /external:env:EXTERNAL_INCLUDE /external:W3 /Gd /TP /wd4913 /wd4251 /wd5208 /wd4267  /bigobj C:\USERS\EVERBEEK\GITLAB\FORMATION-CLUSTER-FLIGHT-SIMULATION\BASILISK\SRC\ARCHITECTURE\UTILITIES\DISCRETIZE.CPP
^C:\USERS\EVERBEEK\GITLAB\FORMATION-CLUSTER-FLIGHT-SIMULATION\BASILISK\SRC\ARCHITECTURE\UTILITIES\GAUSS_MARKOV.CPP
/c /I"C:\USERS\EVERBEEK\GITLAB\FORMATION-CLUSTER-FLIGHT-SIMULATION\BASILISK\SRC\..\DIST3\AUTOSOURCE" /I"C:\USERS\EVERBEEK\GITLAB\FORMATION-CLUSTER-FLIGHT-SIMULATION\BASILISK\SRC" /IC:\USERS\EVERBEEK\APPDATA\LOCAL\PROGRAMS\PYTHON\PYTHON39\INCLUDE /I"C:\USERS\EVERBEEK\GITLAB\FORMATION-CLUSTER-FLIGHT-SIMULATION\BASILISK\SRC\ARCHITECTURE\UTILITIES" /I"C:\USERS\EVERBEEK\GITLAB\FORMATION-CLUSTER-FLIGHT-SIMULATION\BASILISK\SRC\ARCHITECTURE\_GENERALMODULEFILES" /I"C:\USERS\EVERBEEK\GITLAB\FORMATION-CLUSTER-FLIGHT-SIMULATION\BASILISK\SRC\..\LIBS" /IC:\USERS\EVERBEEK\.CONAN\DATA\EIGEN\3.3.7\CONAN\STABLE\PACKAGE\5AB84D6ACFE1F23C4FAE0AB88F26E3A396351AC9\INCLUDE\EIGEN3 /nologo /W3 /WX- /diagnostics:column /O2 /Ob2 /D WIN32 /D _WINDOWS /D NDEBUG /D _CRT_SECURE_NO_WARNINGS /D _WINSOCK_DEPRECATED_NO_WARNINGS /D _WIN32_WINNT=0x0501 /D "CMAKE_INTDIR=\"Release\"" /D bskLogging_EXPORTS /D _WINDLL /D _MBCS /Gm- /EHsc /MT /GS /fp:precise /Zc:wchar_t /Zc:forScope /Zc:inline /GR /Fo"BSKLOGGING.DIR\RELEASE\\" /Fd"BSKLOGGING.DIR\RELEASE\VC142.PDB" /external:env:EXTERNAL_INCLUDE /external:W3 /Gd /TP /wd4913 /wd4251 /wd5208 /wd4267  /bigobj C:\USERS\EVERBEEK\GITLAB\FORMATION-CLUSTER-FLIGHT-SIMULATION\BASILISK\SRC\ARCHITECTURE\UTILITIES\GAUSS_MARKOV.CPP
^C:\USERS\EVERBEEK\GITLAB\FORMATION-CLUSTER-FLIGHT-SIMULATION\BASILISK\SRC\ARCHITECTURE\UTILITIES\GEODETICCONVERSION.CPP
/c /I"C:\USERS\EVERBEEK\GITLAB\FORMATION-CLUSTER-FLIGHT-SIMULATION\BASILISK\SRC\..\DIST3\AUTOSOURCE" /I"C:\USERS\EVERBEEK\GITLAB\FORMATION-CLUSTER-FLIGHT-SIMULATION\BASILISK\SRC" /IC:\USERS\EVERBEEK\APPDATA\LOCAL\PROGRAMS\PYTHON\PYTHON39\INCLUDE /I"C:\USERS\EVERBEEK\GITLAB\FORMATION-CLUSTER-FLIGHT-SIMULATION\BASILISK\SRC\ARCHITECTURE\UTILITIES" /I"C:\USERS\EVERBEEK\GITLAB\FORMATION-CLUSTER-FLIGHT-SIMULATION\BASILISK\SRC\ARCHITECTURE\_GENERALMODULEFILES" /I"C:\USERS\EVERBEEK\GITLAB\FORMATION-CLUSTER-FLIGHT-SIMULATION\BASILISK\SRC\..\LIBS" /IC:\USERS\EVERBEEK\.CONAN\DATA\EIGEN\3.3.7\CONAN\STABLE\PACKAGE\5AB84D6ACFE1F23C4FAE0AB88F26E3A396351AC9\INCLUDE\EIGEN3 /nologo /W3 /WX- /diagnostics:column /O2 /Ob2 /D WIN32 /D _WINDOWS /D NDEBUG /D _CRT_SECURE_NO_WARNINGS /D _WINSOCK_DEPRECATED_NO_WARNINGS /D _WIN32_WINNT=0x0501 /D "CMAKE_INTDIR=\"Release\"" /D bskLogging_EXPORTS /D _WINDLL /D _MBCS /Gm- /EHsc /MT /GS /fp:precise /Zc:wchar_t /Zc:forScope /Zc:inline /GR /Fo"BSKLOGGING.DIR\RELEASE\\" /Fd"BSKLOGGING.DIR\RELEASE\VC142.PDB" /external:env:EXTERNAL_INCLUDE /external:W3 /Gd /TP /wd4913 /wd4251 /wd5208 /wd4267  /bigobj C:\USERS\EVERBEEK\GITLAB\FORMATION-CLUSTER-FLIGHT-SIMULATION\BASILISK\SRC\ARCHITECTURE\UTILITIES\GEODETICCONVERSION.CPP
^C:\USERS\EVERBEEK\GITLAB\FORMATION-CLUSTER-FLIGHT-SIMULATION\BASILISK\SRC\ARCHITECTURE\UTILITIES\KEPLERIANORBIT.CPP
/c /I"C:\USERS\EVERBEEK\GITLAB\FORMATION-CLUSTER-FLIGHT-SIMULATION\BASILISK\SRC\..\DIST3\AUTOSOURCE" /I"C:\USERS\EVERBEEK\GITLAB\FORMATION-CLUSTER-FLIGHT-SIMULATION\BASILISK\SRC" /IC:\USERS\EVERBEEK\APPDATA\LOCAL\PROGRAMS\PYTHON\PYTHON39\INCLUDE /I"C:\USERS\EVERBEEK\GITLAB\FORMATION-CLUSTER-FLIGHT-SIMULATION\BASILISK\SRC\ARCHITECTURE\UTILITIES" /I"C:\USERS\EVERBEEK\GITLAB\FORMATION-CLUSTER-FLIGHT-SIMULATION\BASILISK\SRC\ARCHITECTURE\_GENERALMODULEFILES" /I"C:\USERS\EVERBEEK\GITLAB\FORMATION-CLUSTER-FLIGHT-SIMULATION\BASILISK\SRC\..\LIBS" /IC:\USERS\EVERBEEK\.CONAN\DATA\EIGEN\3.3.7\CONAN\STABLE\PACKAGE\5AB84D6ACFE1F23C4FAE0AB88F26E3A396351AC9\INCLUDE\EIGEN3 /nologo /W3 /WX- /diagnostics:column /O2 /Ob2 /D WIN32 /D _WINDOWS /D NDEBUG /D _CRT_SECURE_NO_WARNINGS /D _WINSOCK_DEPRECATED_NO_WARNINGS /D _WIN32_WINNT=0x0501 /D "CMAKE_INTDIR=\"Release\"" /D bskLogging_EXPORTS /D _WINDLL /D _MBCS /Gm- /EHsc /MT /GS /fp:precise /Zc:wchar_t /Zc:forScope /Zc:inline /GR /Fo"BSKLOGGING.DIR\RELEASE\\" /Fd"BSKLOGGING.DIR\RELEASE\VC142.PDB" /external:env:EXTERNAL_INCLUDE /external:W3 /Gd /TP /wd4913 /wd4251 /wd5208 /wd4267  /bigobj C:\USERS\EVERBEEK\GITLAB\FORMATION-CLUSTER-FLIGHT-SIMULATION\BASILISK\SRC\ARCHITECTURE\UTILITIES\KEPLERIANORBIT.CPP
^C:\USERS\EVERBEEK\GITLAB\FORMATION-CLUSTER-FLIGHT-SIMULATION\BASILISK\SRC\ARCHITECTURE\UTILITIES\SATURATE.CPP
/c /I"C:\USERS\EVERBEEK\GITLAB\FORMATION-CLUSTER-FLIGHT-SIMULATION\BASILISK\SRC\..\DIST3\AUTOSOURCE" /I"C:\USERS\EVERBEEK\GITLAB\FORMATION-CLUSTER-FLIGHT-SIMULATION\BASILISK\SRC" /IC:\USERS\EVERBEEK\APPDATA\LOCAL\PROGRAMS\PYTHON\PYTHON39\INCLUDE /I"C:\USERS\EVERBEEK\GITLAB\FORMATION-CLUSTER-FLIGHT-SIMULATION\BASILISK\SRC\ARCHITECTURE\UTILITIES" /I"C:\USERS\EVERBEEK\GITLAB\FORMATION-CLUSTER-FLIGHT-SIMULATION\BASILISK\SRC\ARCHITECTURE\_GENERALMODULEFILES" /I"C:\USERS\EVERBEEK\GITLAB\FORMATION-CLUSTER-FLIGHT-SIMULATION\BASILISK\SRC\..\LIBS" /IC:\USERS\EVERBEEK\.CONAN\DATA\EIGEN\3.3.7\CONAN\STABLE\PACKAGE\5AB84D6ACFE1F23C4FAE0AB88F26E3A396351AC9\INCLUDE\EIGEN3 /nologo /W3 /WX- /diagnostics:column /O2 /Ob2 /D WIN32 /D _WINDOWS /D NDEBUG /D _CRT_SECURE_NO_WARNINGS /D _WINSOCK_DEPRECATED_NO_WARNINGS /D _WIN32_WINNT=0x0501 /D "CMAKE_INTDIR=\"Release\"" /D bskLogging_EXPORTS /D _WINDLL /D _MBCS /Gm- /EHsc /MT /GS /fp:precise /Zc:wchar_t /Zc:forScope /Zc:inline /GR /Fo"BSKLOGGING.DIR\RELEASE\\" /Fd"BSKLOGGING.DIR\RELEASE\VC142.PDB" /external:env:EXTERNAL_INCLUDE /external:W3 /Gd /TP /wd4913 /wd4251 /wd5208 /wd4267  /bigobj C:\USERS\EVERBEEK\GITLAB\FORMATION-CLUSTER-FLIGHT-SIMULATION\BASILISK\SRC\ARCHITECTURE\UTILITIES\SATURATE.CPP
^C:\USERS\EVERBEEK\GITLAB\FORMATION-CLUSTER-FLIGHT-SIMULATION\BASILISK\SRC\ARCHITECTURE\UTILITIES\LINEARALGEBRA.C
/c /I"C:\USERS\EVERBEEK\GITLAB\FORMATION-CLUSTER-FLIGHT-SIMULATION\BASILISK\SRC\..\DIST3\AUTOSOURCE" /I"C:\USERS\EVERBEEK\GITLAB\FORMATION-CLUSTER-FLIGHT-SIMULATION\BASILISK\SRC" /IC:\USERS\EVERBEEK\APPDATA\LOCAL\PROGRAMS\PYTHON\PYTHON39\INCLUDE /I"C:\USERS\EVERBEEK\GITLAB\FORMATION-CLUSTER-FLIGHT-SIMULATION\BASILISK\SRC\ARCHITECTURE\UTILITIES" /I"C:\USERS\EVERBEEK\GITLAB\FORMATION-CLUSTER-FLIGHT-SIMULATION\BASILISK\SRC\ARCHITECTURE\_GENERALMODULEFILES" /I"C:\USERS\EVERBEEK\GITLAB\FORMATION-CLUSTER-FLIGHT-SIMULATION\BASILISK\SRC\..\LIBS" /IC:\USERS\EVERBEEK\.CONAN\DATA\EIGEN\3.3.7\CONAN\STABLE\PACKAGE\5AB84D6ACFE1F23C4FAE0AB88F26E3A396351AC9\INCLUDE\EIGEN3 /nologo /W3 /WX- /diagnostics:column /O2 /Ob2 /D WIN32 /D _WINDOWS /D NDEBUG /D _CRT_SECURE_NO_WARNINGS /D _WINSOCK_DEPRECATED_NO_WARNINGS /D _WIN32_WINNT=0x0501 /D "CMAKE_INTDIR=\"Release\"" /D bskLogging_EXPORTS /D _WINDLL /D _MBCS /Gm- /EHsc /MT /GS /fp:precise /Zc:wchar_t /Zc:forScope /Zc:inline /GR /Fo"BSKLOGGING.DIR\RELEASE\\" /Fd"BSKLOGGING.DIR\RELEASE\VC142.PDB" /external:env:EXTERNAL_INCLUDE /external:W3 /Gd /TC /wd4913 /wd4251 /wd5208 /wd4267  /bigobj C:\USERS\EVERBEEK\GITLAB\FORMATION-CLUSTER-FLIGHT-SIMULATION\BASILISK\SRC\ARCHITECTURE\UTILITIES\LINEARALGEBRA.C
^C:\USERS\EVERBEEK\GITLAB\FORMATION-CLUSTER-FLIGHT-SIMULATION\BASILISK\SRC\ARCHITECTURE\UTILITIES\ORBITALMOTION.C
/c /I"C:\USERS\EVERBEEK\GITLAB\FORMATION-CLUSTER-FLIGHT-SIMULATION\BASILISK\SRC\..\DIST3\AUTOSOURCE" /I"C:\USERS\EVERBEEK\GITLAB\FORMATION-CLUSTER-FLIGHT-SIMULATION\BASILISK\SRC" /IC:\USERS\EVERBEEK\APPDATA\LOCAL\PROGRAMS\PYTHON\PYTHON39\INCLUDE /I"C:\USERS\EVERBEEK\GITLAB\FORMATION-CLUSTER-FLIGHT-SIMULATION\BASILISK\SRC\ARCHITECTURE\UTILITIES" /I"C:\USERS\EVERBEEK\GITLAB\FORMATION-CLUSTER-FLIGHT-SIMULATION\BASILISK\SRC\ARCHITECTURE\_GENERALMODULEFILES" /I"C:\USERS\EVERBEEK\GITLAB\FORMATION-CLUSTER-FLIGHT-SIMULATION\BASILISK\SRC\..\LIBS" /IC:\USERS\EVERBEEK\.CONAN\DATA\EIGEN\3.3.7\CONAN\STABLE\PACKAGE\5AB84D6ACFE1F23C4FAE0AB88F26E3A396351AC9\INCLUDE\EIGEN3 /nologo /W3 /WX- /diagnostics:column /O2 /Ob2 /D WIN32 /D _WINDOWS /D NDEBUG /D _CRT_SECURE_NO_WARNINGS /D _WINSOCK_DEPRECATED_NO_WARNINGS /D _WIN32_WINNT=0x0501 /D "CMAKE_INTDIR=\"Release\"" /D bskLogging_EXPORTS /D _WINDLL /D _MBCS /Gm- /EHsc /MT /GS /fp:precise /Zc:wchar_t /Zc:forScope /Zc:inline /GR /Fo"BSKLOGGING.DIR\RELEASE\\" /Fd"BSKLOGGING.DIR\RELEASE\VC142.PDB" /external:env:EXTERNAL_INCLUDE /external:W3 /Gd /TC /wd4913 /wd4251 /wd5208 /wd4267  /bigobj C:\USERS\EVERBEEK\GITLAB\FORMATION-CLUSTER-FLIGHT-SIMULATION\BASILISK\SRC\ARCHITECTURE\UTILITIES\ORBITALMOTION.C
^C:\USERS\EVERBEEK\GITLAB\FORMATION-CLUSTER-FLIGHT-SIMULATION\BASILISK\SRC\ARCHITECTURE\UTILITIES\RIGIDBODYKINEMATICS.C
/c /I"C:\USERS\EVERBEEK\GITLAB\FORMATION-CLUSTER-FLIGHT-SIMULATION\BASILISK\SRC\..\DIST3\AUTOSOURCE" /I"C:\USERS\EVERBEEK\GITLAB\FORMATION-CLUSTER-FLIGHT-SIMULATION\BASILISK\SRC" /IC:\USERS\EVERBEEK\APPDATA\LOCAL\PROGRAMS\PYTHON\PYTHON39\INCLUDE /I"C:\USERS\EVERBEEK\GITLAB\FORMATION-CLUSTER-FLIGHT-SIMULATION\BASILISK\SRC\ARCHITECTURE\UTILITIES" /I"C:\USERS\EVERBEEK\GITLAB\FORMATION-CLUSTER-FLIGHT-SIMULATION\BASILISK\SRC\ARCHITECTURE\_GENERALMODULEFILES" /I"C:\USERS\EVERBEEK\GITLAB\FORMATION-CLUSTER-FLIGHT-SIMULATION\BASILISK\SRC\..\LIBS" /IC:\USERS\EVERBEEK\.CONAN\DATA\EIGEN\3.3.7\CONAN\STABLE\PACKAGE\5AB84D6ACFE1F23C4FAE0AB88F26E3A396351AC9\INCLUDE\EIGEN3 /nologo /W3 /WX- /diagnostics:column /O2 /Ob2 /D WIN32 /D _WINDOWS /D NDEBUG /D _CRT_SECURE_NO_WARNINGS /D _WINSOCK_DEPRECATED_NO_WARNINGS /D _WIN32_WINNT=0x0501 /D "CMAKE_INTDIR=\"Release\"" /D bskLogging_EXPORTS /D _WINDLL /D _MBCS /Gm- /EHsc /MT /GS /fp:precise /Zc:wchar_t /Zc:forScope /Zc:inline /GR /Fo"BSKLOGGING.DIR\RELEASE\\" /Fd"BSKLOGGING.DIR\RELEASE\VC142.PDB" /external:env:EXTERNAL_INCLUDE /external:W3 /Gd /TC /wd4913 /wd4251 /wd5208 /wd4267  /bigobj C:\USERS\EVERBEEK\GITLAB\FORMATION-CLUSTER-FLIGHT-SIMULATION\BASILISK\SRC\ARCHITECTURE\UTILITIES\RIGIDBODYKINEMATICS.C
^C:\USERS\EVERBEEK\GITLAB\FORMATION-CLUSTER-FLIGHT-SIMULATION\BASILISK\SRC\ARCHITECTURE\UTILITIES\SIGNALCONDITION.C
/c /I"C:\USERS\EVERBEEK\GITLAB\FORMATION-CLUSTER-FLIGHT-SIMULATION\BASILISK\SRC\..\DIST3\AUTOSOURCE" /I"C:\USERS\EVERBEEK\GITLAB\FORMATION-CLUSTER-FLIGHT-SIMULATION\BASILISK\SRC" /IC:\USERS\EVERBEEK\APPDATA\LOCAL\PROGRAMS\PYTHON\PYTHON39\INCLUDE /I"C:\USERS\EVERBEEK\GITLAB\FORMATION-CLUSTER-FLIGHT-SIMULATION\BASILISK\SRC\ARCHITECTURE\UTILITIES" /I"C:\USERS\EVERBEEK\GITLAB\FORMATION-CLUSTER-FLIGHT-SIMULATION\BASILISK\SRC\ARCHITECTURE\_GENERALMODULEFILES" /I"C:\USERS\EVERBEEK\GITLAB\FORMATION-CLUSTER-FLIGHT-SIMULATION\BASILISK\SRC\..\LIBS" /IC:\USERS\EVERBEEK\.CONAN\DATA\EIGEN\3.3.7\CONAN\STABLE\PACKAGE\5AB84D6ACFE1F23C4FAE0AB88F26E3A396351AC9\INCLUDE\EIGEN3 /nologo /W3 /WX- /diagnostics:column /O2 /Ob2 /D WIN32 /D _WINDOWS /D NDEBUG /D _CRT_SECURE_NO_WARNINGS /D _WINSOCK_DEPRECATED_NO_WARNINGS /D _WIN32_WINNT=0x0501 /D "CMAKE_INTDIR=\"Release\"" /D bskLogging_EXPORTS /D _WINDLL /D _MBCS /Gm- /EHsc /MT /GS /fp:precise /Zc:wchar_t /Zc:forScope /Zc:inline /GR /Fo"BSKLOGGING.DIR\RELEASE\\" /Fd"BSKLOGGING.DIR\RELEASE\VC142.PDB" /external:env:EXTERNAL_INCLUDE /external:W3 /Gd /TC /wd4913 /wd4251 /wd5208 /wd4267  /bigobj C:\USERS\EVERBEEK\GITLAB\FORMATION-CLUSTER-FLIGHT-SIMULATION\BASILISK\SRC\ARCHITECTURE\UTILITIES\SIGNALCONDITION.C
^C:\USERS\EVERBEEK\GITLAB\FORMATION-CLUSTER-FLIGHT-SIMULATION\BASILISK\SRC\ARCHITECTURE\UTILITIES\SVD.C
/c /I"C:\USERS\EVERBEEK\GITLAB\FORMATION-CLUSTER-FLIGHT-SIMULATION\BASILISK\SRC\..\DIST3\AUTOSOURCE" /I"C:\USERS\EVERBEEK\GITLAB\FORMATION-CLUSTER-FLIGHT-SIMULATION\BASILISK\SRC" /IC:\USERS\EVERBEEK\APPDATA\LOCAL\PROGRAMS\PYTHON\PYTHON39\INCLUDE /I"C:\USERS\EVERBEEK\GITLAB\FORMATION-CLUSTER-FLIGHT-SIMULATION\BASILISK\SRC\ARCHITECTURE\UTILITIES" /I"C:\USERS\EVERBEEK\GITLAB\FORMATION-CLUSTER-FLIGHT-SIMULATION\BASILISK\SRC\ARCHITECTURE\_GENERALMODULEFILES" /I"C:\USERS\EVERBEEK\GITLAB\FORMATION-CLUSTER-FLIGHT-SIMULATION\BASILISK\SRC\..\LIBS" /IC:\USERS\EVERBEEK\.CONAN\DATA\EIGEN\3.3.7\CONAN\STABLE\PACKAGE\5AB84D6ACFE1F23C4FAE0AB88F26E3A396351AC9\INCLUDE\EIGEN3 /nologo /W3 /WX- /diagnostics:column /O2 /Ob2 /D WIN32 /D _WINDOWS /D NDEBUG /D _CRT_SECURE_NO_WARNINGS /D _WINSOCK_DEPRECATED_NO_WARNINGS /D _WIN32_WINNT=0x0501 /D "CMAKE_INTDIR=\"Release\"" /D bskLogging_EXPORTS /D _WINDLL /D _MBCS /Gm- /EHsc /MT /GS /fp:precise /Zc:wchar_t /Zc:forScope /Zc:inline /GR /Fo"BSKLOGGING.DIR\RELEASE\\" /Fd"BSKLOGGING.DIR\RELEASE\VC142.PDB" /external:env:EXTERNAL_INCLUDE /external:W3 /Gd /TC /wd4913 /wd4251 /wd5208 /wd4267  /bigobj C:\USERS\EVERBEEK\GITLAB\FORMATION-CLUSTER-FLIGHT-SIMULATION\BASILISK\SRC\ARCHITECTURE\UTILITIES\SVD.C
^C:\USERS\EVERBEEK\GITLAB\FORMATION-CLUSTER-FLIGHT-SIMULATION\BASILISK\SRC\ARCHITECTURE\UTILITIES\UKFUTILITIES.C
/c /I"C:\USERS\EVERBEEK\GITLAB\FORMATION-CLUSTER-FLIGHT-SIMULATION\BASILISK\SRC\..\DIST3\AUTOSOURCE" /I"C:\USERS\EVERBEEK\GITLAB\FORMATION-CLUSTER-FLIGHT-SIMULATION\BASILISK\SRC" /IC:\USERS\EVERBEEK\APPDATA\LOCAL\PROGRAMS\PYTHON\PYTHON39\INCLUDE /I"C:\USERS\EVERBEEK\GITLAB\FORMATION-CLUSTER-FLIGHT-SIMULATION\BASILISK\SRC\ARCHITECTURE\UTILITIES" /I"C:\USERS\EVERBEEK\GITLAB\FORMATION-CLUSTER-FLIGHT-SIMULATION\BASILISK\SRC\ARCHITECTURE\_GENERALMODULEFILES" /I"C:\USERS\EVERBEEK\GITLAB\FORMATION-CLUSTER-FLIGHT-SIMULATION\BASILISK\SRC\..\LIBS" /IC:\USERS\EVERBEEK\.CONAN\DATA\EIGEN\3.3.7\CONAN\STABLE\PACKAGE\5AB84D6ACFE1F23C4FAE0AB88F26E3A396351AC9\INCLUDE\EIGEN3 /nologo /W3 /WX- /diagnostics:column /O2 /Ob2 /D WIN32 /D _WINDOWS /D NDEBUG /D _CRT_SECURE_NO_WARNINGS /D _WINSOCK_DEPRECATED_NO_WARNINGS /D _WIN32_WINNT=0x0501 /D "CMAKE_INTDIR=\"Release\"" /D bskLogging_EXPORTS /D _WINDLL /D _MBCS /Gm- /EHsc /MT /GS /fp:precise /Zc:wchar_t /Zc:forScope /Zc:inline /GR /Fo"BSKLOGGING.DIR\RELEASE\\" /Fd"BSKLOGGING.DIR\RELEASE\VC142.PDB" /external:env:EXTERNAL_INCLUDE /external:W3 /Gd /TC /wd4913 /wd4251 /wd5208 /wd4267  /bigobj C:\USERS\EVERBEEK\GITLAB\FORMATION-CLUSTER-FLIGHT-SIMULATION\BASILISK\SRC\ARCHITECTURE\UTILITIES\UKFUTILITIES.C
