^C:\USERS\EVERBEEK\GITLAB\FORMATION-CLUSTER-FLIGHT-SIMULATION\BASILISK\DIST3\BSKLOGGING.DIR\RELEASE\AVSEIGENSUPPORT.OBJ|C:\USERS\EVERBEEK\GITLAB\FORMATION-CLUSTER-FLIGHT-SIMULATION\BASILISK\DIST3\BSKLOGGING.DIR\RELEASE\BSKLOGGING.OBJ|C:\USERS\EVERBEEK\GITLAB\FORMATION-CLUSTER-FLIGHT-SIMULATION\BASILISK\DIST3\BSKLOGGING.DIR\RELEASE\BSKLOGGINGPYTHON_WRAP.OBJ|C:\USERS\EVERBEEK\GITLAB\FORMATION-CLUSTER-FLIGHT-SIMULATION\BASILISK\DIST3\BSKLOGGING.DIR\RELEASE\DISCRETIZE.OBJ|C:\USERS\EVERBEEK\GITLAB\FORMATION-CLUSTER-FLIGHT-SIMULATION\BASILISK\DIST3\BSKLOGGING.DIR\RELEASE\GAUSS_MARKOV.OBJ|C:\USERS\EVERBEEK\GITLAB\FORMATION-CLUSTER-FLIGHT-SIMULATION\BASILISK\DIST3\BSKLOGGING.DIR\RELEASE\GEODETICCONVERSION.OBJ|C:\USERS\EVERBEEK\GITLAB\FORMATION-CLUSTER-FLIGHT-SIMULATION\BASILISK\DIST3\BSKLOGGING.DIR\RELEASE\KEPLERIANORBIT.OBJ|C:\USERS\EVERBEEK\GITLAB\FORMATION-CLUSTER-FLIGHT-SIMULATION\BASILISK\DIST3\BSKLOGGING.DIR\RELEASE\LINEARALGEBRA.OBJ|C:\USERS\EVERBEEK\GITLAB\FORMATION-CLUSTER-FLIGHT-SIMULATION\BASILISK\DIST3\BSKLOGGING.DIR\RELEASE\ORBITALMOTION.OBJ|C:\USERS\EVERBEEK\GITLAB\FORMATION-CLUSTER-FLIGHT-SIMULATION\BASILISK\DIST3\BSKLOGGING.DIR\RELEASE\RIGIDBODYKINEMATICS.OBJ|C:\USERS\EVERBEEK\GITLAB\FORMATION-CLUSTER-FLIGHT-SIMULATION\BASILISK\DIST3\BSKLOGGING.DIR\RELEASE\SATURATE.OBJ|C:\USERS\EVERBEEK\GITLAB\FORMATION-CLUSTER-FLIGHT-SIMULATION\BASILISK\DIST3\BSKLOGGING.DIR\RELEASE\SIGNALCONDITION.OBJ|C:\USERS\EVERBEEK\GITLAB\FORMATION-CLUSTER-FLIGHT-SIMULATION\BASILISK\DIST3\BSKLOGGING.DIR\RELEASE\SVD.OBJ|C:\USERS\EVERBEEK\GITLAB\FORMATION-CLUSTER-FLIGHT-SIMULATION\BASILISK\DIST3\BSKLOGGING.DIR\RELEASE\UKFUTILITIES.OBJ
/OUT:"C:\USERS\EVERBEEK\GITLAB\FORMATION-CLUSTER-FLIGHT-SIMULATION\BASILISK\DIST3\BASILISK\ARCHITECTURE\_BSKLOGGING.PYD" /INCREMENTAL:NO /NOLOGO BASILISK\ARCHITECTURELIB.LIB BASILISK\ARCHITECTUREUTILITIES.LIB ARCHITECTURE\UTILITIES\RELEASE\MODULEIDGENERATOR.LIB BASILISK\CMSGCINTERFACE.LIB C:\USERS\EVERBEEK\APPDATA\LOCAL\PROGRAMS\PYTHON\PYTHON39\LIBS\PYTHON39.LIB KERNEL32.LIB USER32.LIB GDI32.LIB WINSPOOL.LIB SHELL32.LIB OLE32.LIB OLEAUT32.LIB UUID.LIB COMDLG32.LIB ADVAPI32.LIB /MANIFEST /MANIFESTUAC:"level='asInvoker' uiAccess='false'" /manifest:embed /PDB:"C:/USERS/EVERBEEK/GITLAB/FORMATION-CLUSTER-FLIGHT-SIMULATION/BASILISK/DIST3/BASILISK/ARCHITECTURE/_BSKLOGGING.PDB" /SUBSYSTEM:CONSOLE /TLBID:1 /DYNAMICBASE /NXCOMPAT /IMPLIB:"C:/USERS/EVERBEEK/GITLAB/FORMATION-CLUSTER-FLIGHT-SIMULATION/BASILISK/DIST3/BASILISK/ARCHITECTURE/BSKLOGGING.LIB" /MACHINE:X64  /machine:x64 /DLL BSKLOGGING.DIR\RELEASE\BSKLOGGINGPYTHON_WRAP.OBJ
BSKLOGGING.DIR\RELEASE\AVSEIGENSUPPORT.OBJ
BSKLOGGING.DIR\RELEASE\BSKLOGGING.OBJ
BSKLOGGING.DIR\RELEASE\DISCRETIZE.OBJ
BSKLOGGING.DIR\RELEASE\GAUSS_MARKOV.OBJ
BSKLOGGING.DIR\RELEASE\GEODETICCONVERSION.OBJ
BSKLOGGING.DIR\RELEASE\KEPLERIANORBIT.OBJ
BSKLOGGING.DIR\RELEASE\LINEARALGEBRA.OBJ
BSKLOGGING.DIR\RELEASE\ORBITALMOTION.OBJ
BSKLOGGING.DIR\RELEASE\RIGIDBODYKINEMATICS.OBJ
BSKLOGGING.DIR\RELEASE\SATURATE.OBJ
BSKLOGGING.DIR\RELEASE\SIGNALCONDITION.OBJ
BSKLOGGING.DIR\RELEASE\SVD.OBJ
BSKLOGGING.DIR\RELEASE\UKFUTILITIES.OBJ
