^C:\Users\everbeek\GitLab\formation-cluster-flight-simulation\basilisk\dist3\spacecraft.vcxproj
C:\Users\everbeek\GitLab\formation-cluster-flight-simulation\basilisk\dist3\Basilisk\simulation\spacecraft.lib
C:\Users\everbeek\GitLab\formation-cluster-flight-simulation\basilisk\dist3\Basilisk\simulation\spacecraft.exp
