^C:\USERS\EVERBEEK\GITLAB\FORMATION-CLUSTER-FLIGHT-SIMULATION\BASILISK\DIST3\BASILISK\SIMULATION\REACTIONWHEELSTATEEFFECTORPYTHON_WRAP.CXX|C:\USERS\EVERBEEK\GITLAB\FORMATION-CLUSTER-FLIGHT-SIMULATION\BASILISK\SRC\SIMULATION\DYNAMICS\REACTIONWHEELS\REACTIONWHEELSTATEEFFECTOR.CPP
C:\USERS\EVERBEEK\GITLAB\FORMATION-CLUSTER-FLIGHT-SIMULATION\BASILISK\DIST3\REACTIONWHEELSTATEEFFECTOR.DIR\RELEASE\REACTIONWHEELSTATEEFFECTOR.OBJ
C:\USERS\EVERBEEK\GITLAB\FORMATION-CLUSTER-FLIGHT-SIMULATION\BASILISK\DIST3\REACTIONWHEELSTATEEFFECTOR.DIR\RELEASE\REACTIONWHEELSTATEEFFECTORPYTHON_WRAP.OBJ
