^C:\Users\everbeek\GitLab\formation-cluster-flight-simulation\basilisk\dist3\reactionWheelStateEffector.vcxproj
C:\Users\everbeek\GitLab\formation-cluster-flight-simulation\basilisk\dist3\Basilisk\simulation\reactionWheelStateEffector.lib
C:\Users\everbeek\GitLab\formation-cluster-flight-simulation\basilisk\dist3\Basilisk\simulation\reactionWheelStateEffector.exp
