^C:\Users\everbeek\GitLab\formation-cluster-flight-simulation\basilisk\dist3\sphericalPendulum.vcxproj
C:\Users\everbeek\GitLab\formation-cluster-flight-simulation\basilisk\dist3\Basilisk\simulation\sphericalPendulum.lib
C:\Users\everbeek\GitLab\formation-cluster-flight-simulation\basilisk\dist3\Basilisk\simulation\sphericalPendulum.exp
