^C:\USERS\EVERBEEK\GITLAB\FORMATION-CLUSTER-FLIGHT-SIMULATION\BASILISK\DIST3\BASILISK\SIMULATION\IMUSENSORPYTHON_WRAP.CXX|C:\USERS\EVERBEEK\GITLAB\FORMATION-CLUSTER-FLIGHT-SIMULATION\BASILISK\SRC\SIMULATION\SENSORS\IMUSENSOR\IMUSENSOR.CPP
C:\USERS\EVERBEEK\GITLAB\FORMATION-CLUSTER-FLIGHT-SIMULATION\BASILISK\DIST3\IMUSENSOR.DIR\RELEASE\IMUSENSOR.OBJ
C:\USERS\EVERBEEK\GITLAB\FORMATION-CLUSTER-FLIGHT-SIMULATION\BASILISK\DIST3\IMUSENSOR.DIR\RELEASE\IMUSENSORPYTHON_WRAP.OBJ
