^C:\USERS\EVERBEEK\GITLAB\FORMATION-CLUSTER-FLIGHT-SIMULATION\BASILISK\SRC\FSWALGORITHMS\ATTDETERMINATION\SUNLINEUKF\SUNLINEUKF.I
C:\USERS\EVERBEEK\GITLAB\FORMATION-CLUSTER-FLIGHT-SIMULATION\BASILISK\DIST3\BASILISK\FSWALGORITHMS\SUNLINEUKFPYTHON_WRAP.C
C:\USERS\EVERBEEK\GITLAB\FORMATION-CLUSTER-FLIGHT-SIMULATION\BASILISK\DIST3\BASILISK\FSWALGORITHMS\SUNLINEUKF.PY
^C:\USERS\EVERBEEK\GITLAB\FORMATION-CLUSTER-FLIGHT-SIMULATION\BASILISK\SRC\CMAKELISTS.TXT
C:\USERS\EVERBEEK\GITLAB\FORMATION-CLUSTER-FLIGHT-SIMULATION\BASILISK\DIST3\CMAKEFILES\GENERATE.STAMP
