^C:\USERS\EVERBEEK\GITLAB\FORMATION-CLUSTER-FLIGHT-SIMULATION\BASILISK\DIST3\BASILISK\FSWALGORITHMS\THRFIRINGSCHMITTPYTHON_WRAP.C|C:\USERS\EVERBEEK\GITLAB\FORMATION-CLUSTER-FLIGHT-SIMULATION\BASILISK\SRC\FSWALGORITHMS\EFFECTORINTERFACES\THRFIRINGSCHMITT\THRFIRINGSCHMITT.C
C:\USERS\EVERBEEK\GITLAB\FORMATION-CLUSTER-FLIGHT-SIMULATION\BASILISK\DIST3\THRFIRINGSCHMITT.DIR\RELEASE\THRFIRINGSCHMITTPYTHON_WRAP.OBJ
C:\USERS\EVERBEEK\GITLAB\FORMATION-CLUSTER-FLIGHT-SIMULATION\BASILISK\DIST3\THRFIRINGSCHMITT.DIR\RELEASE\THRFIRINGSCHMITT.OBJ
