^C:\USERS\EVERBEEK\GITLAB\FORMATION-CLUSTER-FLIGHT-SIMULATION\BASILISK\DIST3\THRFIRINGSCHMITT.DIR\RELEASE\THRFIRINGSCHMITT.OBJ|C:\USERS\EVERBEEK\GITLAB\FORMATION-CLUSTER-FLIGHT-SIMULATION\BASILISK\DIST3\THRFIRINGSCHMITT.DIR\RELEASE\THRFIRINGSCHMITTPYTHON_WRAP.OBJ
/OUT:"C:\USERS\EVERBEEK\GITLAB\FORMATION-CLUSTER-FLIGHT-SIMULATION\BASILISK\DIST3\BASILISK\FSWALGORITHMS\_THRFIRINGSCHMITT.PYD" /INCREMENTAL:NO /NOLOGO BASILISK\EFFECTORINTERFACESLIB.LIB BASILISK\ARCHITECTURELIB.LIB BASILISK\ARCHITECTUREUTILITIES.LIB ARCHITECTURE\UTILITIES\RELEASE\MODULEIDGENERATOR.LIB BASILISK\CMSGCINTERFACE.LIB C:\USERS\EVERBEEK\APPDATA\LOCAL\PROGRAMS\PYTHON\PYTHON39\LIBS\PYTHON39.LIB KERNEL32.LIB USER32.LIB GDI32.LIB WINSPOOL.LIB SHELL32.LIB OLE32.LIB OLEAUT32.LIB UUID.LIB COMDLG32.LIB ADVAPI32.LIB /MANIFEST /MANIFESTUAC:"level='asInvoker' uiAccess='false'" /manifest:embed /PDB:"C:/USERS/EVERBEEK/GITLAB/FORMATION-CLUSTER-FLIGHT-SIMULATION/BASILISK/DIST3/BASILISK/FSWALGORITHMS/_THRFIRINGSCHMITT.PDB" /SUBSYSTEM:CONSOLE /TLBID:1 /DYNAMICBASE /NXCOMPAT /IMPLIB:"C:/USERS/EVERBEEK/GITLAB/FORMATION-CLUSTER-FLIGHT-SIMULATION/BASILISK/DIST3/BASILISK/FSWALGORITHMS/THRFIRINGSCHMITT.LIB" /MACHINE:X64  /machine:x64 /DLL THRFIRINGSCHMITT.DIR\RELEASE\THRFIRINGSCHMITTPYTHON_WRAP.OBJ
THRFIRINGSCHMITT.DIR\RELEASE\THRFIRINGSCHMITT.OBJ
