^C:\Users\everbeek\GitLab\formation-cluster-flight-simulation\basilisk\dist3\ephemNavConverter.vcxproj
C:\Users\everbeek\GitLab\formation-cluster-flight-simulation\basilisk\dist3\Basilisk\fswAlgorithms\ephemNavConverter.lib
C:\Users\everbeek\GitLab\formation-cluster-flight-simulation\basilisk\dist3\Basilisk\fswAlgorithms\ephemNavConverter.exp
