^C:\Users\everbeek\GitLab\formation-cluster-flight-simulation\basilisk\dist3\sunlineEphem.vcxproj
C:\Users\everbeek\GitLab\formation-cluster-flight-simulation\basilisk\dist3\Basilisk\fswAlgorithms\sunlineEphem.lib
C:\Users\everbeek\GitLab\formation-cluster-flight-simulation\basilisk\dist3\Basilisk\fswAlgorithms\sunlineEphem.exp
