^C:\USERS\EVERBEEK\GITLAB\FORMATION-CLUSTER-FLIGHT-SIMULATION\BASILISK\DIST3\BASILISK\FSWALGORITHMS\RWMOTORVOLTAGEPYTHON_WRAP.C|C:\USERS\EVERBEEK\GITLAB\FORMATION-CLUSTER-FLIGHT-SIMULATION\BASILISK\SRC\FSWALGORITHMS\EFFECTORINTERFACES\RWMOTORVOLTAGE\RWMOTORVOLTAGE.C
C:\USERS\EVERBEEK\GITLAB\FORMATION-CLUSTER-FLIGHT-SIMULATION\BASILISK\DIST3\RWMOTORVOLTAGE.DIR\RELEASE\RWMOTORVOLTAGE.OBJ
C:\USERS\EVERBEEK\GITLAB\FORMATION-CLUSTER-FLIGHT-SIMULATION\BASILISK\DIST3\RWMOTORVOLTAGE.DIR\RELEASE\RWMOTORVOLTAGEPYTHON_WRAP.OBJ
