^C:\USERS\EVERBEEK\GITLAB\FORMATION-CLUSTER-FLIGHT-SIMULATION\BASILISK\DIST3\BASILISK\FSWALGORITHMS\RATESERVOFULLNONLINEARPYTHON_WRAP.C|C:\USERS\EVERBEEK\GITLAB\FORMATION-CLUSTER-FLIGHT-SIMULATION\BASILISK\SRC\FSWALGORITHMS\ATTCONTROL\RATESERVOFULLNONLINEAR\RATESERVOFULLNONLINEAR.C
C:\USERS\EVERBEEK\GITLAB\FORMATION-CLUSTER-FLIGHT-SIMULATION\BASILISK\DIST3\RATESERVOFULLNONLINEAR.DIR\RELEASE\RATESERVOFULLNONLINEARPYTHON_WRAP.OBJ
C:\USERS\EVERBEEK\GITLAB\FORMATION-CLUSTER-FLIGHT-SIMULATION\BASILISK\DIST3\RATESERVOFULLNONLINEAR.DIR\RELEASE\RATESERVOFULLNONLINEAR.OBJ
