^C:\Users\everbeek\GitLab\formation-cluster-flight-simulation\basilisk\dist3\mtbMomentumManagement.vcxproj
C:\Users\everbeek\GitLab\formation-cluster-flight-simulation\basilisk\dist3\Basilisk\fswAlgorithms\mtbMomentumManagement.lib
C:\Users\everbeek\GitLab\formation-cluster-flight-simulation\basilisk\dist3\Basilisk\fswAlgorithms\mtbMomentumManagement.exp
