^C:\Users\everbeek\GitLab\formation-cluster-flight-simulation\basilisk\dist3\thrMomentumDumping.vcxproj
C:\Users\everbeek\GitLab\formation-cluster-flight-simulation\basilisk\dist3\Basilisk\fswAlgorithms\thrMomentumDumping.lib
C:\Users\everbeek\GitLab\formation-cluster-flight-simulation\basilisk\dist3\Basilisk\fswAlgorithms\thrMomentumDumping.exp
