^C:\Users\everbeek\GitLab\formation-cluster-flight-simulation\basilisk\dist3\ephemDifference.vcxproj
C:\Users\everbeek\GitLab\formation-cluster-flight-simulation\basilisk\dist3\Basilisk\fswAlgorithms\ephemDifference.lib
C:\Users\everbeek\GitLab\formation-cluster-flight-simulation\basilisk\dist3\Basilisk\fswAlgorithms\ephemDifference.exp
