^C:\USERS\EVERBEEK\GITLAB\FORMATION-CLUSTER-FLIGHT-SIMULATION\BASILISK\DIST3\BASILISK\FSWALGORITHMS\PIXELLINECONVERTERPYTHON_WRAP.C|C:\USERS\EVERBEEK\GITLAB\FORMATION-CLUSTER-FLIGHT-SIMULATION\BASILISK\SRC\FSWALGORITHMS\IMAGEPROCESSING\PIXELLINECONVERTER\PIXELLINECONVERTER.C
C:\USERS\EVERBEEK\GITLAB\FORMATION-CLUSTER-FLIGHT-SIMULATION\BASILISK\DIST3\PIXELLINECONVERTER.DIR\RELEASE\PIXELLINECONVERTER.OBJ
C:\USERS\EVERBEEK\GITLAB\FORMATION-CLUSTER-FLIGHT-SIMULATION\BASILISK\DIST3\PIXELLINECONVERTER.DIR\RELEASE\PIXELLINECONVERTERPYTHON_WRAP.OBJ
