^C:\USERS\EVERBEEK\GITLAB\FORMATION-CLUSTER-FLIGHT-SIMULATION\BASILISK\DIST3\BASILISK\SIMULATION\DUALHINGEDRIGIDBODYSTATEEFFECTORPYTHON_WRAP.CXX|C:\USERS\EVERBEEK\GITLAB\FORMATION-CLUSTER-FLIGHT-SIMULATION\BASILISK\SRC\SIMULATION\DYNAMICS\DUALHINGEDRIGIDBODIES\DUALHINGEDRIGIDBODYSTATEEFFECTOR.CPP
C:\USERS\EVERBEEK\GITLAB\FORMATION-CLUSTER-FLIGHT-SIMULATION\BASILISK\DIST3\DUALHINGEDRIGIDBODYSTATEEFFECTOR.DIR\RELEASE\DUALHINGEDRIGIDBODYSTATEEFFECTORPYTHON_WRAP.OBJ
C:\USERS\EVERBEEK\GITLAB\FORMATION-CLUSTER-FLIGHT-SIMULATION\BASILISK\DIST3\DUALHINGEDRIGIDBODYSTATEEFFECTOR.DIR\RELEASE\DUALHINGEDRIGIDBODYSTATEEFFECTOR.OBJ
