^C:\USERS\EVERBEEK\GITLAB\FORMATION-CLUSTER-FLIGHT-SIMULATION\BASILISK\SRC\SIMULATION\DYNAMICS\DUALHINGEDRIGIDBODIES\DUALHINGEDRIGIDBODYSTATEEFFECTOR.I
setlocal
set PATH=C:/Users/everbeek/GitLab/formation-cluster-flight-simulation/basilisk/dist3/Basilisk;%PATH%
"C:\Program Files\CMake\bin\cmake.exe" -E make_directory C:/Users/everbeek/GitLab/formation-cluster-flight-simulation/basilisk/dist3/Basilisk/simulation C:/Users/everbeek/GitLab/formation-cluster-flight-simulation/basilisk/dist3/Basilisk/simulation
if %errorlevel% neq 0 goto :cmEnd
"C:\Program Files\CMake\bin\cmake.exe" -E env "SWIG_LIB=C:/Program Files/Swig/Lib" "C:/Program Files/Swig/swig.exe" -python -IC:/Users/everbeek/GitLab/formation-cluster-flight-simulation/basilisk/src/../dist3/autoSource -IC:/Users/everbeek/GitLab/formation-cluster-flight-simulation/basilisk/src -IC:/Users/everbeek/AppData/Local/Programs/Python/Python39/include -IC:/Users/everbeek/GitLab/formation-cluster-flight-simulation/basilisk/src/simulation/dynamics/dualHingedRigidBodies -IC:/Users/everbeek/GitLab/formation-cluster-flight-simulation/basilisk/src/architecture/_GeneralModuleFiles -IC:/Users/everbeek/GitLab/formation-cluster-flight-simulation/basilisk/src/../libs -IC:/Users/everbeek/.conan/data/eigen/3.3.7/conan/stable/package/5ab84d6acfe1f23c4fae0ab88f26e3a396351ac9/include/eigen3 -outdir C:/Users/everbeek/GitLab/formation-cluster-flight-simulation/basilisk/dist3/Basilisk/simulation -c++ -interface _dualHingedRigidBodyStateEffector -IC:/Users/everbeek/GitLab/formation-cluster-flight-simulation/basilisk/src/../dist3/autoSource -IC:/Users/everbeek/GitLab/formation-cluster-flight-simulation/basilisk/src -o C:/Users/everbeek/GitLab/formation-cluster-flight-simulation/basilisk/dist3/Basilisk/simulation/dualHingedRigidBodyStateEffectorPYTHON_wrap.cxx C:/Users/everbeek/GitLab/formation-cluster-flight-simulation/basilisk/src/simulation/dynamics/dualHingedRigidBodies/dualHingedRigidBodyStateEffector.i
if %errorlevel% neq 0 goto :cmEnd
:cmEnd
endlocal & call :cmErrorLevel %errorlevel% & goto :cmDone
:cmErrorLevel
exit /b %1
:cmDone
if %errorlevel% neq 0 goto :VCEnd
^C:\USERS\EVERBEEK\GITLAB\FORMATION-CLUSTER-FLIGHT-SIMULATION\BASILISK\SRC\CMAKELISTS.TXT
setlocal
set PATH=C:/Users/everbeek/GitLab/formation-cluster-flight-simulation/basilisk/dist3/Basilisk;%PATH%
"C:\Program Files\CMake\bin\cmake.exe" -SC:/Users/everbeek/GitLab/formation-cluster-flight-simulation/basilisk/src -BC:/Users/everbeek/GitLab/formation-cluster-flight-simulation/basilisk/dist3 --check-stamp-file C:/Users/everbeek/GitLab/formation-cluster-flight-simulation/basilisk/dist3/CMakeFiles/generate.stamp
if %errorlevel% neq 0 goto :cmEnd
:cmEnd
endlocal & call :cmErrorLevel %errorlevel% & goto :cmDone
:cmErrorLevel
exit /b %1
:cmDone
if %errorlevel% neq 0 goto :VCEnd
