^C:\USERS\EVERBEEK\GITLAB\FORMATION-CLUSTER-FLIGHT-SIMULATION\BASILISK\DIST3\BASILISK\SIMULATION\SPACECRAFTLOCATIONPYTHON_WRAP.CXX|C:\USERS\EVERBEEK\GITLAB\FORMATION-CLUSTER-FLIGHT-SIMULATION\BASILISK\SRC\SIMULATION\ENVIRONMENT\SPACECRAFTLOCATION\SPACECRAFTLOCATION.CPP
C:\USERS\EVERBEEK\GITLAB\FORMATION-CLUSTER-FLIGHT-SIMULATION\BASILISK\DIST3\SPACECRAFTLOCATION.DIR\RELEASE\SPACECRAFTLOCATIONPYTHON_WRAP.OBJ
C:\USERS\EVERBEEK\GITLAB\FORMATION-CLUSTER-FLIGHT-SIMULATION\BASILISK\DIST3\SPACECRAFTLOCATION.DIR\RELEASE\SPACECRAFTLOCATION.OBJ
