^C:\USERS\EVERBEEK\GITLAB\FORMATION-CLUSTER-FLIGHT-SIMULATION\BASILISK\SRC\CMAKELISTS.TXT
setlocal
set PATH=C:/Users/everbeek/GitLab/formation-cluster-flight-simulation/basilisk/dist3/Basilisk;%PATH%
"C:\Program Files\CMake\bin\cmake.exe" -SC:/Users/everbeek/GitLab/formation-cluster-flight-simulation/basilisk/src -BC:/Users/everbeek/GitLab/formation-cluster-flight-simulation/basilisk/dist3 --check-stamp-file C:/Users/everbeek/GitLab/formation-cluster-flight-simulation/basilisk/dist3/CMakeFiles/generate.stamp
if %errorlevel% neq 0 goto :cmEnd
:cmEnd
endlocal & call :cmErrorLevel %errorlevel% & goto :cmDone
:cmErrorLevel
exit /b %1
:cmDone
if %errorlevel% neq 0 goto :VCEnd
