^C:\Users\everbeek\GitLab\formation-cluster-flight-simulation\basilisk\dist3\transDeterminationLib.vcxproj
C:\Users\everbeek\GitLab\formation-cluster-flight-simulation\basilisk\dist3\Basilisk\transDeterminationLib.lib
C:\Users\everbeek\GitLab\formation-cluster-flight-simulation\basilisk\dist3\Basilisk\transDeterminationLib.exp
