^C:\USERS\EVERBEEK\GITLAB\FORMATION-CLUSTER-FLIGHT-SIMULATION\BASILISK\SRC\FSWALGORITHMS\SMALLBODYNAVIGATION\SMALLBODYNAVEKF\SMALLBODYNAVEKF.CPP
C:\USERS\EVERBEEK\GITLAB\FORMATION-CLUSTER-FLIGHT-SIMULATION\BASILISK\SRC\FSWALGORITHMS\SMALLBODYNAVIGATION\SMALLBODYNAVEKF\SMALLBODYNAVEKF.H
C:\USERS\EVERBEEK\GITLAB\FORMATION-CLUSTER-FLIGHT-SIMULATION\BASILISK\SRC\ARCHITECTURE\_GENERALMODULEFILES\SYS_MODEL.H
C:\PROGRAM FILES (X86)\MICROSOFT VISUAL STUDIO\2019\COMMUNITY\VC\TOOLS\MSVC\14.29.30037\INCLUDE\STRING
C:\PROGRAM FILES (X86)\MICROSOFT VISUAL STUDIO\2019\COMMUNITY\VC\TOOLS\MSVC\14.29.30037\INCLUDE\YVALS_CORE.H
C:\PROGRAM FILES (X86)\MICROSOFT VISUAL STUDIO\2019\COMMUNITY\VC\TOOLS\MSVC\14.29.30037\INCLUDE\VCRUNTIME.H
C:\PROGRAM FILES (X86)\MICROSOFT VISUAL STUDIO\2019\COMMUNITY\VC\TOOLS\MSVC\14.29.30037\INCLUDE\SAL.H
C:\PROGRAM FILES (X86)\MICROSOFT VISUAL STUDIO\2019\COMMUNITY\VC\TOOLS\MSVC\14.29.30037\INCLUDE\CONCURRENCYSAL.H
C:\PROGRAM FILES (X86)\MICROSOFT VISUAL STUDIO\2019\COMMUNITY\VC\TOOLS\MSVC\14.29.30037\INCLUDE\VADEFS.H
C:\PROGRAM FILES (X86)\MICROSOFT VISUAL STUDIO\2019\COMMUNITY\VC\TOOLS\MSVC\14.29.30037\INCLUDE\XKEYCHECK.H
C:\PROGRAM FILES (X86)\MICROSOFT VISUAL STUDIO\2019\COMMUNITY\VC\TOOLS\MSVC\14.29.30037\INCLUDE\XSTRING
C:\PROGRAM FILES (X86)\MICROSOFT VISUAL STUDIO\2019\COMMUNITY\VC\TOOLS\MSVC\14.29.30037\INCLUDE\IOSFWD
C:\PROGRAM FILES (X86)\MICROSOFT VISUAL STUDIO\2019\COMMUNITY\VC\TOOLS\MSVC\14.29.30037\INCLUDE\YVALS.H
C:\PROGRAM FILES (X86)\WINDOWS KITS\10\INCLUDE\10.0.19041.0\UCRT\CRTDBG.H
C:\PROGRAM FILES (X86)\WINDOWS KITS\10\INCLUDE\10.0.19041.0\UCRT\CORECRT.H
C:\PROGRAM FILES (X86)\MICROSOFT VISUAL STUDIO\2019\COMMUNITY\VC\TOOLS\MSVC\14.29.30037\INCLUDE\VCRUNTIME_NEW_DEBUG.H
C:\PROGRAM FILES (X86)\MICROSOFT VISUAL STUDIO\2019\COMMUNITY\VC\TOOLS\MSVC\14.29.30037\INCLUDE\VCRUNTIME_NEW.H
C:\PROGRAM FILES (X86)\MICROSOFT VISUAL STUDIO\2019\COMMUNITY\VC\TOOLS\MSVC\14.29.30037\INCLUDE\CRTDEFS.H
C:\PROGRAM FILES (X86)\MICROSOFT VISUAL STUDIO\2019\COMMUNITY\VC\TOOLS\MSVC\14.29.30037\INCLUDE\USE_ANSI.H
C:\PROGRAM FILES (X86)\MICROSOFT VISUAL STUDIO\2019\COMMUNITY\VC\TOOLS\MSVC\14.29.30037\INCLUDE\CSTDIO
C:\PROGRAM FILES (X86)\WINDOWS KITS\10\INCLUDE\10.0.19041.0\UCRT\STDIO.H
C:\PROGRAM FILES (X86)\WINDOWS KITS\10\INCLUDE\10.0.19041.0\UCRT\CORECRT_WSTDIO.H
C:\PROGRAM FILES (X86)\WINDOWS KITS\10\INCLUDE\10.0.19041.0\UCRT\CORECRT_STDIO_CONFIG.H
C:\PROGRAM FILES (X86)\MICROSOFT VISUAL STUDIO\2019\COMMUNITY\VC\TOOLS\MSVC\14.29.30037\INCLUDE\CSTRING
C:\PROGRAM FILES (X86)\WINDOWS KITS\10\INCLUDE\10.0.19041.0\UCRT\STRING.H
C:\PROGRAM FILES (X86)\WINDOWS KITS\10\INCLUDE\10.0.19041.0\UCRT\CORECRT_MEMORY.H
C:\PROGRAM FILES (X86)\WINDOWS KITS\10\INCLUDE\10.0.19041.0\UCRT\CORECRT_MEMCPY_S.H
C:\PROGRAM FILES (X86)\WINDOWS KITS\10\INCLUDE\10.0.19041.0\UCRT\ERRNO.H
C:\PROGRAM FILES (X86)\MICROSOFT VISUAL STUDIO\2019\COMMUNITY\VC\TOOLS\MSVC\14.29.30037\INCLUDE\VCRUNTIME_STRING.H
C:\PROGRAM FILES (X86)\WINDOWS KITS\10\INCLUDE\10.0.19041.0\UCRT\CORECRT_WSTRING.H
C:\PROGRAM FILES (X86)\MICROSOFT VISUAL STUDIO\2019\COMMUNITY\VC\TOOLS\MSVC\14.29.30037\INCLUDE\CWCHAR
C:\PROGRAM FILES (X86)\WINDOWS KITS\10\INCLUDE\10.0.19041.0\UCRT\WCHAR.H
C:\PROGRAM FILES (X86)\WINDOWS KITS\10\INCLUDE\10.0.19041.0\UCRT\CORECRT_WCONIO.H
C:\PROGRAM FILES (X86)\WINDOWS KITS\10\INCLUDE\10.0.19041.0\UCRT\CORECRT_WCTYPE.H
C:\PROGRAM FILES (X86)\WINDOWS KITS\10\INCLUDE\10.0.19041.0\UCRT\CORECRT_WDIRECT.H
C:\PROGRAM FILES (X86)\WINDOWS KITS\10\INCLUDE\10.0.19041.0\UCRT\CORECRT_WIO.H
C:\PROGRAM FILES (X86)\WINDOWS KITS\10\INCLUDE\10.0.19041.0\UCRT\CORECRT_SHARE.H
C:\PROGRAM FILES (X86)\WINDOWS KITS\10\INCLUDE\10.0.19041.0\UCRT\CORECRT_WPROCESS.H
C:\PROGRAM FILES (X86)\WINDOWS KITS\10\INCLUDE\10.0.19041.0\UCRT\CORECRT_WSTDLIB.H
C:\PROGRAM FILES (X86)\WINDOWS KITS\10\INCLUDE\10.0.19041.0\UCRT\CORECRT_WTIME.H
C:\PROGRAM FILES (X86)\WINDOWS KITS\10\INCLUDE\10.0.19041.0\UCRT\SYS\STAT.H
C:\PROGRAM FILES (X86)\WINDOWS KITS\10\INCLUDE\10.0.19041.0\UCRT\SYS\TYPES.H
C:\PROGRAM FILES (X86)\MICROSOFT VISUAL STUDIO\2019\COMMUNITY\VC\TOOLS\MSVC\14.29.30037\INCLUDE\XSTDDEF
C:\PROGRAM FILES (X86)\MICROSOFT VISUAL STUDIO\2019\COMMUNITY\VC\TOOLS\MSVC\14.29.30037\INCLUDE\CSTDDEF
C:\PROGRAM FILES (X86)\WINDOWS KITS\10\INCLUDE\10.0.19041.0\UCRT\STDDEF.H
C:\PROGRAM FILES (X86)\MICROSOFT VISUAL STUDIO\2019\COMMUNITY\VC\TOOLS\MSVC\14.29.30037\INCLUDE\XTR1COMMON
C:\PROGRAM FILES (X86)\MICROSOFT VISUAL STUDIO\2019\COMMUNITY\VC\TOOLS\MSVC\14.29.30037\INCLUDE\CSTDLIB
C:\PROGRAM FILES (X86)\WINDOWS KITS\10\INCLUDE\10.0.19041.0\UCRT\MATH.H
C:\PROGRAM FILES (X86)\WINDOWS KITS\10\INCLUDE\10.0.19041.0\UCRT\CORECRT_MATH.H
C:\PROGRAM FILES (X86)\WINDOWS KITS\10\INCLUDE\10.0.19041.0\UCRT\STDLIB.H
C:\PROGRAM FILES (X86)\WINDOWS KITS\10\INCLUDE\10.0.19041.0\UCRT\CORECRT_MALLOC.H
C:\PROGRAM FILES (X86)\WINDOWS KITS\10\INCLUDE\10.0.19041.0\UCRT\CORECRT_SEARCH.H
C:\PROGRAM FILES (X86)\MICROSOFT VISUAL STUDIO\2019\COMMUNITY\VC\TOOLS\MSVC\14.29.30037\INCLUDE\LIMITS.H
C:\PROGRAM FILES (X86)\MICROSOFT VISUAL STUDIO\2019\COMMUNITY\VC\TOOLS\MSVC\14.29.30037\INCLUDE\INITIALIZER_LIST
C:\PROGRAM FILES (X86)\MICROSOFT VISUAL STUDIO\2019\COMMUNITY\VC\TOOLS\MSVC\14.29.30037\INCLUDE\XMEMORY
C:\PROGRAM FILES (X86)\MICROSOFT VISUAL STUDIO\2019\COMMUNITY\VC\TOOLS\MSVC\14.29.30037\INCLUDE\CSTDINT
C:\PROGRAM FILES (X86)\MICROSOFT VISUAL STUDIO\2019\COMMUNITY\VC\TOOLS\MSVC\14.29.30037\INCLUDE\STDINT.H
C:\PROGRAM FILES (X86)\MICROSOFT VISUAL STUDIO\2019\COMMUNITY\VC\TOOLS\MSVC\14.29.30037\INCLUDE\LIMITS
C:\PROGRAM FILES (X86)\MICROSOFT VISUAL STUDIO\2019\COMMUNITY\VC\TOOLS\MSVC\14.29.30037\INCLUDE\CFLOAT
C:\PROGRAM FILES (X86)\WINDOWS KITS\10\INCLUDE\10.0.19041.0\UCRT\FLOAT.H
C:\PROGRAM FILES (X86)\MICROSOFT VISUAL STUDIO\2019\COMMUNITY\VC\TOOLS\MSVC\14.29.30037\INCLUDE\CLIMITS
C:\PROGRAM FILES (X86)\MICROSOFT VISUAL STUDIO\2019\COMMUNITY\VC\TOOLS\MSVC\14.29.30037\INCLUDE\INTRIN0.H
C:\PROGRAM FILES (X86)\MICROSOFT VISUAL STUDIO\2019\COMMUNITY\VC\TOOLS\MSVC\14.29.30037\INCLUDE\ISA_AVAILABILITY.H
C:\PROGRAM FILES (X86)\MICROSOFT VISUAL STUDIO\2019\COMMUNITY\VC\TOOLS\MSVC\14.29.30037\INCLUDE\NEW
C:\PROGRAM FILES (X86)\MICROSOFT VISUAL STUDIO\2019\COMMUNITY\VC\TOOLS\MSVC\14.29.30037\INCLUDE\EXCEPTION
C:\PROGRAM FILES (X86)\MICROSOFT VISUAL STUDIO\2019\COMMUNITY\VC\TOOLS\MSVC\14.29.30037\INCLUDE\TYPE_TRAITS
C:\PROGRAM FILES (X86)\WINDOWS KITS\10\INCLUDE\10.0.19041.0\UCRT\MALLOC.H
C:\PROGRAM FILES (X86)\MICROSOFT VISUAL STUDIO\2019\COMMUNITY\VC\TOOLS\MSVC\14.29.30037\INCLUDE\VCRUNTIME_EXCEPTION.H
C:\PROGRAM FILES (X86)\MICROSOFT VISUAL STUDIO\2019\COMMUNITY\VC\TOOLS\MSVC\14.29.30037\INCLUDE\EH.H
C:\PROGRAM FILES (X86)\WINDOWS KITS\10\INCLUDE\10.0.19041.0\UCRT\CORECRT_TERMINATE.H
C:\PROGRAM FILES (X86)\MICROSOFT VISUAL STUDIO\2019\COMMUNITY\VC\TOOLS\MSVC\14.29.30037\INCLUDE\XATOMIC.H
C:\PROGRAM FILES (X86)\MICROSOFT VISUAL STUDIO\2019\COMMUNITY\VC\TOOLS\MSVC\14.29.30037\INCLUDE\XUTILITY
C:\PROGRAM FILES (X86)\MICROSOFT VISUAL STUDIO\2019\COMMUNITY\VC\TOOLS\MSVC\14.29.30037\INCLUDE\UTILITY
C:\PROGRAM FILES (X86)\MICROSOFT VISUAL STUDIO\2019\COMMUNITY\VC\TOOLS\MSVC\14.29.30037\INCLUDE\CCTYPE
C:\PROGRAM FILES (X86)\WINDOWS KITS\10\INCLUDE\10.0.19041.0\UCRT\CTYPE.H
C:\USERS\EVERBEEK\GITLAB\FORMATION-CLUSTER-FLIGHT-SIMULATION\BASILISK\SRC\ARCHITECTURE\UTILITIES\BSKLOGGING.H
C:\PROGRAM FILES (X86)\MICROSOFT VISUAL STUDIO\2019\COMMUNITY\VC\TOOLS\MSVC\14.29.30037\INCLUDE\MAP
C:\PROGRAM FILES (X86)\MICROSOFT VISUAL STUDIO\2019\COMMUNITY\VC\TOOLS\MSVC\14.29.30037\INCLUDE\TUPLE
C:\PROGRAM FILES (X86)\MICROSOFT VISUAL STUDIO\2019\COMMUNITY\VC\TOOLS\MSVC\14.29.30037\INCLUDE\XTREE
C:\USERS\EVERBEEK\GITLAB\FORMATION-CLUSTER-FLIGHT-SIMULATION\BASILISK\DIST3\AUTOSOURCE\CMSGCINTERFACE\NAVTRANSMSG_C.H
C:\USERS\EVERBEEK\GITLAB\FORMATION-CLUSTER-FLIGHT-SIMULATION\BASILISK\SRC\ARCHITECTURE\MSGPAYLOADDEFC\NAVTRANSMSGPAYLOAD.H
C:\USERS\EVERBEEK\GITLAB\FORMATION-CLUSTER-FLIGHT-SIMULATION\BASILISK\SRC\ARCHITECTURE\MESSAGING\MSG2HEADER.H
C:\USERS\EVERBEEK\GITLAB\FORMATION-CLUSTER-FLIGHT-SIMULATION\BASILISK\DIST3\AUTOSOURCE\CMSGCINTERFACE\NAVATTMSG_C.H
C:\USERS\EVERBEEK\GITLAB\FORMATION-CLUSTER-FLIGHT-SIMULATION\BASILISK\SRC\ARCHITECTURE\MSGPAYLOADDEFC\NAVATTMSGPAYLOAD.H
C:\USERS\EVERBEEK\GITLAB\FORMATION-CLUSTER-FLIGHT-SIMULATION\BASILISK\DIST3\AUTOSOURCE\CMSGCINTERFACE\EPHEMERISMSG_C.H
C:\USERS\EVERBEEK\GITLAB\FORMATION-CLUSTER-FLIGHT-SIMULATION\BASILISK\SRC\ARCHITECTURE\MSGPAYLOADDEFC\EPHEMERISMSGPAYLOAD.H
C:\USERS\EVERBEEK\GITLAB\FORMATION-CLUSTER-FLIGHT-SIMULATION\BASILISK\SRC\ARCHITECTURE\MSGPAYLOADDEFC\RWSPEEDMSGPAYLOAD.H
C:\USERS\EVERBEEK\GITLAB\FORMATION-CLUSTER-FLIGHT-SIMULATION\BASILISK\SRC\ARCHITECTURE\UTILITIES\MACRODEFINITIONS.H
C:\USERS\EVERBEEK\GITLAB\FORMATION-CLUSTER-FLIGHT-SIMULATION\BASILISK\DIST3\AUTOSOURCE\CMSGCINTERFACE\SMALLBODYNAVMSG_C.H
C:\USERS\EVERBEEK\GITLAB\FORMATION-CLUSTER-FLIGHT-SIMULATION\BASILISK\SRC\ARCHITECTURE\MSGPAYLOADDEFC\SMALLBODYNAVMSGPAYLOAD.H
C:\USERS\EVERBEEK\GITLAB\FORMATION-CLUSTER-FLIGHT-SIMULATION\BASILISK\SRC\ARCHITECTURE\MSGPAYLOADDEFC\RWCONFIGLOGMSGPAYLOAD.H
C:\USERS\EVERBEEK\GITLAB\FORMATION-CLUSTER-FLIGHT-SIMULATION\BASILISK\SRC\SIMULATION\DYNAMICS\REACTIONWHEELS\REACTIONWHEELSUPPORT.H
C:\USERS\EVERBEEK\GITLAB\FORMATION-CLUSTER-FLIGHT-SIMULATION\BASILISK\SRC\ARCHITECTURE\MSGPAYLOADDEFCPP\THROUTPUTMSGPAYLOAD.H
C:\USERS\EVERBEEK\GITLAB\FORMATION-CLUSTER-FLIGHT-SIMULATION\BASILISK\SRC\ARCHITECTURE\MESSAGING\MESSAGING.H
C:\PROGRAM FILES (X86)\MICROSOFT VISUAL STUDIO\2019\COMMUNITY\VC\TOOLS\MSVC\14.29.30037\INCLUDE\MEMORY
C:\PROGRAM FILES (X86)\MICROSOFT VISUAL STUDIO\2019\COMMUNITY\VC\TOOLS\MSVC\14.29.30037\INCLUDE\TYPEINFO
C:\PROGRAM FILES (X86)\MICROSOFT VISUAL STUDIO\2019\COMMUNITY\VC\TOOLS\MSVC\14.29.30037\INCLUDE\VCRUNTIME_TYPEINFO.H
C:\PROGRAM FILES (X86)\MICROSOFT VISUAL STUDIO\2019\COMMUNITY\VC\TOOLS\MSVC\14.29.30037\INCLUDE\VECTOR
C:\USERS\EVERBEEK\GITLAB\FORMATION-CLUSTER-FLIGHT-SIMULATION\BASILISK\SRC\ARCHITECTURE\UTILITIES\ORBITALMOTION.H
C:\USERS\EVERBEEK\GITLAB\FORMATION-CLUSTER-FLIGHT-SIMULATION\BASILISK\SRC\ARCHITECTURE\MSGPAYLOADDEFC\CLASSICELEMENTSMSGPAYLOAD.H
C:\USERS\EVERBEEK\GITLAB\FORMATION-CLUSTER-FLIGHT-SIMULATION\BASILISK\SRC\ARCHITECTURE\UTILITIES\AVSEIGENSUPPORT.H
C:\USERS\EVERBEEK\.CONAN\DATA\EIGEN\3.3.7\CONAN\STABLE\PACKAGE\5AB84D6ACFE1F23C4FAE0AB88F26E3A396351AC9\INCLUDE\EIGEN3\EIGEN\DENSE
C:\USERS\EVERBEEK\.CONAN\DATA\EIGEN\3.3.7\CONAN\STABLE\PACKAGE\5AB84D6ACFE1F23C4FAE0AB88F26E3A396351AC9\INCLUDE\EIGEN3\EIGEN\CORE
C:\USERS\EVERBEEK\.CONAN\DATA\EIGEN\3.3.7\CONAN\STABLE\PACKAGE\5AB84D6ACFE1F23C4FAE0AB88F26E3A396351AC9\INCLUDE\EIGEN3\EIGEN\SRC\CORE\UTIL\DISABLESTUPIDWARNINGS.H
C:\USERS\EVERBEEK\.CONAN\DATA\EIGEN\3.3.7\CONAN\STABLE\PACKAGE\5AB84D6ACFE1F23C4FAE0AB88F26E3A396351AC9\INCLUDE\EIGEN3\EIGEN\SRC\CORE\UTIL\MACROS.H
C:\PROGRAM FILES (X86)\MICROSOFT VISUAL STUDIO\2019\COMMUNITY\VC\TOOLS\MSVC\14.29.30037\INCLUDE\COMPLEX
C:\PROGRAM FILES (X86)\MICROSOFT VISUAL STUDIO\2019\COMMUNITY\VC\TOOLS\MSVC\14.29.30037\INCLUDE\CMATH
C:\PROGRAM FILES (X86)\MICROSOFT VISUAL STUDIO\2019\COMMUNITY\VC\TOOLS\MSVC\14.29.30037\INCLUDE\SSTREAM
C:\PROGRAM FILES (X86)\MICROSOFT VISUAL STUDIO\2019\COMMUNITY\VC\TOOLS\MSVC\14.29.30037\INCLUDE\ISTREAM
C:\PROGRAM FILES (X86)\MICROSOFT VISUAL STUDIO\2019\COMMUNITY\VC\TOOLS\MSVC\14.29.30037\INCLUDE\OSTREAM
C:\PROGRAM FILES (X86)\MICROSOFT VISUAL STUDIO\2019\COMMUNITY\VC\TOOLS\MSVC\14.29.30037\INCLUDE\IOS
C:\PROGRAM FILES (X86)\MICROSOFT VISUAL STUDIO\2019\COMMUNITY\VC\TOOLS\MSVC\14.29.30037\INCLUDE\XLOCNUM
C:\PROGRAM FILES (X86)\MICROSOFT VISUAL STUDIO\2019\COMMUNITY\VC\TOOLS\MSVC\14.29.30037\INCLUDE\ITERATOR
C:\PROGRAM FILES (X86)\MICROSOFT VISUAL STUDIO\2019\COMMUNITY\VC\TOOLS\MSVC\14.29.30037\INCLUDE\STREAMBUF
C:\PROGRAM FILES (X86)\MICROSOFT VISUAL STUDIO\2019\COMMUNITY\VC\TOOLS\MSVC\14.29.30037\INCLUDE\XIOSBASE
C:\PROGRAM FILES (X86)\WINDOWS KITS\10\INCLUDE\10.0.19041.0\UCRT\SHARE.H
C:\PROGRAM FILES (X86)\MICROSOFT VISUAL STUDIO\2019\COMMUNITY\VC\TOOLS\MSVC\14.29.30037\INCLUDE\SYSTEM_ERROR
C:\PROGRAM FILES (X86)\MICROSOFT VISUAL STUDIO\2019\COMMUNITY\VC\TOOLS\MSVC\14.29.30037\INCLUDE\__MSVC_SYSTEM_ERROR_ABI.HPP
C:\PROGRAM FILES (X86)\MICROSOFT VISUAL STUDIO\2019\COMMUNITY\VC\TOOLS\MSVC\14.29.30037\INCLUDE\CERRNO
C:\PROGRAM FILES (X86)\MICROSOFT VISUAL STUDIO\2019\COMMUNITY\VC\TOOLS\MSVC\14.29.30037\INCLUDE\STDEXCEPT
C:\PROGRAM FILES (X86)\MICROSOFT VISUAL STUDIO\2019\COMMUNITY\VC\TOOLS\MSVC\14.29.30037\INCLUDE\XCALL_ONCE.H
C:\PROGRAM FILES (X86)\MICROSOFT VISUAL STUDIO\2019\COMMUNITY\VC\TOOLS\MSVC\14.29.30037\INCLUDE\XERRC.H
C:\PROGRAM FILES (X86)\MICROSOFT VISUAL STUDIO\2019\COMMUNITY\VC\TOOLS\MSVC\14.29.30037\INCLUDE\ATOMIC
C:\PROGRAM FILES (X86)\MICROSOFT VISUAL STUDIO\2019\COMMUNITY\VC\TOOLS\MSVC\14.29.30037\INCLUDE\XTHREADS.H
C:\PROGRAM FILES (X86)\MICROSOFT VISUAL STUDIO\2019\COMMUNITY\VC\TOOLS\MSVC\14.29.30037\INCLUDE\XTIMEC.H
C:\PROGRAM FILES (X86)\MICROSOFT VISUAL STUDIO\2019\COMMUNITY\VC\TOOLS\MSVC\14.29.30037\INCLUDE\CTIME
C:\PROGRAM FILES (X86)\WINDOWS KITS\10\INCLUDE\10.0.19041.0\UCRT\TIME.H
C:\PROGRAM FILES (X86)\MICROSOFT VISUAL STUDIO\2019\COMMUNITY\VC\TOOLS\MSVC\14.29.30037\INCLUDE\XLOCALE
C:\PROGRAM FILES (X86)\MICROSOFT VISUAL STUDIO\2019\COMMUNITY\VC\TOOLS\MSVC\14.29.30037\INCLUDE\XFACET
C:\PROGRAM FILES (X86)\MICROSOFT VISUAL STUDIO\2019\COMMUNITY\VC\TOOLS\MSVC\14.29.30037\INCLUDE\XLOCINFO
C:\PROGRAM FILES (X86)\MICROSOFT VISUAL STUDIO\2019\COMMUNITY\VC\TOOLS\MSVC\14.29.30037\INCLUDE\XLOCINFO.H
C:\PROGRAM FILES (X86)\MICROSOFT VISUAL STUDIO\2019\COMMUNITY\VC\TOOLS\MSVC\14.29.30037\INCLUDE\CLOCALE
C:\PROGRAM FILES (X86)\WINDOWS KITS\10\INCLUDE\10.0.19041.0\UCRT\LOCALE.H
C:\PROGRAM FILES (X86)\MICROSOFT VISUAL STUDIO\2019\COMMUNITY\VC\TOOLS\MSVC\14.29.30037\INCLUDE\YMATH.H
C:\PROGRAM FILES (X86)\MICROSOFT VISUAL STUDIO\2019\COMMUNITY\VC\TOOLS\MSVC\14.29.30037\INCLUDE\EMMINTRIN.H
C:\PROGRAM FILES (X86)\MICROSOFT VISUAL STUDIO\2019\COMMUNITY\VC\TOOLS\MSVC\14.29.30037\INCLUDE\XMMINTRIN.H
C:\PROGRAM FILES (X86)\MICROSOFT VISUAL STUDIO\2019\COMMUNITY\VC\TOOLS\MSVC\14.29.30037\INCLUDE\MMINTRIN.H
C:\USERS\EVERBEEK\.CONAN\DATA\EIGEN\3.3.7\CONAN\STABLE\PACKAGE\5AB84D6ACFE1F23C4FAE0AB88F26E3A396351AC9\INCLUDE\EIGEN3\EIGEN\SRC\CORE\UTIL\MKL_SUPPORT.H
C:\PROGRAM FILES (X86)\MICROSOFT VISUAL STUDIO\2019\COMMUNITY\VC\TOOLS\MSVC\14.29.30037\INCLUDE\CASSERT
C:\PROGRAM FILES (X86)\WINDOWS KITS\10\INCLUDE\10.0.19041.0\UCRT\ASSERT.H
C:\PROGRAM FILES (X86)\MICROSOFT VISUAL STUDIO\2019\COMMUNITY\VC\TOOLS\MSVC\14.29.30037\INCLUDE\FUNCTIONAL
C:\PROGRAM FILES (X86)\MICROSOFT VISUAL STUDIO\2019\COMMUNITY\VC\TOOLS\MSVC\14.29.30037\INCLUDE\ALGORITHM
C:\PROGRAM FILES (X86)\MICROSOFT VISUAL STUDIO\2019\COMMUNITY\VC\TOOLS\MSVC\14.29.30037\INCLUDE\INTRIN.H
C:\PROGRAM FILES (X86)\MICROSOFT VISUAL STUDIO\2019\COMMUNITY\VC\TOOLS\MSVC\14.29.30037\INCLUDE\SETJMP.H
C:\PROGRAM FILES (X86)\MICROSOFT VISUAL STUDIO\2019\COMMUNITY\VC\TOOLS\MSVC\14.29.30037\INCLUDE\IMMINTRIN.H
C:\PROGRAM FILES (X86)\MICROSOFT VISUAL STUDIO\2019\COMMUNITY\VC\TOOLS\MSVC\14.29.30037\INCLUDE\WMMINTRIN.H
C:\PROGRAM FILES (X86)\MICROSOFT VISUAL STUDIO\2019\COMMUNITY\VC\TOOLS\MSVC\14.29.30037\INCLUDE\NMMINTRIN.H
C:\PROGRAM FILES (X86)\MICROSOFT VISUAL STUDIO\2019\COMMUNITY\VC\TOOLS\MSVC\14.29.30037\INCLUDE\SMMINTRIN.H
C:\PROGRAM FILES (X86)\MICROSOFT VISUAL STUDIO\2019\COMMUNITY\VC\TOOLS\MSVC\14.29.30037\INCLUDE\TMMINTRIN.H
C:\PROGRAM FILES (X86)\MICROSOFT VISUAL STUDIO\2019\COMMUNITY\VC\TOOLS\MSVC\14.29.30037\INCLUDE\PMMINTRIN.H
C:\PROGRAM FILES (X86)\MICROSOFT VISUAL STUDIO\2019\COMMUNITY\VC\TOOLS\MSVC\14.29.30037\INCLUDE\ZMMINTRIN.H
C:\PROGRAM FILES (X86)\MICROSOFT VISUAL STUDIO\2019\COMMUNITY\VC\TOOLS\MSVC\14.29.30037\INCLUDE\AMMINTRIN.H
C:\USERS\EVERBEEK\.CONAN\DATA\EIGEN\3.3.7\CONAN\STABLE\PACKAGE\5AB84D6ACFE1F23C4FAE0AB88F26E3A396351AC9\INCLUDE\EIGEN3\EIGEN\SRC\CORE\UTIL\CONSTANTS.H
C:\USERS\EVERBEEK\.CONAN\DATA\EIGEN\3.3.7\CONAN\STABLE\PACKAGE\5AB84D6ACFE1F23C4FAE0AB88F26E3A396351AC9\INCLUDE\EIGEN3\EIGEN\SRC\CORE\UTIL\META.H
C:\USERS\EVERBEEK\.CONAN\DATA\EIGEN\3.3.7\CONAN\STABLE\PACKAGE\5AB84D6ACFE1F23C4FAE0AB88F26E3A396351AC9\INCLUDE\EIGEN3\EIGEN\SRC\CORE\UTIL\FORWARDDECLARATIONS.H
C:\USERS\EVERBEEK\.CONAN\DATA\EIGEN\3.3.7\CONAN\STABLE\PACKAGE\5AB84D6ACFE1F23C4FAE0AB88F26E3A396351AC9\INCLUDE\EIGEN3\EIGEN\SRC\CORE\UTIL\STATICASSERT.H
C:\USERS\EVERBEEK\.CONAN\DATA\EIGEN\3.3.7\CONAN\STABLE\PACKAGE\5AB84D6ACFE1F23C4FAE0AB88F26E3A396351AC9\INCLUDE\EIGEN3\EIGEN\SRC\CORE\UTIL\XPRHELPER.H
C:\USERS\EVERBEEK\.CONAN\DATA\EIGEN\3.3.7\CONAN\STABLE\PACKAGE\5AB84D6ACFE1F23C4FAE0AB88F26E3A396351AC9\INCLUDE\EIGEN3\EIGEN\SRC\CORE\UTIL\MEMORY.H
C:\USERS\EVERBEEK\.CONAN\DATA\EIGEN\3.3.7\CONAN\STABLE\PACKAGE\5AB84D6ACFE1F23C4FAE0AB88F26E3A396351AC9\INCLUDE\EIGEN3\EIGEN\SRC\CORE\NUMTRAITS.H
C:\USERS\EVERBEEK\.CONAN\DATA\EIGEN\3.3.7\CONAN\STABLE\PACKAGE\5AB84D6ACFE1F23C4FAE0AB88F26E3A396351AC9\INCLUDE\EIGEN3\EIGEN\SRC\CORE\MATHFUNCTIONS.H
C:\USERS\EVERBEEK\.CONAN\DATA\EIGEN\3.3.7\CONAN\STABLE\PACKAGE\5AB84D6ACFE1F23C4FAE0AB88F26E3A396351AC9\INCLUDE\EIGEN3\EIGEN\SRC\CORE\GENERICPACKETMATH.H
C:\USERS\EVERBEEK\.CONAN\DATA\EIGEN\3.3.7\CONAN\STABLE\PACKAGE\5AB84D6ACFE1F23C4FAE0AB88F26E3A396351AC9\INCLUDE\EIGEN3\EIGEN\SRC\CORE\MATHFUNCTIONSIMPL.H
C:\USERS\EVERBEEK\.CONAN\DATA\EIGEN\3.3.7\CONAN\STABLE\PACKAGE\5AB84D6ACFE1F23C4FAE0AB88F26E3A396351AC9\INCLUDE\EIGEN3\EIGEN\SRC\CORE\ARCH\DEFAULT\CONJHELPER.H
C:\USERS\EVERBEEK\.CONAN\DATA\EIGEN\3.3.7\CONAN\STABLE\PACKAGE\5AB84D6ACFE1F23C4FAE0AB88F26E3A396351AC9\INCLUDE\EIGEN3\EIGEN\SRC\CORE\ARCH\SSE\PACKETMATH.H
C:\USERS\EVERBEEK\.CONAN\DATA\EIGEN\3.3.7\CONAN\STABLE\PACKAGE\5AB84D6ACFE1F23C4FAE0AB88F26E3A396351AC9\INCLUDE\EIGEN3\EIGEN\SRC\CORE\ARCH\SSE\MATHFUNCTIONS.H
C:\USERS\EVERBEEK\.CONAN\DATA\EIGEN\3.3.7\CONAN\STABLE\PACKAGE\5AB84D6ACFE1F23C4FAE0AB88F26E3A396351AC9\INCLUDE\EIGEN3\EIGEN\SRC\CORE\ARCH\SSE\COMPLEX.H
C:\USERS\EVERBEEK\.CONAN\DATA\EIGEN\3.3.7\CONAN\STABLE\PACKAGE\5AB84D6ACFE1F23C4FAE0AB88F26E3A396351AC9\INCLUDE\EIGEN3\EIGEN\SRC\CORE\ARCH\SSE\TYPECASTING.H
C:\USERS\EVERBEEK\.CONAN\DATA\EIGEN\3.3.7\CONAN\STABLE\PACKAGE\5AB84D6ACFE1F23C4FAE0AB88F26E3A396351AC9\INCLUDE\EIGEN3\EIGEN\SRC\CORE\ARCH\CUDA\HALF.H
C:\USERS\EVERBEEK\.CONAN\DATA\EIGEN\3.3.7\CONAN\STABLE\PACKAGE\5AB84D6ACFE1F23C4FAE0AB88F26E3A396351AC9\INCLUDE\EIGEN3\EIGEN\SRC\CORE\ARCH\CUDA\PACKETMATHHALF.H
C:\USERS\EVERBEEK\.CONAN\DATA\EIGEN\3.3.7\CONAN\STABLE\PACKAGE\5AB84D6ACFE1F23C4FAE0AB88F26E3A396351AC9\INCLUDE\EIGEN3\EIGEN\SRC\CORE\ARCH\CUDA\TYPECASTING.H
C:\USERS\EVERBEEK\.CONAN\DATA\EIGEN\3.3.7\CONAN\STABLE\PACKAGE\5AB84D6ACFE1F23C4FAE0AB88F26E3A396351AC9\INCLUDE\EIGEN3\EIGEN\SRC\CORE\ARCH\DEFAULT\SETTINGS.H
C:\USERS\EVERBEEK\.CONAN\DATA\EIGEN\3.3.7\CONAN\STABLE\PACKAGE\5AB84D6ACFE1F23C4FAE0AB88F26E3A396351AC9\INCLUDE\EIGEN3\EIGEN\SRC\CORE\FUNCTORS\TERNARYFUNCTORS.H
C:\USERS\EVERBEEK\.CONAN\DATA\EIGEN\3.3.7\CONAN\STABLE\PACKAGE\5AB84D6ACFE1F23C4FAE0AB88F26E3A396351AC9\INCLUDE\EIGEN3\EIGEN\SRC\CORE\FUNCTORS\BINARYFUNCTORS.H
C:\USERS\EVERBEEK\.CONAN\DATA\EIGEN\3.3.7\CONAN\STABLE\PACKAGE\5AB84D6ACFE1F23C4FAE0AB88F26E3A396351AC9\INCLUDE\EIGEN3\EIGEN\SRC\CORE\FUNCTORS\UNARYFUNCTORS.H
C:\USERS\EVERBEEK\.CONAN\DATA\EIGEN\3.3.7\CONAN\STABLE\PACKAGE\5AB84D6ACFE1F23C4FAE0AB88F26E3A396351AC9\INCLUDE\EIGEN3\EIGEN\SRC\CORE\FUNCTORS\NULLARYFUNCTORS.H
C:\USERS\EVERBEEK\.CONAN\DATA\EIGEN\3.3.7\CONAN\STABLE\PACKAGE\5AB84D6ACFE1F23C4FAE0AB88F26E3A396351AC9\INCLUDE\EIGEN3\EIGEN\SRC\CORE\FUNCTORS\STLFUNCTORS.H
C:\USERS\EVERBEEK\.CONAN\DATA\EIGEN\3.3.7\CONAN\STABLE\PACKAGE\5AB84D6ACFE1F23C4FAE0AB88F26E3A396351AC9\INCLUDE\EIGEN3\EIGEN\SRC\CORE\FUNCTORS\ASSIGNMENTFUNCTORS.H
C:\USERS\EVERBEEK\.CONAN\DATA\EIGEN\3.3.7\CONAN\STABLE\PACKAGE\5AB84D6ACFE1F23C4FAE0AB88F26E3A396351AC9\INCLUDE\EIGEN3\EIGEN\SRC\CORE\ARCH\CUDA\COMPLEX.H
C:\USERS\EVERBEEK\.CONAN\DATA\EIGEN\3.3.7\CONAN\STABLE\PACKAGE\5AB84D6ACFE1F23C4FAE0AB88F26E3A396351AC9\INCLUDE\EIGEN3\EIGEN\SRC\CORE\IO.H
C:\USERS\EVERBEEK\.CONAN\DATA\EIGEN\3.3.7\CONAN\STABLE\PACKAGE\5AB84D6ACFE1F23C4FAE0AB88F26E3A396351AC9\INCLUDE\EIGEN3\EIGEN\SRC\CORE\DENSECOEFFSBASE.H
C:\USERS\EVERBEEK\.CONAN\DATA\EIGEN\3.3.7\CONAN\STABLE\PACKAGE\5AB84D6ACFE1F23C4FAE0AB88F26E3A396351AC9\INCLUDE\EIGEN3\EIGEN\SRC\CORE\DENSEBASE.H
C:\USERS\EVERBEEK\.CONAN\DATA\EIGEN\3.3.7\CONAN\STABLE\PACKAGE\5AB84D6ACFE1F23C4FAE0AB88F26E3A396351AC9\INCLUDE\EIGEN3\EIGEN\SRC\PLUGINS\BLOCKMETHODS.H
C:\USERS\EVERBEEK\.CONAN\DATA\EIGEN\3.3.7\CONAN\STABLE\PACKAGE\5AB84D6ACFE1F23C4FAE0AB88F26E3A396351AC9\INCLUDE\EIGEN3\EIGEN\SRC\CORE\MATRIXBASE.H
C:\USERS\EVERBEEK\.CONAN\DATA\EIGEN\3.3.7\CONAN\STABLE\PACKAGE\5AB84D6ACFE1F23C4FAE0AB88F26E3A396351AC9\INCLUDE\EIGEN3\EIGEN\SRC\PLUGINS\COMMONCWISEUNARYOPS.H
C:\USERS\EVERBEEK\.CONAN\DATA\EIGEN\3.3.7\CONAN\STABLE\PACKAGE\5AB84D6ACFE1F23C4FAE0AB88F26E3A396351AC9\INCLUDE\EIGEN3\EIGEN\SRC\PLUGINS\COMMONCWISEBINARYOPS.H
C:\USERS\EVERBEEK\.CONAN\DATA\EIGEN\3.3.7\CONAN\STABLE\PACKAGE\5AB84D6ACFE1F23C4FAE0AB88F26E3A396351AC9\INCLUDE\EIGEN3\EIGEN\SRC\PLUGINS\MATRIXCWISEUNARYOPS.H
C:\USERS\EVERBEEK\.CONAN\DATA\EIGEN\3.3.7\CONAN\STABLE\PACKAGE\5AB84D6ACFE1F23C4FAE0AB88F26E3A396351AC9\INCLUDE\EIGEN3\EIGEN\SRC\PLUGINS\MATRIXCWISEBINARYOPS.H
C:\USERS\EVERBEEK\.CONAN\DATA\EIGEN\3.3.7\CONAN\STABLE\PACKAGE\5AB84D6ACFE1F23C4FAE0AB88F26E3A396351AC9\INCLUDE\EIGEN3\EIGEN\SRC\CORE\EIGENBASE.H
C:\USERS\EVERBEEK\.CONAN\DATA\EIGEN\3.3.7\CONAN\STABLE\PACKAGE\5AB84D6ACFE1F23C4FAE0AB88F26E3A396351AC9\INCLUDE\EIGEN3\EIGEN\SRC\CORE\PRODUCT.H
C:\USERS\EVERBEEK\.CONAN\DATA\EIGEN\3.3.7\CONAN\STABLE\PACKAGE\5AB84D6ACFE1F23C4FAE0AB88F26E3A396351AC9\INCLUDE\EIGEN3\EIGEN\SRC\CORE\COREEVALUATORS.H
C:\USERS\EVERBEEK\.CONAN\DATA\EIGEN\3.3.7\CONAN\STABLE\PACKAGE\5AB84D6ACFE1F23C4FAE0AB88F26E3A396351AC9\INCLUDE\EIGEN3\EIGEN\SRC\CORE\ASSIGNEVALUATOR.H
C:\USERS\EVERBEEK\.CONAN\DATA\EIGEN\3.3.7\CONAN\STABLE\PACKAGE\5AB84D6ACFE1F23C4FAE0AB88F26E3A396351AC9\INCLUDE\EIGEN3\EIGEN\SRC\CORE\ASSIGN.H
C:\USERS\EVERBEEK\.CONAN\DATA\EIGEN\3.3.7\CONAN\STABLE\PACKAGE\5AB84D6ACFE1F23C4FAE0AB88F26E3A396351AC9\INCLUDE\EIGEN3\EIGEN\SRC\CORE\ARRAYBASE.H
C:\USERS\EVERBEEK\.CONAN\DATA\EIGEN\3.3.7\CONAN\STABLE\PACKAGE\5AB84D6ACFE1F23C4FAE0AB88F26E3A396351AC9\INCLUDE\EIGEN3\EIGEN\SRC\PLUGINS\ARRAYCWISEUNARYOPS.H
C:\USERS\EVERBEEK\.CONAN\DATA\EIGEN\3.3.7\CONAN\STABLE\PACKAGE\5AB84D6ACFE1F23C4FAE0AB88F26E3A396351AC9\INCLUDE\EIGEN3\EIGEN\SRC\PLUGINS\ARRAYCWISEBINARYOPS.H
C:\USERS\EVERBEEK\.CONAN\DATA\EIGEN\3.3.7\CONAN\STABLE\PACKAGE\5AB84D6ACFE1F23C4FAE0AB88F26E3A396351AC9\INCLUDE\EIGEN3\EIGEN\SRC\CORE\UTIL\BLASUTIL.H
C:\USERS\EVERBEEK\.CONAN\DATA\EIGEN\3.3.7\CONAN\STABLE\PACKAGE\5AB84D6ACFE1F23C4FAE0AB88F26E3A396351AC9\INCLUDE\EIGEN3\EIGEN\SRC\CORE\DENSESTORAGE.H
C:\USERS\EVERBEEK\.CONAN\DATA\EIGEN\3.3.7\CONAN\STABLE\PACKAGE\5AB84D6ACFE1F23C4FAE0AB88F26E3A396351AC9\INCLUDE\EIGEN3\EIGEN\SRC\CORE\NESTBYVALUE.H
C:\USERS\EVERBEEK\.CONAN\DATA\EIGEN\3.3.7\CONAN\STABLE\PACKAGE\5AB84D6ACFE1F23C4FAE0AB88F26E3A396351AC9\INCLUDE\EIGEN3\EIGEN\SRC\CORE\RETURNBYVALUE.H
C:\USERS\EVERBEEK\.CONAN\DATA\EIGEN\3.3.7\CONAN\STABLE\PACKAGE\5AB84D6ACFE1F23C4FAE0AB88F26E3A396351AC9\INCLUDE\EIGEN3\EIGEN\SRC\CORE\NOALIAS.H
C:\USERS\EVERBEEK\.CONAN\DATA\EIGEN\3.3.7\CONAN\STABLE\PACKAGE\5AB84D6ACFE1F23C4FAE0AB88F26E3A396351AC9\INCLUDE\EIGEN3\EIGEN\SRC\CORE\PLAINOBJECTBASE.H
C:\USERS\EVERBEEK\.CONAN\DATA\EIGEN\3.3.7\CONAN\STABLE\PACKAGE\5AB84D6ACFE1F23C4FAE0AB88F26E3A396351AC9\INCLUDE\EIGEN3\EIGEN\SRC\CORE\MATRIX.H
C:\USERS\EVERBEEK\.CONAN\DATA\EIGEN\3.3.7\CONAN\STABLE\PACKAGE\5AB84D6ACFE1F23C4FAE0AB88F26E3A396351AC9\INCLUDE\EIGEN3\EIGEN\SRC\CORE\ARRAY.H
C:\USERS\EVERBEEK\.CONAN\DATA\EIGEN\3.3.7\CONAN\STABLE\PACKAGE\5AB84D6ACFE1F23C4FAE0AB88F26E3A396351AC9\INCLUDE\EIGEN3\EIGEN\SRC\CORE\CWISETERNARYOP.H
C:\USERS\EVERBEEK\.CONAN\DATA\EIGEN\3.3.7\CONAN\STABLE\PACKAGE\5AB84D6ACFE1F23C4FAE0AB88F26E3A396351AC9\INCLUDE\EIGEN3\EIGEN\SRC\CORE\CWISEBINARYOP.H
C:\USERS\EVERBEEK\.CONAN\DATA\EIGEN\3.3.7\CONAN\STABLE\PACKAGE\5AB84D6ACFE1F23C4FAE0AB88F26E3A396351AC9\INCLUDE\EIGEN3\EIGEN\SRC\CORE\CWISEUNARYOP.H
C:\USERS\EVERBEEK\.CONAN\DATA\EIGEN\3.3.7\CONAN\STABLE\PACKAGE\5AB84D6ACFE1F23C4FAE0AB88F26E3A396351AC9\INCLUDE\EIGEN3\EIGEN\SRC\CORE\CWISENULLARYOP.H
C:\USERS\EVERBEEK\.CONAN\DATA\EIGEN\3.3.7\CONAN\STABLE\PACKAGE\5AB84D6ACFE1F23C4FAE0AB88F26E3A396351AC9\INCLUDE\EIGEN3\EIGEN\SRC\CORE\CWISEUNARYVIEW.H
C:\USERS\EVERBEEK\.CONAN\DATA\EIGEN\3.3.7\CONAN\STABLE\PACKAGE\5AB84D6ACFE1F23C4FAE0AB88F26E3A396351AC9\INCLUDE\EIGEN3\EIGEN\SRC\CORE\SELFCWISEBINARYOP.H
C:\USERS\EVERBEEK\.CONAN\DATA\EIGEN\3.3.7\CONAN\STABLE\PACKAGE\5AB84D6ACFE1F23C4FAE0AB88F26E3A396351AC9\INCLUDE\EIGEN3\EIGEN\SRC\CORE\DOT.H
C:\USERS\EVERBEEK\.CONAN\DATA\EIGEN\3.3.7\CONAN\STABLE\PACKAGE\5AB84D6ACFE1F23C4FAE0AB88F26E3A396351AC9\INCLUDE\EIGEN3\EIGEN\SRC\CORE\STABLENORM.H
C:\USERS\EVERBEEK\.CONAN\DATA\EIGEN\3.3.7\CONAN\STABLE\PACKAGE\5AB84D6ACFE1F23C4FAE0AB88F26E3A396351AC9\INCLUDE\EIGEN3\EIGEN\SRC\CORE\STRIDE.H
C:\USERS\EVERBEEK\.CONAN\DATA\EIGEN\3.3.7\CONAN\STABLE\PACKAGE\5AB84D6ACFE1F23C4FAE0AB88F26E3A396351AC9\INCLUDE\EIGEN3\EIGEN\SRC\CORE\MAPBASE.H
C:\USERS\EVERBEEK\.CONAN\DATA\EIGEN\3.3.7\CONAN\STABLE\PACKAGE\5AB84D6ACFE1F23C4FAE0AB88F26E3A396351AC9\INCLUDE\EIGEN3\EIGEN\SRC\CORE\MAP.H
C:\USERS\EVERBEEK\.CONAN\DATA\EIGEN\3.3.7\CONAN\STABLE\PACKAGE\5AB84D6ACFE1F23C4FAE0AB88F26E3A396351AC9\INCLUDE\EIGEN3\EIGEN\SRC\CORE\REF.H
C:\USERS\EVERBEEK\.CONAN\DATA\EIGEN\3.3.7\CONAN\STABLE\PACKAGE\5AB84D6ACFE1F23C4FAE0AB88F26E3A396351AC9\INCLUDE\EIGEN3\EIGEN\SRC\CORE\BLOCK.H
C:\USERS\EVERBEEK\.CONAN\DATA\EIGEN\3.3.7\CONAN\STABLE\PACKAGE\5AB84D6ACFE1F23C4FAE0AB88F26E3A396351AC9\INCLUDE\EIGEN3\EIGEN\SRC\CORE\VECTORBLOCK.H
C:\USERS\EVERBEEK\.CONAN\DATA\EIGEN\3.3.7\CONAN\STABLE\PACKAGE\5AB84D6ACFE1F23C4FAE0AB88F26E3A396351AC9\INCLUDE\EIGEN3\EIGEN\SRC\CORE\TRANSPOSE.H
C:\USERS\EVERBEEK\.CONAN\DATA\EIGEN\3.3.7\CONAN\STABLE\PACKAGE\5AB84D6ACFE1F23C4FAE0AB88F26E3A396351AC9\INCLUDE\EIGEN3\EIGEN\SRC\CORE\DIAGONALMATRIX.H
C:\USERS\EVERBEEK\.CONAN\DATA\EIGEN\3.3.7\CONAN\STABLE\PACKAGE\5AB84D6ACFE1F23C4FAE0AB88F26E3A396351AC9\INCLUDE\EIGEN3\EIGEN\SRC\CORE\DIAGONAL.H
C:\USERS\EVERBEEK\.CONAN\DATA\EIGEN\3.3.7\CONAN\STABLE\PACKAGE\5AB84D6ACFE1F23C4FAE0AB88F26E3A396351AC9\INCLUDE\EIGEN3\EIGEN\SRC\CORE\DIAGONALPRODUCT.H
C:\USERS\EVERBEEK\.CONAN\DATA\EIGEN\3.3.7\CONAN\STABLE\PACKAGE\5AB84D6ACFE1F23C4FAE0AB88F26E3A396351AC9\INCLUDE\EIGEN3\EIGEN\SRC\CORE\REDUX.H
C:\USERS\EVERBEEK\.CONAN\DATA\EIGEN\3.3.7\CONAN\STABLE\PACKAGE\5AB84D6ACFE1F23C4FAE0AB88F26E3A396351AC9\INCLUDE\EIGEN3\EIGEN\SRC\CORE\VISITOR.H
C:\USERS\EVERBEEK\.CONAN\DATA\EIGEN\3.3.7\CONAN\STABLE\PACKAGE\5AB84D6ACFE1F23C4FAE0AB88F26E3A396351AC9\INCLUDE\EIGEN3\EIGEN\SRC\CORE\FUZZY.H
C:\USERS\EVERBEEK\.CONAN\DATA\EIGEN\3.3.7\CONAN\STABLE\PACKAGE\5AB84D6ACFE1F23C4FAE0AB88F26E3A396351AC9\INCLUDE\EIGEN3\EIGEN\SRC\CORE\SWAP.H
C:\USERS\EVERBEEK\.CONAN\DATA\EIGEN\3.3.7\CONAN\STABLE\PACKAGE\5AB84D6ACFE1F23C4FAE0AB88F26E3A396351AC9\INCLUDE\EIGEN3\EIGEN\SRC\CORE\COMMAINITIALIZER.H
C:\USERS\EVERBEEK\.CONAN\DATA\EIGEN\3.3.7\CONAN\STABLE\PACKAGE\5AB84D6ACFE1F23C4FAE0AB88F26E3A396351AC9\INCLUDE\EIGEN3\EIGEN\SRC\CORE\GENERALPRODUCT.H
C:\USERS\EVERBEEK\.CONAN\DATA\EIGEN\3.3.7\CONAN\STABLE\PACKAGE\5AB84D6ACFE1F23C4FAE0AB88F26E3A396351AC9\INCLUDE\EIGEN3\EIGEN\SRC\CORE\SOLVE.H
C:\USERS\EVERBEEK\.CONAN\DATA\EIGEN\3.3.7\CONAN\STABLE\PACKAGE\5AB84D6ACFE1F23C4FAE0AB88F26E3A396351AC9\INCLUDE\EIGEN3\EIGEN\SRC\CORE\INVERSE.H
C:\USERS\EVERBEEK\.CONAN\DATA\EIGEN\3.3.7\CONAN\STABLE\PACKAGE\5AB84D6ACFE1F23C4FAE0AB88F26E3A396351AC9\INCLUDE\EIGEN3\EIGEN\SRC\CORE\SOLVERBASE.H
C:\USERS\EVERBEEK\.CONAN\DATA\EIGEN\3.3.7\CONAN\STABLE\PACKAGE\5AB84D6ACFE1F23C4FAE0AB88F26E3A396351AC9\INCLUDE\EIGEN3\EIGEN\SRC\CORE\PERMUTATIONMATRIX.H
C:\USERS\EVERBEEK\.CONAN\DATA\EIGEN\3.3.7\CONAN\STABLE\PACKAGE\5AB84D6ACFE1F23C4FAE0AB88F26E3A396351AC9\INCLUDE\EIGEN3\EIGEN\SRC\CORE\TRANSPOSITIONS.H
C:\USERS\EVERBEEK\.CONAN\DATA\EIGEN\3.3.7\CONAN\STABLE\PACKAGE\5AB84D6ACFE1F23C4FAE0AB88F26E3A396351AC9\INCLUDE\EIGEN3\EIGEN\SRC\CORE\TRIANGULARMATRIX.H
C:\USERS\EVERBEEK\.CONAN\DATA\EIGEN\3.3.7\CONAN\STABLE\PACKAGE\5AB84D6ACFE1F23C4FAE0AB88F26E3A396351AC9\INCLUDE\EIGEN3\EIGEN\SRC\CORE\SELFADJOINTVIEW.H
C:\USERS\EVERBEEK\.CONAN\DATA\EIGEN\3.3.7\CONAN\STABLE\PACKAGE\5AB84D6ACFE1F23C4FAE0AB88F26E3A396351AC9\INCLUDE\EIGEN3\EIGEN\SRC\CORE\PRODUCTS\GENERALBLOCKPANELKERNEL.H
C:\USERS\EVERBEEK\.CONAN\DATA\EIGEN\3.3.7\CONAN\STABLE\PACKAGE\5AB84D6ACFE1F23C4FAE0AB88F26E3A396351AC9\INCLUDE\EIGEN3\EIGEN\SRC\CORE\PRODUCTS\PARALLELIZER.H
C:\USERS\EVERBEEK\.CONAN\DATA\EIGEN\3.3.7\CONAN\STABLE\PACKAGE\5AB84D6ACFE1F23C4FAE0AB88F26E3A396351AC9\INCLUDE\EIGEN3\EIGEN\SRC\CORE\PRODUCTEVALUATORS.H
C:\USERS\EVERBEEK\.CONAN\DATA\EIGEN\3.3.7\CONAN\STABLE\PACKAGE\5AB84D6ACFE1F23C4FAE0AB88F26E3A396351AC9\INCLUDE\EIGEN3\EIGEN\SRC\CORE\PRODUCTS\GENERALMATRIXVECTOR.H
C:\USERS\EVERBEEK\.CONAN\DATA\EIGEN\3.3.7\CONAN\STABLE\PACKAGE\5AB84D6ACFE1F23C4FAE0AB88F26E3A396351AC9\INCLUDE\EIGEN3\EIGEN\SRC\CORE\PRODUCTS\GENERALMATRIXMATRIX.H
C:\USERS\EVERBEEK\.CONAN\DATA\EIGEN\3.3.7\CONAN\STABLE\PACKAGE\5AB84D6ACFE1F23C4FAE0AB88F26E3A396351AC9\INCLUDE\EIGEN3\EIGEN\SRC\CORE\SOLVETRIANGULAR.H
C:\USERS\EVERBEEK\.CONAN\DATA\EIGEN\3.3.7\CONAN\STABLE\PACKAGE\5AB84D6ACFE1F23C4FAE0AB88F26E3A396351AC9\INCLUDE\EIGEN3\EIGEN\SRC\CORE\PRODUCTS\GENERALMATRIXMATRIXTRIANGULAR.H
C:\USERS\EVERBEEK\.CONAN\DATA\EIGEN\3.3.7\CONAN\STABLE\PACKAGE\5AB84D6ACFE1F23C4FAE0AB88F26E3A396351AC9\INCLUDE\EIGEN3\EIGEN\SRC\CORE\PRODUCTS\SELFADJOINTMATRIXVECTOR.H
C:\USERS\EVERBEEK\.CONAN\DATA\EIGEN\3.3.7\CONAN\STABLE\PACKAGE\5AB84D6ACFE1F23C4FAE0AB88F26E3A396351AC9\INCLUDE\EIGEN3\EIGEN\SRC\CORE\PRODUCTS\SELFADJOINTMATRIXMATRIX.H
C:\USERS\EVERBEEK\.CONAN\DATA\EIGEN\3.3.7\CONAN\STABLE\PACKAGE\5AB84D6ACFE1F23C4FAE0AB88F26E3A396351AC9\INCLUDE\EIGEN3\EIGEN\SRC\CORE\PRODUCTS\SELFADJOINTPRODUCT.H
C:\USERS\EVERBEEK\.CONAN\DATA\EIGEN\3.3.7\CONAN\STABLE\PACKAGE\5AB84D6ACFE1F23C4FAE0AB88F26E3A396351AC9\INCLUDE\EIGEN3\EIGEN\SRC\CORE\PRODUCTS\SELFADJOINTRANK2UPDATE.H
C:\USERS\EVERBEEK\.CONAN\DATA\EIGEN\3.3.7\CONAN\STABLE\PACKAGE\5AB84D6ACFE1F23C4FAE0AB88F26E3A396351AC9\INCLUDE\EIGEN3\EIGEN\SRC\CORE\PRODUCTS\TRIANGULARMATRIXVECTOR.H
C:\USERS\EVERBEEK\.CONAN\DATA\EIGEN\3.3.7\CONAN\STABLE\PACKAGE\5AB84D6ACFE1F23C4FAE0AB88F26E3A396351AC9\INCLUDE\EIGEN3\EIGEN\SRC\CORE\PRODUCTS\TRIANGULARMATRIXMATRIX.H
C:\USERS\EVERBEEK\.CONAN\DATA\EIGEN\3.3.7\CONAN\STABLE\PACKAGE\5AB84D6ACFE1F23C4FAE0AB88F26E3A396351AC9\INCLUDE\EIGEN3\EIGEN\SRC\CORE\PRODUCTS\TRIANGULARSOLVERMATRIX.H
C:\USERS\EVERBEEK\.CONAN\DATA\EIGEN\3.3.7\CONAN\STABLE\PACKAGE\5AB84D6ACFE1F23C4FAE0AB88F26E3A396351AC9\INCLUDE\EIGEN3\EIGEN\SRC\CORE\PRODUCTS\TRIANGULARSOLVERVECTOR.H
C:\USERS\EVERBEEK\.CONAN\DATA\EIGEN\3.3.7\CONAN\STABLE\PACKAGE\5AB84D6ACFE1F23C4FAE0AB88F26E3A396351AC9\INCLUDE\EIGEN3\EIGEN\SRC\CORE\BANDMATRIX.H
C:\USERS\EVERBEEK\.CONAN\DATA\EIGEN\3.3.7\CONAN\STABLE\PACKAGE\5AB84D6ACFE1F23C4FAE0AB88F26E3A396351AC9\INCLUDE\EIGEN3\EIGEN\SRC\CORE\COREITERATORS.H
C:\USERS\EVERBEEK\.CONAN\DATA\EIGEN\3.3.7\CONAN\STABLE\PACKAGE\5AB84D6ACFE1F23C4FAE0AB88F26E3A396351AC9\INCLUDE\EIGEN3\EIGEN\SRC\CORE\CONDITIONESTIMATOR.H
C:\USERS\EVERBEEK\.CONAN\DATA\EIGEN\3.3.7\CONAN\STABLE\PACKAGE\5AB84D6ACFE1F23C4FAE0AB88F26E3A396351AC9\INCLUDE\EIGEN3\EIGEN\SRC\CORE\BOOLEANREDUX.H
C:\USERS\EVERBEEK\.CONAN\DATA\EIGEN\3.3.7\CONAN\STABLE\PACKAGE\5AB84D6ACFE1F23C4FAE0AB88F26E3A396351AC9\INCLUDE\EIGEN3\EIGEN\SRC\CORE\SELECT.H
C:\USERS\EVERBEEK\.CONAN\DATA\EIGEN\3.3.7\CONAN\STABLE\PACKAGE\5AB84D6ACFE1F23C4FAE0AB88F26E3A396351AC9\INCLUDE\EIGEN3\EIGEN\SRC\CORE\VECTORWISEOP.H
C:\USERS\EVERBEEK\.CONAN\DATA\EIGEN\3.3.7\CONAN\STABLE\PACKAGE\5AB84D6ACFE1F23C4FAE0AB88F26E3A396351AC9\INCLUDE\EIGEN3\EIGEN\SRC\CORE\RANDOM.H
C:\USERS\EVERBEEK\.CONAN\DATA\EIGEN\3.3.7\CONAN\STABLE\PACKAGE\5AB84D6ACFE1F23C4FAE0AB88F26E3A396351AC9\INCLUDE\EIGEN3\EIGEN\SRC\CORE\REPLICATE.H
C:\USERS\EVERBEEK\.CONAN\DATA\EIGEN\3.3.7\CONAN\STABLE\PACKAGE\5AB84D6ACFE1F23C4FAE0AB88F26E3A396351AC9\INCLUDE\EIGEN3\EIGEN\SRC\CORE\REVERSE.H
C:\USERS\EVERBEEK\.CONAN\DATA\EIGEN\3.3.7\CONAN\STABLE\PACKAGE\5AB84D6ACFE1F23C4FAE0AB88F26E3A396351AC9\INCLUDE\EIGEN3\EIGEN\SRC\CORE\ARRAYWRAPPER.H
C:\USERS\EVERBEEK\.CONAN\DATA\EIGEN\3.3.7\CONAN\STABLE\PACKAGE\5AB84D6ACFE1F23C4FAE0AB88F26E3A396351AC9\INCLUDE\EIGEN3\EIGEN\SRC\CORE\GLOBALFUNCTIONS.H
C:\USERS\EVERBEEK\.CONAN\DATA\EIGEN\3.3.7\CONAN\STABLE\PACKAGE\5AB84D6ACFE1F23C4FAE0AB88F26E3A396351AC9\INCLUDE\EIGEN3\EIGEN\SRC\CORE\UTIL\REENABLESTUPIDWARNINGS.H
C:\USERS\EVERBEEK\.CONAN\DATA\EIGEN\3.3.7\CONAN\STABLE\PACKAGE\5AB84D6ACFE1F23C4FAE0AB88F26E3A396351AC9\INCLUDE\EIGEN3\EIGEN\LU
C:\USERS\EVERBEEK\.CONAN\DATA\EIGEN\3.3.7\CONAN\STABLE\PACKAGE\5AB84D6ACFE1F23C4FAE0AB88F26E3A396351AC9\INCLUDE\EIGEN3\EIGEN\SRC\MISC\KERNEL.H
C:\USERS\EVERBEEK\.CONAN\DATA\EIGEN\3.3.7\CONAN\STABLE\PACKAGE\5AB84D6ACFE1F23C4FAE0AB88F26E3A396351AC9\INCLUDE\EIGEN3\EIGEN\SRC\MISC\IMAGE.H
C:\USERS\EVERBEEK\.CONAN\DATA\EIGEN\3.3.7\CONAN\STABLE\PACKAGE\5AB84D6ACFE1F23C4FAE0AB88F26E3A396351AC9\INCLUDE\EIGEN3\EIGEN\SRC\LU\FULLPIVLU.H
C:\USERS\EVERBEEK\.CONAN\DATA\EIGEN\3.3.7\CONAN\STABLE\PACKAGE\5AB84D6ACFE1F23C4FAE0AB88F26E3A396351AC9\INCLUDE\EIGEN3\EIGEN\SRC\LU\PARTIALPIVLU.H
C:\USERS\EVERBEEK\.CONAN\DATA\EIGEN\3.3.7\CONAN\STABLE\PACKAGE\5AB84D6ACFE1F23C4FAE0AB88F26E3A396351AC9\INCLUDE\EIGEN3\EIGEN\SRC\LU\DETERMINANT.H
C:\USERS\EVERBEEK\.CONAN\DATA\EIGEN\3.3.7\CONAN\STABLE\PACKAGE\5AB84D6ACFE1F23C4FAE0AB88F26E3A396351AC9\INCLUDE\EIGEN3\EIGEN\SRC\LU\INVERSEIMPL.H
C:\USERS\EVERBEEK\.CONAN\DATA\EIGEN\3.3.7\CONAN\STABLE\PACKAGE\5AB84D6ACFE1F23C4FAE0AB88F26E3A396351AC9\INCLUDE\EIGEN3\EIGEN\SRC\LU\ARCH\INVERSE_SSE.H
C:\USERS\EVERBEEK\.CONAN\DATA\EIGEN\3.3.7\CONAN\STABLE\PACKAGE\5AB84D6ACFE1F23C4FAE0AB88F26E3A396351AC9\INCLUDE\EIGEN3\EIGEN\CHOLESKY
C:\USERS\EVERBEEK\.CONAN\DATA\EIGEN\3.3.7\CONAN\STABLE\PACKAGE\5AB84D6ACFE1F23C4FAE0AB88F26E3A396351AC9\INCLUDE\EIGEN3\EIGEN\JACOBI
C:\USERS\EVERBEEK\.CONAN\DATA\EIGEN\3.3.7\CONAN\STABLE\PACKAGE\5AB84D6ACFE1F23C4FAE0AB88F26E3A396351AC9\INCLUDE\EIGEN3\EIGEN\SRC\JACOBI\JACOBI.H
C:\USERS\EVERBEEK\.CONAN\DATA\EIGEN\3.3.7\CONAN\STABLE\PACKAGE\5AB84D6ACFE1F23C4FAE0AB88F26E3A396351AC9\INCLUDE\EIGEN3\EIGEN\SRC\CHOLESKY\LLT.H
C:\USERS\EVERBEEK\.CONAN\DATA\EIGEN\3.3.7\CONAN\STABLE\PACKAGE\5AB84D6ACFE1F23C4FAE0AB88F26E3A396351AC9\INCLUDE\EIGEN3\EIGEN\SRC\CHOLESKY\LDLT.H
C:\USERS\EVERBEEK\.CONAN\DATA\EIGEN\3.3.7\CONAN\STABLE\PACKAGE\5AB84D6ACFE1F23C4FAE0AB88F26E3A396351AC9\INCLUDE\EIGEN3\EIGEN\QR
C:\USERS\EVERBEEK\.CONAN\DATA\EIGEN\3.3.7\CONAN\STABLE\PACKAGE\5AB84D6ACFE1F23C4FAE0AB88F26E3A396351AC9\INCLUDE\EIGEN3\EIGEN\HOUSEHOLDER
C:\USERS\EVERBEEK\.CONAN\DATA\EIGEN\3.3.7\CONAN\STABLE\PACKAGE\5AB84D6ACFE1F23C4FAE0AB88F26E3A396351AC9\INCLUDE\EIGEN3\EIGEN\SRC\HOUSEHOLDER\HOUSEHOLDER.H
C:\USERS\EVERBEEK\.CONAN\DATA\EIGEN\3.3.7\CONAN\STABLE\PACKAGE\5AB84D6ACFE1F23C4FAE0AB88F26E3A396351AC9\INCLUDE\EIGEN3\EIGEN\SRC\HOUSEHOLDER\HOUSEHOLDERSEQUENCE.H
C:\USERS\EVERBEEK\.CONAN\DATA\EIGEN\3.3.7\CONAN\STABLE\PACKAGE\5AB84D6ACFE1F23C4FAE0AB88F26E3A396351AC9\INCLUDE\EIGEN3\EIGEN\SRC\HOUSEHOLDER\BLOCKHOUSEHOLDER.H
C:\USERS\EVERBEEK\.CONAN\DATA\EIGEN\3.3.7\CONAN\STABLE\PACKAGE\5AB84D6ACFE1F23C4FAE0AB88F26E3A396351AC9\INCLUDE\EIGEN3\EIGEN\SRC\QR\HOUSEHOLDERQR.H
C:\USERS\EVERBEEK\.CONAN\DATA\EIGEN\3.3.7\CONAN\STABLE\PACKAGE\5AB84D6ACFE1F23C4FAE0AB88F26E3A396351AC9\INCLUDE\EIGEN3\EIGEN\SRC\QR\FULLPIVHOUSEHOLDERQR.H
C:\USERS\EVERBEEK\.CONAN\DATA\EIGEN\3.3.7\CONAN\STABLE\PACKAGE\5AB84D6ACFE1F23C4FAE0AB88F26E3A396351AC9\INCLUDE\EIGEN3\EIGEN\SRC\QR\COLPIVHOUSEHOLDERQR.H
C:\USERS\EVERBEEK\.CONAN\DATA\EIGEN\3.3.7\CONAN\STABLE\PACKAGE\5AB84D6ACFE1F23C4FAE0AB88F26E3A396351AC9\INCLUDE\EIGEN3\EIGEN\SRC\QR\COMPLETEORTHOGONALDECOMPOSITION.H
C:\USERS\EVERBEEK\.CONAN\DATA\EIGEN\3.3.7\CONAN\STABLE\PACKAGE\5AB84D6ACFE1F23C4FAE0AB88F26E3A396351AC9\INCLUDE\EIGEN3\EIGEN\SVD
C:\USERS\EVERBEEK\.CONAN\DATA\EIGEN\3.3.7\CONAN\STABLE\PACKAGE\5AB84D6ACFE1F23C4FAE0AB88F26E3A396351AC9\INCLUDE\EIGEN3\EIGEN\SRC\MISC\REALSVD2X2.H
C:\USERS\EVERBEEK\.CONAN\DATA\EIGEN\3.3.7\CONAN\STABLE\PACKAGE\5AB84D6ACFE1F23C4FAE0AB88F26E3A396351AC9\INCLUDE\EIGEN3\EIGEN\SRC\SVD\UPPERBIDIAGONALIZATION.H
C:\USERS\EVERBEEK\.CONAN\DATA\EIGEN\3.3.7\CONAN\STABLE\PACKAGE\5AB84D6ACFE1F23C4FAE0AB88F26E3A396351AC9\INCLUDE\EIGEN3\EIGEN\SRC\SVD\SVDBASE.H
C:\USERS\EVERBEEK\.CONAN\DATA\EIGEN\3.3.7\CONAN\STABLE\PACKAGE\5AB84D6ACFE1F23C4FAE0AB88F26E3A396351AC9\INCLUDE\EIGEN3\EIGEN\SRC\SVD\JACOBISVD.H
C:\USERS\EVERBEEK\.CONAN\DATA\EIGEN\3.3.7\CONAN\STABLE\PACKAGE\5AB84D6ACFE1F23C4FAE0AB88F26E3A396351AC9\INCLUDE\EIGEN3\EIGEN\SRC\SVD\BDCSVD.H
C:\USERS\EVERBEEK\.CONAN\DATA\EIGEN\3.3.7\CONAN\STABLE\PACKAGE\5AB84D6ACFE1F23C4FAE0AB88F26E3A396351AC9\INCLUDE\EIGEN3\EIGEN\GEOMETRY
C:\USERS\EVERBEEK\.CONAN\DATA\EIGEN\3.3.7\CONAN\STABLE\PACKAGE\5AB84D6ACFE1F23C4FAE0AB88F26E3A396351AC9\INCLUDE\EIGEN3\EIGEN\SRC\GEOMETRY\ORTHOMETHODS.H
C:\USERS\EVERBEEK\.CONAN\DATA\EIGEN\3.3.7\CONAN\STABLE\PACKAGE\5AB84D6ACFE1F23C4FAE0AB88F26E3A396351AC9\INCLUDE\EIGEN3\EIGEN\SRC\GEOMETRY\EULERANGLES.H
C:\USERS\EVERBEEK\.CONAN\DATA\EIGEN\3.3.7\CONAN\STABLE\PACKAGE\5AB84D6ACFE1F23C4FAE0AB88F26E3A396351AC9\INCLUDE\EIGEN3\EIGEN\SRC\GEOMETRY\HOMOGENEOUS.H
C:\USERS\EVERBEEK\.CONAN\DATA\EIGEN\3.3.7\CONAN\STABLE\PACKAGE\5AB84D6ACFE1F23C4FAE0AB88F26E3A396351AC9\INCLUDE\EIGEN3\EIGEN\SRC\GEOMETRY\ROTATIONBASE.H
C:\USERS\EVERBEEK\.CONAN\DATA\EIGEN\3.3.7\CONAN\STABLE\PACKAGE\5AB84D6ACFE1F23C4FAE0AB88F26E3A396351AC9\INCLUDE\EIGEN3\EIGEN\SRC\GEOMETRY\ROTATION2D.H
C:\USERS\EVERBEEK\.CONAN\DATA\EIGEN\3.3.7\CONAN\STABLE\PACKAGE\5AB84D6ACFE1F23C4FAE0AB88F26E3A396351AC9\INCLUDE\EIGEN3\EIGEN\SRC\GEOMETRY\QUATERNION.H
C:\USERS\EVERBEEK\.CONAN\DATA\EIGEN\3.3.7\CONAN\STABLE\PACKAGE\5AB84D6ACFE1F23C4FAE0AB88F26E3A396351AC9\INCLUDE\EIGEN3\EIGEN\SRC\GEOMETRY\ANGLEAXIS.H
C:\USERS\EVERBEEK\.CONAN\DATA\EIGEN\3.3.7\CONAN\STABLE\PACKAGE\5AB84D6ACFE1F23C4FAE0AB88F26E3A396351AC9\INCLUDE\EIGEN3\EIGEN\SRC\GEOMETRY\TRANSFORM.H
C:\USERS\EVERBEEK\.CONAN\DATA\EIGEN\3.3.7\CONAN\STABLE\PACKAGE\5AB84D6ACFE1F23C4FAE0AB88F26E3A396351AC9\INCLUDE\EIGEN3\EIGEN\SRC\GEOMETRY\TRANSLATION.H
C:\USERS\EVERBEEK\.CONAN\DATA\EIGEN\3.3.7\CONAN\STABLE\PACKAGE\5AB84D6ACFE1F23C4FAE0AB88F26E3A396351AC9\INCLUDE\EIGEN3\EIGEN\SRC\GEOMETRY\SCALING.H
C:\USERS\EVERBEEK\.CONAN\DATA\EIGEN\3.3.7\CONAN\STABLE\PACKAGE\5AB84D6ACFE1F23C4FAE0AB88F26E3A396351AC9\INCLUDE\EIGEN3\EIGEN\SRC\GEOMETRY\HYPERPLANE.H
C:\USERS\EVERBEEK\.CONAN\DATA\EIGEN\3.3.7\CONAN\STABLE\PACKAGE\5AB84D6ACFE1F23C4FAE0AB88F26E3A396351AC9\INCLUDE\EIGEN3\EIGEN\SRC\GEOMETRY\PARAMETRIZEDLINE.H
C:\USERS\EVERBEEK\.CONAN\DATA\EIGEN\3.3.7\CONAN\STABLE\PACKAGE\5AB84D6ACFE1F23C4FAE0AB88F26E3A396351AC9\INCLUDE\EIGEN3\EIGEN\SRC\GEOMETRY\ALIGNEDBOX.H
C:\USERS\EVERBEEK\.CONAN\DATA\EIGEN\3.3.7\CONAN\STABLE\PACKAGE\5AB84D6ACFE1F23C4FAE0AB88F26E3A396351AC9\INCLUDE\EIGEN3\EIGEN\SRC\GEOMETRY\UMEYAMA.H
C:\USERS\EVERBEEK\.CONAN\DATA\EIGEN\3.3.7\CONAN\STABLE\PACKAGE\5AB84D6ACFE1F23C4FAE0AB88F26E3A396351AC9\INCLUDE\EIGEN3\EIGEN\SRC\GEOMETRY\ARCH\GEOMETRY_SSE.H
C:\USERS\EVERBEEK\.CONAN\DATA\EIGEN\3.3.7\CONAN\STABLE\PACKAGE\5AB84D6ACFE1F23C4FAE0AB88F26E3A396351AC9\INCLUDE\EIGEN3\EIGEN\EIGENVALUES
C:\USERS\EVERBEEK\.CONAN\DATA\EIGEN\3.3.7\CONAN\STABLE\PACKAGE\5AB84D6ACFE1F23C4FAE0AB88F26E3A396351AC9\INCLUDE\EIGEN3\EIGEN\SRC\EIGENVALUES\TRIDIAGONALIZATION.H
C:\USERS\EVERBEEK\.CONAN\DATA\EIGEN\3.3.7\CONAN\STABLE\PACKAGE\5AB84D6ACFE1F23C4FAE0AB88F26E3A396351AC9\INCLUDE\EIGEN3\EIGEN\SRC\EIGENVALUES\REALSCHUR.H
C:\USERS\EVERBEEK\.CONAN\DATA\EIGEN\3.3.7\CONAN\STABLE\PACKAGE\5AB84D6ACFE1F23C4FAE0AB88F26E3A396351AC9\INCLUDE\EIGEN3\EIGEN\SRC\EIGENVALUES\HESSENBERGDECOMPOSITION.H
C:\USERS\EVERBEEK\.CONAN\DATA\EIGEN\3.3.7\CONAN\STABLE\PACKAGE\5AB84D6ACFE1F23C4FAE0AB88F26E3A396351AC9\INCLUDE\EIGEN3\EIGEN\SRC\EIGENVALUES\EIGENSOLVER.H
C:\USERS\EVERBEEK\.CONAN\DATA\EIGEN\3.3.7\CONAN\STABLE\PACKAGE\5AB84D6ACFE1F23C4FAE0AB88F26E3A396351AC9\INCLUDE\EIGEN3\EIGEN\SRC\EIGENVALUES\SELFADJOINTEIGENSOLVER.H
C:\USERS\EVERBEEK\.CONAN\DATA\EIGEN\3.3.7\CONAN\STABLE\PACKAGE\5AB84D6ACFE1F23C4FAE0AB88F26E3A396351AC9\INCLUDE\EIGEN3\EIGEN\SRC\EIGENVALUES\GENERALIZEDSELFADJOINTEIGENSOLVER.H
C:\USERS\EVERBEEK\.CONAN\DATA\EIGEN\3.3.7\CONAN\STABLE\PACKAGE\5AB84D6ACFE1F23C4FAE0AB88F26E3A396351AC9\INCLUDE\EIGEN3\EIGEN\SRC\EIGENVALUES\COMPLEXSCHUR.H
C:\USERS\EVERBEEK\.CONAN\DATA\EIGEN\3.3.7\CONAN\STABLE\PACKAGE\5AB84D6ACFE1F23C4FAE0AB88F26E3A396351AC9\INCLUDE\EIGEN3\EIGEN\SRC\EIGENVALUES\COMPLEXEIGENSOLVER.H
C:\USERS\EVERBEEK\.CONAN\DATA\EIGEN\3.3.7\CONAN\STABLE\PACKAGE\5AB84D6ACFE1F23C4FAE0AB88F26E3A396351AC9\INCLUDE\EIGEN3\EIGEN\SRC\EIGENVALUES\REALQZ.H
C:\USERS\EVERBEEK\.CONAN\DATA\EIGEN\3.3.7\CONAN\STABLE\PACKAGE\5AB84D6ACFE1F23C4FAE0AB88F26E3A396351AC9\INCLUDE\EIGEN3\EIGEN\SRC\EIGENVALUES\GENERALIZEDEIGENSOLVER.H
C:\USERS\EVERBEEK\.CONAN\DATA\EIGEN\3.3.7\CONAN\STABLE\PACKAGE\5AB84D6ACFE1F23C4FAE0AB88F26E3A396351AC9\INCLUDE\EIGEN3\EIGEN\SRC\EIGENVALUES\MATRIXBASEEIGENVALUES.H
C:\USERS\EVERBEEK\GITLAB\FORMATION-CLUSTER-FLIGHT-SIMULATION\BASILISK\SRC\ARCHITECTURE\UTILITIES\AVSEIGENMRP.H
C:\USERS\EVERBEEK\GITLAB\FORMATION-CLUSTER-FLIGHT-SIMULATION\BASILISK\SRC\ARCHITECTURE\UTILITIES\LINEARALGEBRA.H
C:\USERS\EVERBEEK\GITLAB\FORMATION-CLUSTER-FLIGHT-SIMULATION\BASILISK\SRC\ARCHITECTURE\UTILITIES\RIGIDBODYKINEMATICS.H
C:\PROGRAM FILES (X86)\MICROSOFT VISUAL STUDIO\2019\COMMUNITY\VC\TOOLS\MSVC\14.29.30037\INCLUDE\IOSTREAM
^C:\USERS\EVERBEEK\GITLAB\FORMATION-CLUSTER-FLIGHT-SIMULATION\BASILISK\DIST3\BASILISK\FSWALGORITHMS\SMALLBODYNAVEKFPYTHON_WRAP.CXX
C:\PROGRAM FILES (X86)\WINDOWS KITS\10\INCLUDE\10.0.19041.0\UCRT\IO.H
C:\PROGRAM FILES (X86)\WINDOWS KITS\10\INCLUDE\10.0.19041.0\UCRT\CORECRT_IO.H
C:\PROGRAM FILES (X86)\WINDOWS KITS\10\INCLUDE\10.0.19041.0\UCRT\CORECRT_SHARE.H
C:\PROGRAM FILES (X86)\WINDOWS KITS\10\INCLUDE\10.0.19041.0\UCRT\CORECRT.H
C:\PROGRAM FILES (X86)\MICROSOFT VISUAL STUDIO\2019\COMMUNITY\VC\TOOLS\MSVC\14.29.30037\INCLUDE\VCRUNTIME.H
C:\PROGRAM FILES (X86)\MICROSOFT VISUAL STUDIO\2019\COMMUNITY\VC\TOOLS\MSVC\14.29.30037\INCLUDE\SAL.H
C:\PROGRAM FILES (X86)\MICROSOFT VISUAL STUDIO\2019\COMMUNITY\VC\TOOLS\MSVC\14.29.30037\INCLUDE\CONCURRENCYSAL.H
C:\PROGRAM FILES (X86)\MICROSOFT VISUAL STUDIO\2019\COMMUNITY\VC\TOOLS\MSVC\14.29.30037\INCLUDE\VADEFS.H
C:\PROGRAM FILES (X86)\WINDOWS KITS\10\INCLUDE\10.0.19041.0\UCRT\CORECRT_WIO.H
C:\PROGRAM FILES (X86)\WINDOWS KITS\10\INCLUDE\10.0.19041.0\UCRT\FLOAT.H
C:\PROGRAM FILES (X86)\WINDOWS KITS\10\INCLUDE\10.0.19041.0\SHARED\BASETSD.H
C:\PROGRAM FILES (X86)\WINDOWS KITS\10\INCLUDE\10.0.19041.0\UCRT\STDIO.H
C:\PROGRAM FILES (X86)\WINDOWS KITS\10\INCLUDE\10.0.19041.0\UCRT\CORECRT_WSTDIO.H
C:\PROGRAM FILES (X86)\WINDOWS KITS\10\INCLUDE\10.0.19041.0\UCRT\CORECRT_STDIO_CONFIG.H
C:\PROGRAM FILES (X86)\MICROSOFT VISUAL STUDIO\2019\COMMUNITY\VC\TOOLS\MSVC\14.29.30037\INCLUDE\LIMITS.H
C:\PROGRAM FILES (X86)\WINDOWS KITS\10\INCLUDE\10.0.19041.0\UCRT\STRING.H
C:\PROGRAM FILES (X86)\WINDOWS KITS\10\INCLUDE\10.0.19041.0\UCRT\CORECRT_MEMORY.H
C:\PROGRAM FILES (X86)\WINDOWS KITS\10\INCLUDE\10.0.19041.0\UCRT\CORECRT_MEMCPY_S.H
C:\PROGRAM FILES (X86)\WINDOWS KITS\10\INCLUDE\10.0.19041.0\UCRT\ERRNO.H
C:\PROGRAM FILES (X86)\MICROSOFT VISUAL STUDIO\2019\COMMUNITY\VC\TOOLS\MSVC\14.29.30037\INCLUDE\VCRUNTIME_STRING.H
C:\PROGRAM FILES (X86)\WINDOWS KITS\10\INCLUDE\10.0.19041.0\UCRT\CORECRT_WSTRING.H
C:\PROGRAM FILES (X86)\WINDOWS KITS\10\INCLUDE\10.0.19041.0\UCRT\STDLIB.H
C:\PROGRAM FILES (X86)\WINDOWS KITS\10\INCLUDE\10.0.19041.0\UCRT\CORECRT_MALLOC.H
C:\PROGRAM FILES (X86)\WINDOWS KITS\10\INCLUDE\10.0.19041.0\UCRT\CORECRT_SEARCH.H
C:\PROGRAM FILES (X86)\WINDOWS KITS\10\INCLUDE\10.0.19041.0\UCRT\STDDEF.H
C:\PROGRAM FILES (X86)\WINDOWS KITS\10\INCLUDE\10.0.19041.0\UCRT\CORECRT_WSTDLIB.H
C:\PROGRAM FILES (X86)\WINDOWS KITS\10\INCLUDE\10.0.19041.0\UCRT\ASSERT.H
C:\PROGRAM FILES (X86)\WINDOWS KITS\10\INCLUDE\10.0.19041.0\UCRT\INTTYPES.H
C:\PROGRAM FILES (X86)\MICROSOFT VISUAL STUDIO\2019\COMMUNITY\VC\TOOLS\MSVC\14.29.30037\INCLUDE\STDINT.H
C:\PROGRAM FILES (X86)\WINDOWS KITS\10\INCLUDE\10.0.19041.0\UCRT\MATH.H
C:\PROGRAM FILES (X86)\WINDOWS KITS\10\INCLUDE\10.0.19041.0\UCRT\CORECRT_MATH.H
C:\PROGRAM FILES (X86)\WINDOWS KITS\10\INCLUDE\10.0.19041.0\UCRT\TIME.H
C:\PROGRAM FILES (X86)\WINDOWS KITS\10\INCLUDE\10.0.19041.0\UCRT\CORECRT_WTIME.H
C:\PROGRAM FILES (X86)\WINDOWS KITS\10\INCLUDE\10.0.19041.0\UCRT\SYS\STAT.H
C:\PROGRAM FILES (X86)\WINDOWS KITS\10\INCLUDE\10.0.19041.0\UCRT\SYS\TYPES.H
C:\PROGRAM FILES (X86)\MICROSOFT VISUAL STUDIO\2019\COMMUNITY\VC\TOOLS\MSVC\14.29.30037\INCLUDE\STDARG.H
C:\PROGRAM FILES (X86)\WINDOWS KITS\10\INCLUDE\10.0.19041.0\UCRT\CTYPE.H
C:\PROGRAM FILES (X86)\WINDOWS KITS\10\INCLUDE\10.0.19041.0\UCRT\CORECRT_WCTYPE.H
C:\PROGRAM FILES (X86)\WINDOWS KITS\10\INCLUDE\10.0.19041.0\UCRT\WCHAR.H
C:\PROGRAM FILES (X86)\WINDOWS KITS\10\INCLUDE\10.0.19041.0\UCRT\CORECRT_WCONIO.H
C:\PROGRAM FILES (X86)\WINDOWS KITS\10\INCLUDE\10.0.19041.0\UCRT\CORECRT_WDIRECT.H
C:\PROGRAM FILES (X86)\WINDOWS KITS\10\INCLUDE\10.0.19041.0\UCRT\CORECRT_WPROCESS.H
C:\PROGRAM FILES (X86)\MICROSOFT VISUAL STUDIO\2019\COMMUNITY\VC\TOOLS\MSVC\14.29.30037\INCLUDE\STDEXCEPT
C:\PROGRAM FILES (X86)\MICROSOFT VISUAL STUDIO\2019\COMMUNITY\VC\TOOLS\MSVC\14.29.30037\INCLUDE\YVALS_CORE.H
C:\PROGRAM FILES (X86)\MICROSOFT VISUAL STUDIO\2019\COMMUNITY\VC\TOOLS\MSVC\14.29.30037\INCLUDE\XKEYCHECK.H
C:\PROGRAM FILES (X86)\MICROSOFT VISUAL STUDIO\2019\COMMUNITY\VC\TOOLS\MSVC\14.29.30037\INCLUDE\EXCEPTION
C:\PROGRAM FILES (X86)\MICROSOFT VISUAL STUDIO\2019\COMMUNITY\VC\TOOLS\MSVC\14.29.30037\INCLUDE\YVALS.H
C:\PROGRAM FILES (X86)\WINDOWS KITS\10\INCLUDE\10.0.19041.0\UCRT\CRTDBG.H
C:\PROGRAM FILES (X86)\MICROSOFT VISUAL STUDIO\2019\COMMUNITY\VC\TOOLS\MSVC\14.29.30037\INCLUDE\VCRUNTIME_NEW_DEBUG.H
C:\PROGRAM FILES (X86)\MICROSOFT VISUAL STUDIO\2019\COMMUNITY\VC\TOOLS\MSVC\14.29.30037\INCLUDE\VCRUNTIME_NEW.H
C:\PROGRAM FILES (X86)\MICROSOFT VISUAL STUDIO\2019\COMMUNITY\VC\TOOLS\MSVC\14.29.30037\INCLUDE\CRTDEFS.H
C:\PROGRAM FILES (X86)\MICROSOFT VISUAL STUDIO\2019\COMMUNITY\VC\TOOLS\MSVC\14.29.30037\INCLUDE\USE_ANSI.H
C:\PROGRAM FILES (X86)\MICROSOFT VISUAL STUDIO\2019\COMMUNITY\VC\TOOLS\MSVC\14.29.30037\INCLUDE\TYPE_TRAITS
C:\PROGRAM FILES (X86)\MICROSOFT VISUAL STUDIO\2019\COMMUNITY\VC\TOOLS\MSVC\14.29.30037\INCLUDE\CSTDINT
C:\PROGRAM FILES (X86)\MICROSOFT VISUAL STUDIO\2019\COMMUNITY\VC\TOOLS\MSVC\14.29.30037\INCLUDE\XSTDDEF
C:\PROGRAM FILES (X86)\MICROSOFT VISUAL STUDIO\2019\COMMUNITY\VC\TOOLS\MSVC\14.29.30037\INCLUDE\CSTDDEF
C:\PROGRAM FILES (X86)\MICROSOFT VISUAL STUDIO\2019\COMMUNITY\VC\TOOLS\MSVC\14.29.30037\INCLUDE\XTR1COMMON
C:\PROGRAM FILES (X86)\MICROSOFT VISUAL STUDIO\2019\COMMUNITY\VC\TOOLS\MSVC\14.29.30037\INCLUDE\CSTDLIB
C:\PROGRAM FILES (X86)\MICROSOFT VISUAL STUDIO\2019\COMMUNITY\VC\TOOLS\MSVC\14.29.30037\INCLUDE\INITIALIZER_LIST
C:\PROGRAM FILES (X86)\WINDOWS KITS\10\INCLUDE\10.0.19041.0\UCRT\MALLOC.H
C:\PROGRAM FILES (X86)\MICROSOFT VISUAL STUDIO\2019\COMMUNITY\VC\TOOLS\MSVC\14.29.30037\INCLUDE\VCRUNTIME_EXCEPTION.H
C:\PROGRAM FILES (X86)\MICROSOFT VISUAL STUDIO\2019\COMMUNITY\VC\TOOLS\MSVC\14.29.30037\INCLUDE\EH.H
C:\PROGRAM FILES (X86)\WINDOWS KITS\10\INCLUDE\10.0.19041.0\UCRT\CORECRT_TERMINATE.H
C:\PROGRAM FILES (X86)\MICROSOFT VISUAL STUDIO\2019\COMMUNITY\VC\TOOLS\MSVC\14.29.30037\INCLUDE\XSTRING
C:\PROGRAM FILES (X86)\MICROSOFT VISUAL STUDIO\2019\COMMUNITY\VC\TOOLS\MSVC\14.29.30037\INCLUDE\IOSFWD
C:\PROGRAM FILES (X86)\MICROSOFT VISUAL STUDIO\2019\COMMUNITY\VC\TOOLS\MSVC\14.29.30037\INCLUDE\CSTDIO
C:\PROGRAM FILES (X86)\MICROSOFT VISUAL STUDIO\2019\COMMUNITY\VC\TOOLS\MSVC\14.29.30037\INCLUDE\CSTRING
C:\PROGRAM FILES (X86)\MICROSOFT VISUAL STUDIO\2019\COMMUNITY\VC\TOOLS\MSVC\14.29.30037\INCLUDE\CWCHAR
C:\PROGRAM FILES (X86)\MICROSOFT VISUAL STUDIO\2019\COMMUNITY\VC\TOOLS\MSVC\14.29.30037\INCLUDE\XMEMORY
C:\PROGRAM FILES (X86)\MICROSOFT VISUAL STUDIO\2019\COMMUNITY\VC\TOOLS\MSVC\14.29.30037\INCLUDE\LIMITS
C:\PROGRAM FILES (X86)\MICROSOFT VISUAL STUDIO\2019\COMMUNITY\VC\TOOLS\MSVC\14.29.30037\INCLUDE\CFLOAT
C:\PROGRAM FILES (X86)\MICROSOFT VISUAL STUDIO\2019\COMMUNITY\VC\TOOLS\MSVC\14.29.30037\INCLUDE\CLIMITS
C:\PROGRAM FILES (X86)\MICROSOFT VISUAL STUDIO\2019\COMMUNITY\VC\TOOLS\MSVC\14.29.30037\INCLUDE\INTRIN0.H
C:\PROGRAM FILES (X86)\MICROSOFT VISUAL STUDIO\2019\COMMUNITY\VC\TOOLS\MSVC\14.29.30037\INCLUDE\ISA_AVAILABILITY.H
C:\PROGRAM FILES (X86)\MICROSOFT VISUAL STUDIO\2019\COMMUNITY\VC\TOOLS\MSVC\14.29.30037\INCLUDE\NEW
C:\PROGRAM FILES (X86)\MICROSOFT VISUAL STUDIO\2019\COMMUNITY\VC\TOOLS\MSVC\14.29.30037\INCLUDE\XATOMIC.H
C:\PROGRAM FILES (X86)\MICROSOFT VISUAL STUDIO\2019\COMMUNITY\VC\TOOLS\MSVC\14.29.30037\INCLUDE\XUTILITY
C:\PROGRAM FILES (X86)\MICROSOFT VISUAL STUDIO\2019\COMMUNITY\VC\TOOLS\MSVC\14.29.30037\INCLUDE\UTILITY
C:\USERS\EVERBEEK\GITLAB\FORMATION-CLUSTER-FLIGHT-SIMULATION\BASILISK\SRC\FSWALGORITHMS\SMALLBODYNAVIGATION\SMALLBODYNAVEKF\SMALLBODYNAVEKF.H
C:\USERS\EVERBEEK\GITLAB\FORMATION-CLUSTER-FLIGHT-SIMULATION\BASILISK\SRC\ARCHITECTURE\_GENERALMODULEFILES\SYS_MODEL.H
C:\PROGRAM FILES (X86)\MICROSOFT VISUAL STUDIO\2019\COMMUNITY\VC\TOOLS\MSVC\14.29.30037\INCLUDE\STRING
C:\PROGRAM FILES (X86)\MICROSOFT VISUAL STUDIO\2019\COMMUNITY\VC\TOOLS\MSVC\14.29.30037\INCLUDE\CCTYPE
C:\USERS\EVERBEEK\GITLAB\FORMATION-CLUSTER-FLIGHT-SIMULATION\BASILISK\SRC\ARCHITECTURE\UTILITIES\BSKLOGGING.H
C:\PROGRAM FILES (X86)\MICROSOFT VISUAL STUDIO\2019\COMMUNITY\VC\TOOLS\MSVC\14.29.30037\INCLUDE\MAP
C:\PROGRAM FILES (X86)\MICROSOFT VISUAL STUDIO\2019\COMMUNITY\VC\TOOLS\MSVC\14.29.30037\INCLUDE\TUPLE
C:\PROGRAM FILES (X86)\MICROSOFT VISUAL STUDIO\2019\COMMUNITY\VC\TOOLS\MSVC\14.29.30037\INCLUDE\XTREE
C:\USERS\EVERBEEK\GITLAB\FORMATION-CLUSTER-FLIGHT-SIMULATION\BASILISK\DIST3\AUTOSOURCE\CMSGCINTERFACE\NAVTRANSMSG_C.H
C:\USERS\EVERBEEK\GITLAB\FORMATION-CLUSTER-FLIGHT-SIMULATION\BASILISK\SRC\ARCHITECTURE\MSGPAYLOADDEFC\NAVTRANSMSGPAYLOAD.H
C:\USERS\EVERBEEK\GITLAB\FORMATION-CLUSTER-FLIGHT-SIMULATION\BASILISK\SRC\ARCHITECTURE\MESSAGING\MSG2HEADER.H
C:\USERS\EVERBEEK\GITLAB\FORMATION-CLUSTER-FLIGHT-SIMULATION\BASILISK\DIST3\AUTOSOURCE\CMSGCINTERFACE\NAVATTMSG_C.H
C:\USERS\EVERBEEK\GITLAB\FORMATION-CLUSTER-FLIGHT-SIMULATION\BASILISK\SRC\ARCHITECTURE\MSGPAYLOADDEFC\NAVATTMSGPAYLOAD.H
C:\USERS\EVERBEEK\GITLAB\FORMATION-CLUSTER-FLIGHT-SIMULATION\BASILISK\DIST3\AUTOSOURCE\CMSGCINTERFACE\EPHEMERISMSG_C.H
C:\USERS\EVERBEEK\GITLAB\FORMATION-CLUSTER-FLIGHT-SIMULATION\BASILISK\SRC\ARCHITECTURE\MSGPAYLOADDEFC\EPHEMERISMSGPAYLOAD.H
C:\USERS\EVERBEEK\GITLAB\FORMATION-CLUSTER-FLIGHT-SIMULATION\BASILISK\SRC\ARCHITECTURE\MSGPAYLOADDEFC\RWSPEEDMSGPAYLOAD.H
C:\USERS\EVERBEEK\GITLAB\FORMATION-CLUSTER-FLIGHT-SIMULATION\BASILISK\SRC\ARCHITECTURE\UTILITIES\MACRODEFINITIONS.H
C:\USERS\EVERBEEK\GITLAB\FORMATION-CLUSTER-FLIGHT-SIMULATION\BASILISK\DIST3\AUTOSOURCE\CMSGCINTERFACE\SMALLBODYNAVMSG_C.H
C:\USERS\EVERBEEK\GITLAB\FORMATION-CLUSTER-FLIGHT-SIMULATION\BASILISK\SRC\ARCHITECTURE\MSGPAYLOADDEFC\SMALLBODYNAVMSGPAYLOAD.H
C:\USERS\EVERBEEK\GITLAB\FORMATION-CLUSTER-FLIGHT-SIMULATION\BASILISK\SRC\ARCHITECTURE\MSGPAYLOADDEFC\RWCONFIGLOGMSGPAYLOAD.H
C:\USERS\EVERBEEK\GITLAB\FORMATION-CLUSTER-FLIGHT-SIMULATION\BASILISK\SRC\SIMULATION\DYNAMICS\REACTIONWHEELS\REACTIONWHEELSUPPORT.H
C:\USERS\EVERBEEK\GITLAB\FORMATION-CLUSTER-FLIGHT-SIMULATION\BASILISK\SRC\ARCHITECTURE\MSGPAYLOADDEFCPP\THROUTPUTMSGPAYLOAD.H
C:\USERS\EVERBEEK\GITLAB\FORMATION-CLUSTER-FLIGHT-SIMULATION\BASILISK\SRC\ARCHITECTURE\MESSAGING\MESSAGING.H
C:\PROGRAM FILES (X86)\MICROSOFT VISUAL STUDIO\2019\COMMUNITY\VC\TOOLS\MSVC\14.29.30037\INCLUDE\MEMORY
C:\PROGRAM FILES (X86)\MICROSOFT VISUAL STUDIO\2019\COMMUNITY\VC\TOOLS\MSVC\14.29.30037\INCLUDE\TYPEINFO
C:\PROGRAM FILES (X86)\MICROSOFT VISUAL STUDIO\2019\COMMUNITY\VC\TOOLS\MSVC\14.29.30037\INCLUDE\VCRUNTIME_TYPEINFO.H
C:\PROGRAM FILES (X86)\MICROSOFT VISUAL STUDIO\2019\COMMUNITY\VC\TOOLS\MSVC\14.29.30037\INCLUDE\VECTOR
C:\USERS\EVERBEEK\GITLAB\FORMATION-CLUSTER-FLIGHT-SIMULATION\BASILISK\SRC\ARCHITECTURE\UTILITIES\ORBITALMOTION.H
C:\USERS\EVERBEEK\GITLAB\FORMATION-CLUSTER-FLIGHT-SIMULATION\BASILISK\SRC\ARCHITECTURE\MSGPAYLOADDEFC\CLASSICELEMENTSMSGPAYLOAD.H
C:\USERS\EVERBEEK\GITLAB\FORMATION-CLUSTER-FLIGHT-SIMULATION\BASILISK\SRC\ARCHITECTURE\UTILITIES\AVSEIGENSUPPORT.H
C:\USERS\EVERBEEK\.CONAN\DATA\EIGEN\3.3.7\CONAN\STABLE\PACKAGE\5AB84D6ACFE1F23C4FAE0AB88F26E3A396351AC9\INCLUDE\EIGEN3\EIGEN\DENSE
C:\USERS\EVERBEEK\.CONAN\DATA\EIGEN\3.3.7\CONAN\STABLE\PACKAGE\5AB84D6ACFE1F23C4FAE0AB88F26E3A396351AC9\INCLUDE\EIGEN3\EIGEN\CORE
C:\USERS\EVERBEEK\.CONAN\DATA\EIGEN\3.3.7\CONAN\STABLE\PACKAGE\5AB84D6ACFE1F23C4FAE0AB88F26E3A396351AC9\INCLUDE\EIGEN3\EIGEN\SRC\CORE\UTIL\DISABLESTUPIDWARNINGS.H
C:\USERS\EVERBEEK\.CONAN\DATA\EIGEN\3.3.7\CONAN\STABLE\PACKAGE\5AB84D6ACFE1F23C4FAE0AB88F26E3A396351AC9\INCLUDE\EIGEN3\EIGEN\SRC\CORE\UTIL\MACROS.H
C:\PROGRAM FILES (X86)\MICROSOFT VISUAL STUDIO\2019\COMMUNITY\VC\TOOLS\MSVC\14.29.30037\INCLUDE\COMPLEX
C:\PROGRAM FILES (X86)\MICROSOFT VISUAL STUDIO\2019\COMMUNITY\VC\TOOLS\MSVC\14.29.30037\INCLUDE\CMATH
C:\PROGRAM FILES (X86)\MICROSOFT VISUAL STUDIO\2019\COMMUNITY\VC\TOOLS\MSVC\14.29.30037\INCLUDE\SSTREAM
C:\PROGRAM FILES (X86)\MICROSOFT VISUAL STUDIO\2019\COMMUNITY\VC\TOOLS\MSVC\14.29.30037\INCLUDE\ISTREAM
C:\PROGRAM FILES (X86)\MICROSOFT VISUAL STUDIO\2019\COMMUNITY\VC\TOOLS\MSVC\14.29.30037\INCLUDE\OSTREAM
C:\PROGRAM FILES (X86)\MICROSOFT VISUAL STUDIO\2019\COMMUNITY\VC\TOOLS\MSVC\14.29.30037\INCLUDE\IOS
C:\PROGRAM FILES (X86)\MICROSOFT VISUAL STUDIO\2019\COMMUNITY\VC\TOOLS\MSVC\14.29.30037\INCLUDE\XLOCNUM
C:\PROGRAM FILES (X86)\MICROSOFT VISUAL STUDIO\2019\COMMUNITY\VC\TOOLS\MSVC\14.29.30037\INCLUDE\ITERATOR
C:\PROGRAM FILES (X86)\MICROSOFT VISUAL STUDIO\2019\COMMUNITY\VC\TOOLS\MSVC\14.29.30037\INCLUDE\STREAMBUF
C:\PROGRAM FILES (X86)\MICROSOFT VISUAL STUDIO\2019\COMMUNITY\VC\TOOLS\MSVC\14.29.30037\INCLUDE\XIOSBASE
C:\PROGRAM FILES (X86)\WINDOWS KITS\10\INCLUDE\10.0.19041.0\UCRT\SHARE.H
C:\PROGRAM FILES (X86)\MICROSOFT VISUAL STUDIO\2019\COMMUNITY\VC\TOOLS\MSVC\14.29.30037\INCLUDE\SYSTEM_ERROR
C:\PROGRAM FILES (X86)\MICROSOFT VISUAL STUDIO\2019\COMMUNITY\VC\TOOLS\MSVC\14.29.30037\INCLUDE\__MSVC_SYSTEM_ERROR_ABI.HPP
C:\PROGRAM FILES (X86)\MICROSOFT VISUAL STUDIO\2019\COMMUNITY\VC\TOOLS\MSVC\14.29.30037\INCLUDE\CERRNO
C:\PROGRAM FILES (X86)\MICROSOFT VISUAL STUDIO\2019\COMMUNITY\VC\TOOLS\MSVC\14.29.30037\INCLUDE\XCALL_ONCE.H
C:\PROGRAM FILES (X86)\MICROSOFT VISUAL STUDIO\2019\COMMUNITY\VC\TOOLS\MSVC\14.29.30037\INCLUDE\XERRC.H
C:\PROGRAM FILES (X86)\MICROSOFT VISUAL STUDIO\2019\COMMUNITY\VC\TOOLS\MSVC\14.29.30037\INCLUDE\ATOMIC
C:\PROGRAM FILES (X86)\MICROSOFT VISUAL STUDIO\2019\COMMUNITY\VC\TOOLS\MSVC\14.29.30037\INCLUDE\XTHREADS.H
C:\PROGRAM FILES (X86)\MICROSOFT VISUAL STUDIO\2019\COMMUNITY\VC\TOOLS\MSVC\14.29.30037\INCLUDE\XTIMEC.H
C:\PROGRAM FILES (X86)\MICROSOFT VISUAL STUDIO\2019\COMMUNITY\VC\TOOLS\MSVC\14.29.30037\INCLUDE\CTIME
C:\PROGRAM FILES (X86)\MICROSOFT VISUAL STUDIO\2019\COMMUNITY\VC\TOOLS\MSVC\14.29.30037\INCLUDE\XLOCALE
C:\PROGRAM FILES (X86)\MICROSOFT VISUAL STUDIO\2019\COMMUNITY\VC\TOOLS\MSVC\14.29.30037\INCLUDE\XFACET
C:\PROGRAM FILES (X86)\MICROSOFT VISUAL STUDIO\2019\COMMUNITY\VC\TOOLS\MSVC\14.29.30037\INCLUDE\XLOCINFO
C:\PROGRAM FILES (X86)\MICROSOFT VISUAL STUDIO\2019\COMMUNITY\VC\TOOLS\MSVC\14.29.30037\INCLUDE\XLOCINFO.H
C:\PROGRAM FILES (X86)\MICROSOFT VISUAL STUDIO\2019\COMMUNITY\VC\TOOLS\MSVC\14.29.30037\INCLUDE\CLOCALE
C:\PROGRAM FILES (X86)\WINDOWS KITS\10\INCLUDE\10.0.19041.0\UCRT\LOCALE.H
C:\PROGRAM FILES (X86)\MICROSOFT VISUAL STUDIO\2019\COMMUNITY\VC\TOOLS\MSVC\14.29.30037\INCLUDE\YMATH.H
C:\PROGRAM FILES (X86)\MICROSOFT VISUAL STUDIO\2019\COMMUNITY\VC\TOOLS\MSVC\14.29.30037\INCLUDE\EMMINTRIN.H
C:\PROGRAM FILES (X86)\MICROSOFT VISUAL STUDIO\2019\COMMUNITY\VC\TOOLS\MSVC\14.29.30037\INCLUDE\XMMINTRIN.H
C:\PROGRAM FILES (X86)\MICROSOFT VISUAL STUDIO\2019\COMMUNITY\VC\TOOLS\MSVC\14.29.30037\INCLUDE\MMINTRIN.H
C:\USERS\EVERBEEK\.CONAN\DATA\EIGEN\3.3.7\CONAN\STABLE\PACKAGE\5AB84D6ACFE1F23C4FAE0AB88F26E3A396351AC9\INCLUDE\EIGEN3\EIGEN\SRC\CORE\UTIL\MKL_SUPPORT.H
C:\PROGRAM FILES (X86)\MICROSOFT VISUAL STUDIO\2019\COMMUNITY\VC\TOOLS\MSVC\14.29.30037\INCLUDE\CASSERT
C:\PROGRAM FILES (X86)\MICROSOFT VISUAL STUDIO\2019\COMMUNITY\VC\TOOLS\MSVC\14.29.30037\INCLUDE\FUNCTIONAL
C:\PROGRAM FILES (X86)\MICROSOFT VISUAL STUDIO\2019\COMMUNITY\VC\TOOLS\MSVC\14.29.30037\INCLUDE\ALGORITHM
C:\PROGRAM FILES (X86)\MICROSOFT VISUAL STUDIO\2019\COMMUNITY\VC\TOOLS\MSVC\14.29.30037\INCLUDE\INTRIN.H
C:\PROGRAM FILES (X86)\MICROSOFT VISUAL STUDIO\2019\COMMUNITY\VC\TOOLS\MSVC\14.29.30037\INCLUDE\SETJMP.H
C:\PROGRAM FILES (X86)\MICROSOFT VISUAL STUDIO\2019\COMMUNITY\VC\TOOLS\MSVC\14.29.30037\INCLUDE\IMMINTRIN.H
C:\PROGRAM FILES (X86)\MICROSOFT VISUAL STUDIO\2019\COMMUNITY\VC\TOOLS\MSVC\14.29.30037\INCLUDE\WMMINTRIN.H
C:\PROGRAM FILES (X86)\MICROSOFT VISUAL STUDIO\2019\COMMUNITY\VC\TOOLS\MSVC\14.29.30037\INCLUDE\NMMINTRIN.H
C:\PROGRAM FILES (X86)\MICROSOFT VISUAL STUDIO\2019\COMMUNITY\VC\TOOLS\MSVC\14.29.30037\INCLUDE\SMMINTRIN.H
C:\PROGRAM FILES (X86)\MICROSOFT VISUAL STUDIO\2019\COMMUNITY\VC\TOOLS\MSVC\14.29.30037\INCLUDE\TMMINTRIN.H
C:\PROGRAM FILES (X86)\MICROSOFT VISUAL STUDIO\2019\COMMUNITY\VC\TOOLS\MSVC\14.29.30037\INCLUDE\PMMINTRIN.H
C:\PROGRAM FILES (X86)\MICROSOFT VISUAL STUDIO\2019\COMMUNITY\VC\TOOLS\MSVC\14.29.30037\INCLUDE\ZMMINTRIN.H
C:\PROGRAM FILES (X86)\MICROSOFT VISUAL STUDIO\2019\COMMUNITY\VC\TOOLS\MSVC\14.29.30037\INCLUDE\AMMINTRIN.H
C:\USERS\EVERBEEK\.CONAN\DATA\EIGEN\3.3.7\CONAN\STABLE\PACKAGE\5AB84D6ACFE1F23C4FAE0AB88F26E3A396351AC9\INCLUDE\EIGEN3\EIGEN\SRC\CORE\UTIL\CONSTANTS.H
C:\USERS\EVERBEEK\.CONAN\DATA\EIGEN\3.3.7\CONAN\STABLE\PACKAGE\5AB84D6ACFE1F23C4FAE0AB88F26E3A396351AC9\INCLUDE\EIGEN3\EIGEN\SRC\CORE\UTIL\META.H
C:\USERS\EVERBEEK\.CONAN\DATA\EIGEN\3.3.7\CONAN\STABLE\PACKAGE\5AB84D6ACFE1F23C4FAE0AB88F26E3A396351AC9\INCLUDE\EIGEN3\EIGEN\SRC\CORE\UTIL\FORWARDDECLARATIONS.H
C:\USERS\EVERBEEK\.CONAN\DATA\EIGEN\3.3.7\CONAN\STABLE\PACKAGE\5AB84D6ACFE1F23C4FAE0AB88F26E3A396351AC9\INCLUDE\EIGEN3\EIGEN\SRC\CORE\UTIL\STATICASSERT.H
C:\USERS\EVERBEEK\.CONAN\DATA\EIGEN\3.3.7\CONAN\STABLE\PACKAGE\5AB84D6ACFE1F23C4FAE0AB88F26E3A396351AC9\INCLUDE\EIGEN3\EIGEN\SRC\CORE\UTIL\XPRHELPER.H
C:\USERS\EVERBEEK\.CONAN\DATA\EIGEN\3.3.7\CONAN\STABLE\PACKAGE\5AB84D6ACFE1F23C4FAE0AB88F26E3A396351AC9\INCLUDE\EIGEN3\EIGEN\SRC\CORE\UTIL\MEMORY.H
C:\USERS\EVERBEEK\.CONAN\DATA\EIGEN\3.3.7\CONAN\STABLE\PACKAGE\5AB84D6ACFE1F23C4FAE0AB88F26E3A396351AC9\INCLUDE\EIGEN3\EIGEN\SRC\CORE\NUMTRAITS.H
C:\USERS\EVERBEEK\.CONAN\DATA\EIGEN\3.3.7\CONAN\STABLE\PACKAGE\5AB84D6ACFE1F23C4FAE0AB88F26E3A396351AC9\INCLUDE\EIGEN3\EIGEN\SRC\CORE\MATHFUNCTIONS.H
C:\USERS\EVERBEEK\.CONAN\DATA\EIGEN\3.3.7\CONAN\STABLE\PACKAGE\5AB84D6ACFE1F23C4FAE0AB88F26E3A396351AC9\INCLUDE\EIGEN3\EIGEN\SRC\CORE\GENERICPACKETMATH.H
C:\USERS\EVERBEEK\.CONAN\DATA\EIGEN\3.3.7\CONAN\STABLE\PACKAGE\5AB84D6ACFE1F23C4FAE0AB88F26E3A396351AC9\INCLUDE\EIGEN3\EIGEN\SRC\CORE\MATHFUNCTIONSIMPL.H
C:\USERS\EVERBEEK\.CONAN\DATA\EIGEN\3.3.7\CONAN\STABLE\PACKAGE\5AB84D6ACFE1F23C4FAE0AB88F26E3A396351AC9\INCLUDE\EIGEN3\EIGEN\SRC\CORE\ARCH\DEFAULT\CONJHELPER.H
C:\USERS\EVERBEEK\.CONAN\DATA\EIGEN\3.3.7\CONAN\STABLE\PACKAGE\5AB84D6ACFE1F23C4FAE0AB88F26E3A396351AC9\INCLUDE\EIGEN3\EIGEN\SRC\CORE\ARCH\SSE\PACKETMATH.H
C:\USERS\EVERBEEK\.CONAN\DATA\EIGEN\3.3.7\CONAN\STABLE\PACKAGE\5AB84D6ACFE1F23C4FAE0AB88F26E3A396351AC9\INCLUDE\EIGEN3\EIGEN\SRC\CORE\ARCH\SSE\MATHFUNCTIONS.H
C:\USERS\EVERBEEK\.CONAN\DATA\EIGEN\3.3.7\CONAN\STABLE\PACKAGE\5AB84D6ACFE1F23C4FAE0AB88F26E3A396351AC9\INCLUDE\EIGEN3\EIGEN\SRC\CORE\ARCH\SSE\COMPLEX.H
C:\USERS\EVERBEEK\.CONAN\DATA\EIGEN\3.3.7\CONAN\STABLE\PACKAGE\5AB84D6ACFE1F23C4FAE0AB88F26E3A396351AC9\INCLUDE\EIGEN3\EIGEN\SRC\CORE\ARCH\SSE\TYPECASTING.H
C:\USERS\EVERBEEK\.CONAN\DATA\EIGEN\3.3.7\CONAN\STABLE\PACKAGE\5AB84D6ACFE1F23C4FAE0AB88F26E3A396351AC9\INCLUDE\EIGEN3\EIGEN\SRC\CORE\ARCH\CUDA\HALF.H
C:\USERS\EVERBEEK\.CONAN\DATA\EIGEN\3.3.7\CONAN\STABLE\PACKAGE\5AB84D6ACFE1F23C4FAE0AB88F26E3A396351AC9\INCLUDE\EIGEN3\EIGEN\SRC\CORE\ARCH\CUDA\PACKETMATHHALF.H
C:\USERS\EVERBEEK\.CONAN\DATA\EIGEN\3.3.7\CONAN\STABLE\PACKAGE\5AB84D6ACFE1F23C4FAE0AB88F26E3A396351AC9\INCLUDE\EIGEN3\EIGEN\SRC\CORE\ARCH\CUDA\TYPECASTING.H
C:\USERS\EVERBEEK\.CONAN\DATA\EIGEN\3.3.7\CONAN\STABLE\PACKAGE\5AB84D6ACFE1F23C4FAE0AB88F26E3A396351AC9\INCLUDE\EIGEN3\EIGEN\SRC\CORE\ARCH\DEFAULT\SETTINGS.H
C:\USERS\EVERBEEK\.CONAN\DATA\EIGEN\3.3.7\CONAN\STABLE\PACKAGE\5AB84D6ACFE1F23C4FAE0AB88F26E3A396351AC9\INCLUDE\EIGEN3\EIGEN\SRC\CORE\FUNCTORS\TERNARYFUNCTORS.H
C:\USERS\EVERBEEK\.CONAN\DATA\EIGEN\3.3.7\CONAN\STABLE\PACKAGE\5AB84D6ACFE1F23C4FAE0AB88F26E3A396351AC9\INCLUDE\EIGEN3\EIGEN\SRC\CORE\FUNCTORS\BINARYFUNCTORS.H
C:\USERS\EVERBEEK\.CONAN\DATA\EIGEN\3.3.7\CONAN\STABLE\PACKAGE\5AB84D6ACFE1F23C4FAE0AB88F26E3A396351AC9\INCLUDE\EIGEN3\EIGEN\SRC\CORE\FUNCTORS\UNARYFUNCTORS.H
C:\USERS\EVERBEEK\.CONAN\DATA\EIGEN\3.3.7\CONAN\STABLE\PACKAGE\5AB84D6ACFE1F23C4FAE0AB88F26E3A396351AC9\INCLUDE\EIGEN3\EIGEN\SRC\CORE\FUNCTORS\NULLARYFUNCTORS.H
C:\USERS\EVERBEEK\.CONAN\DATA\EIGEN\3.3.7\CONAN\STABLE\PACKAGE\5AB84D6ACFE1F23C4FAE0AB88F26E3A396351AC9\INCLUDE\EIGEN3\EIGEN\SRC\CORE\FUNCTORS\STLFUNCTORS.H
C:\USERS\EVERBEEK\.CONAN\DATA\EIGEN\3.3.7\CONAN\STABLE\PACKAGE\5AB84D6ACFE1F23C4FAE0AB88F26E3A396351AC9\INCLUDE\EIGEN3\EIGEN\SRC\CORE\FUNCTORS\ASSIGNMENTFUNCTORS.H
C:\USERS\EVERBEEK\.CONAN\DATA\EIGEN\3.3.7\CONAN\STABLE\PACKAGE\5AB84D6ACFE1F23C4FAE0AB88F26E3A396351AC9\INCLUDE\EIGEN3\EIGEN\SRC\CORE\ARCH\CUDA\COMPLEX.H
C:\USERS\EVERBEEK\.CONAN\DATA\EIGEN\3.3.7\CONAN\STABLE\PACKAGE\5AB84D6ACFE1F23C4FAE0AB88F26E3A396351AC9\INCLUDE\EIGEN3\EIGEN\SRC\CORE\IO.H
C:\USERS\EVERBEEK\.CONAN\DATA\EIGEN\3.3.7\CONAN\STABLE\PACKAGE\5AB84D6ACFE1F23C4FAE0AB88F26E3A396351AC9\INCLUDE\EIGEN3\EIGEN\SRC\CORE\DENSECOEFFSBASE.H
C:\USERS\EVERBEEK\.CONAN\DATA\EIGEN\3.3.7\CONAN\STABLE\PACKAGE\5AB84D6ACFE1F23C4FAE0AB88F26E3A396351AC9\INCLUDE\EIGEN3\EIGEN\SRC\CORE\DENSEBASE.H
C:\USERS\EVERBEEK\.CONAN\DATA\EIGEN\3.3.7\CONAN\STABLE\PACKAGE\5AB84D6ACFE1F23C4FAE0AB88F26E3A396351AC9\INCLUDE\EIGEN3\EIGEN\SRC\PLUGINS\BLOCKMETHODS.H
C:\USERS\EVERBEEK\.CONAN\DATA\EIGEN\3.3.7\CONAN\STABLE\PACKAGE\5AB84D6ACFE1F23C4FAE0AB88F26E3A396351AC9\INCLUDE\EIGEN3\EIGEN\SRC\CORE\MATRIXBASE.H
C:\USERS\EVERBEEK\.CONAN\DATA\EIGEN\3.3.7\CONAN\STABLE\PACKAGE\5AB84D6ACFE1F23C4FAE0AB88F26E3A396351AC9\INCLUDE\EIGEN3\EIGEN\SRC\PLUGINS\COMMONCWISEUNARYOPS.H
C:\USERS\EVERBEEK\.CONAN\DATA\EIGEN\3.3.7\CONAN\STABLE\PACKAGE\5AB84D6ACFE1F23C4FAE0AB88F26E3A396351AC9\INCLUDE\EIGEN3\EIGEN\SRC\PLUGINS\COMMONCWISEBINARYOPS.H
C:\USERS\EVERBEEK\.CONAN\DATA\EIGEN\3.3.7\CONAN\STABLE\PACKAGE\5AB84D6ACFE1F23C4FAE0AB88F26E3A396351AC9\INCLUDE\EIGEN3\EIGEN\SRC\PLUGINS\MATRIXCWISEUNARYOPS.H
C:\USERS\EVERBEEK\.CONAN\DATA\EIGEN\3.3.7\CONAN\STABLE\PACKAGE\5AB84D6ACFE1F23C4FAE0AB88F26E3A396351AC9\INCLUDE\EIGEN3\EIGEN\SRC\PLUGINS\MATRIXCWISEBINARYOPS.H
C:\USERS\EVERBEEK\.CONAN\DATA\EIGEN\3.3.7\CONAN\STABLE\PACKAGE\5AB84D6ACFE1F23C4FAE0AB88F26E3A396351AC9\INCLUDE\EIGEN3\EIGEN\SRC\CORE\EIGENBASE.H
C:\USERS\EVERBEEK\.CONAN\DATA\EIGEN\3.3.7\CONAN\STABLE\PACKAGE\5AB84D6ACFE1F23C4FAE0AB88F26E3A396351AC9\INCLUDE\EIGEN3\EIGEN\SRC\CORE\PRODUCT.H
C:\USERS\EVERBEEK\.CONAN\DATA\EIGEN\3.3.7\CONAN\STABLE\PACKAGE\5AB84D6ACFE1F23C4FAE0AB88F26E3A396351AC9\INCLUDE\EIGEN3\EIGEN\SRC\CORE\COREEVALUATORS.H
C:\USERS\EVERBEEK\.CONAN\DATA\EIGEN\3.3.7\CONAN\STABLE\PACKAGE\5AB84D6ACFE1F23C4FAE0AB88F26E3A396351AC9\INCLUDE\EIGEN3\EIGEN\SRC\CORE\ASSIGNEVALUATOR.H
C:\USERS\EVERBEEK\.CONAN\DATA\EIGEN\3.3.7\CONAN\STABLE\PACKAGE\5AB84D6ACFE1F23C4FAE0AB88F26E3A396351AC9\INCLUDE\EIGEN3\EIGEN\SRC\CORE\ASSIGN.H
C:\USERS\EVERBEEK\.CONAN\DATA\EIGEN\3.3.7\CONAN\STABLE\PACKAGE\5AB84D6ACFE1F23C4FAE0AB88F26E3A396351AC9\INCLUDE\EIGEN3\EIGEN\SRC\CORE\ARRAYBASE.H
C:\USERS\EVERBEEK\.CONAN\DATA\EIGEN\3.3.7\CONAN\STABLE\PACKAGE\5AB84D6ACFE1F23C4FAE0AB88F26E3A396351AC9\INCLUDE\EIGEN3\EIGEN\SRC\PLUGINS\ARRAYCWISEUNARYOPS.H
C:\USERS\EVERBEEK\.CONAN\DATA\EIGEN\3.3.7\CONAN\STABLE\PACKAGE\5AB84D6ACFE1F23C4FAE0AB88F26E3A396351AC9\INCLUDE\EIGEN3\EIGEN\SRC\PLUGINS\ARRAYCWISEBINARYOPS.H
C:\USERS\EVERBEEK\.CONAN\DATA\EIGEN\3.3.7\CONAN\STABLE\PACKAGE\5AB84D6ACFE1F23C4FAE0AB88F26E3A396351AC9\INCLUDE\EIGEN3\EIGEN\SRC\CORE\UTIL\BLASUTIL.H
C:\USERS\EVERBEEK\.CONAN\DATA\EIGEN\3.3.7\CONAN\STABLE\PACKAGE\5AB84D6ACFE1F23C4FAE0AB88F26E3A396351AC9\INCLUDE\EIGEN3\EIGEN\SRC\CORE\DENSESTORAGE.H
C:\USERS\EVERBEEK\.CONAN\DATA\EIGEN\3.3.7\CONAN\STABLE\PACKAGE\5AB84D6ACFE1F23C4FAE0AB88F26E3A396351AC9\INCLUDE\EIGEN3\EIGEN\SRC\CORE\NESTBYVALUE.H
C:\USERS\EVERBEEK\.CONAN\DATA\EIGEN\3.3.7\CONAN\STABLE\PACKAGE\5AB84D6ACFE1F23C4FAE0AB88F26E3A396351AC9\INCLUDE\EIGEN3\EIGEN\SRC\CORE\RETURNBYVALUE.H
C:\USERS\EVERBEEK\.CONAN\DATA\EIGEN\3.3.7\CONAN\STABLE\PACKAGE\5AB84D6ACFE1F23C4FAE0AB88F26E3A396351AC9\INCLUDE\EIGEN3\EIGEN\SRC\CORE\NOALIAS.H
C:\USERS\EVERBEEK\.CONAN\DATA\EIGEN\3.3.7\CONAN\STABLE\PACKAGE\5AB84D6ACFE1F23C4FAE0AB88F26E3A396351AC9\INCLUDE\EIGEN3\EIGEN\SRC\CORE\PLAINOBJECTBASE.H
C:\USERS\EVERBEEK\.CONAN\DATA\EIGEN\3.3.7\CONAN\STABLE\PACKAGE\5AB84D6ACFE1F23C4FAE0AB88F26E3A396351AC9\INCLUDE\EIGEN3\EIGEN\SRC\CORE\MATRIX.H
C:\USERS\EVERBEEK\.CONAN\DATA\EIGEN\3.3.7\CONAN\STABLE\PACKAGE\5AB84D6ACFE1F23C4FAE0AB88F26E3A396351AC9\INCLUDE\EIGEN3\EIGEN\SRC\CORE\ARRAY.H
C:\USERS\EVERBEEK\.CONAN\DATA\EIGEN\3.3.7\CONAN\STABLE\PACKAGE\5AB84D6ACFE1F23C4FAE0AB88F26E3A396351AC9\INCLUDE\EIGEN3\EIGEN\SRC\CORE\CWISETERNARYOP.H
C:\USERS\EVERBEEK\.CONAN\DATA\EIGEN\3.3.7\CONAN\STABLE\PACKAGE\5AB84D6ACFE1F23C4FAE0AB88F26E3A396351AC9\INCLUDE\EIGEN3\EIGEN\SRC\CORE\CWISEBINARYOP.H
C:\USERS\EVERBEEK\.CONAN\DATA\EIGEN\3.3.7\CONAN\STABLE\PACKAGE\5AB84D6ACFE1F23C4FAE0AB88F26E3A396351AC9\INCLUDE\EIGEN3\EIGEN\SRC\CORE\CWISEUNARYOP.H
C:\USERS\EVERBEEK\.CONAN\DATA\EIGEN\3.3.7\CONAN\STABLE\PACKAGE\5AB84D6ACFE1F23C4FAE0AB88F26E3A396351AC9\INCLUDE\EIGEN3\EIGEN\SRC\CORE\CWISENULLARYOP.H
C:\USERS\EVERBEEK\.CONAN\DATA\EIGEN\3.3.7\CONAN\STABLE\PACKAGE\5AB84D6ACFE1F23C4FAE0AB88F26E3A396351AC9\INCLUDE\EIGEN3\EIGEN\SRC\CORE\CWISEUNARYVIEW.H
C:\USERS\EVERBEEK\.CONAN\DATA\EIGEN\3.3.7\CONAN\STABLE\PACKAGE\5AB84D6ACFE1F23C4FAE0AB88F26E3A396351AC9\INCLUDE\EIGEN3\EIGEN\SRC\CORE\SELFCWISEBINARYOP.H
C:\USERS\EVERBEEK\.CONAN\DATA\EIGEN\3.3.7\CONAN\STABLE\PACKAGE\5AB84D6ACFE1F23C4FAE0AB88F26E3A396351AC9\INCLUDE\EIGEN3\EIGEN\SRC\CORE\DOT.H
C:\USERS\EVERBEEK\.CONAN\DATA\EIGEN\3.3.7\CONAN\STABLE\PACKAGE\5AB84D6ACFE1F23C4FAE0AB88F26E3A396351AC9\INCLUDE\EIGEN3\EIGEN\SRC\CORE\STABLENORM.H
C:\USERS\EVERBEEK\.CONAN\DATA\EIGEN\3.3.7\CONAN\STABLE\PACKAGE\5AB84D6ACFE1F23C4FAE0AB88F26E3A396351AC9\INCLUDE\EIGEN3\EIGEN\SRC\CORE\STRIDE.H
C:\USERS\EVERBEEK\.CONAN\DATA\EIGEN\3.3.7\CONAN\STABLE\PACKAGE\5AB84D6ACFE1F23C4FAE0AB88F26E3A396351AC9\INCLUDE\EIGEN3\EIGEN\SRC\CORE\MAPBASE.H
C:\USERS\EVERBEEK\.CONAN\DATA\EIGEN\3.3.7\CONAN\STABLE\PACKAGE\5AB84D6ACFE1F23C4FAE0AB88F26E3A396351AC9\INCLUDE\EIGEN3\EIGEN\SRC\CORE\MAP.H
C:\USERS\EVERBEEK\.CONAN\DATA\EIGEN\3.3.7\CONAN\STABLE\PACKAGE\5AB84D6ACFE1F23C4FAE0AB88F26E3A396351AC9\INCLUDE\EIGEN3\EIGEN\SRC\CORE\REF.H
C:\USERS\EVERBEEK\.CONAN\DATA\EIGEN\3.3.7\CONAN\STABLE\PACKAGE\5AB84D6ACFE1F23C4FAE0AB88F26E3A396351AC9\INCLUDE\EIGEN3\EIGEN\SRC\CORE\BLOCK.H
C:\USERS\EVERBEEK\.CONAN\DATA\EIGEN\3.3.7\CONAN\STABLE\PACKAGE\5AB84D6ACFE1F23C4FAE0AB88F26E3A396351AC9\INCLUDE\EIGEN3\EIGEN\SRC\CORE\VECTORBLOCK.H
C:\USERS\EVERBEEK\.CONAN\DATA\EIGEN\3.3.7\CONAN\STABLE\PACKAGE\5AB84D6ACFE1F23C4FAE0AB88F26E3A396351AC9\INCLUDE\EIGEN3\EIGEN\SRC\CORE\TRANSPOSE.H
C:\USERS\EVERBEEK\.CONAN\DATA\EIGEN\3.3.7\CONAN\STABLE\PACKAGE\5AB84D6ACFE1F23C4FAE0AB88F26E3A396351AC9\INCLUDE\EIGEN3\EIGEN\SRC\CORE\DIAGONALMATRIX.H
C:\USERS\EVERBEEK\.CONAN\DATA\EIGEN\3.3.7\CONAN\STABLE\PACKAGE\5AB84D6ACFE1F23C4FAE0AB88F26E3A396351AC9\INCLUDE\EIGEN3\EIGEN\SRC\CORE\DIAGONAL.H
C:\USERS\EVERBEEK\.CONAN\DATA\EIGEN\3.3.7\CONAN\STABLE\PACKAGE\5AB84D6ACFE1F23C4FAE0AB88F26E3A396351AC9\INCLUDE\EIGEN3\EIGEN\SRC\CORE\DIAGONALPRODUCT.H
C:\USERS\EVERBEEK\.CONAN\DATA\EIGEN\3.3.7\CONAN\STABLE\PACKAGE\5AB84D6ACFE1F23C4FAE0AB88F26E3A396351AC9\INCLUDE\EIGEN3\EIGEN\SRC\CORE\REDUX.H
C:\USERS\EVERBEEK\.CONAN\DATA\EIGEN\3.3.7\CONAN\STABLE\PACKAGE\5AB84D6ACFE1F23C4FAE0AB88F26E3A396351AC9\INCLUDE\EIGEN3\EIGEN\SRC\CORE\VISITOR.H
C:\USERS\EVERBEEK\.CONAN\DATA\EIGEN\3.3.7\CONAN\STABLE\PACKAGE\5AB84D6ACFE1F23C4FAE0AB88F26E3A396351AC9\INCLUDE\EIGEN3\EIGEN\SRC\CORE\FUZZY.H
C:\USERS\EVERBEEK\.CONAN\DATA\EIGEN\3.3.7\CONAN\STABLE\PACKAGE\5AB84D6ACFE1F23C4FAE0AB88F26E3A396351AC9\INCLUDE\EIGEN3\EIGEN\SRC\CORE\SWAP.H
C:\USERS\EVERBEEK\.CONAN\DATA\EIGEN\3.3.7\CONAN\STABLE\PACKAGE\5AB84D6ACFE1F23C4FAE0AB88F26E3A396351AC9\INCLUDE\EIGEN3\EIGEN\SRC\CORE\COMMAINITIALIZER.H
C:\USERS\EVERBEEK\.CONAN\DATA\EIGEN\3.3.7\CONAN\STABLE\PACKAGE\5AB84D6ACFE1F23C4FAE0AB88F26E3A396351AC9\INCLUDE\EIGEN3\EIGEN\SRC\CORE\GENERALPRODUCT.H
C:\USERS\EVERBEEK\.CONAN\DATA\EIGEN\3.3.7\CONAN\STABLE\PACKAGE\5AB84D6ACFE1F23C4FAE0AB88F26E3A396351AC9\INCLUDE\EIGEN3\EIGEN\SRC\CORE\SOLVE.H
C:\USERS\EVERBEEK\.CONAN\DATA\EIGEN\3.3.7\CONAN\STABLE\PACKAGE\5AB84D6ACFE1F23C4FAE0AB88F26E3A396351AC9\INCLUDE\EIGEN3\EIGEN\SRC\CORE\INVERSE.H
C:\USERS\EVERBEEK\.CONAN\DATA\EIGEN\3.3.7\CONAN\STABLE\PACKAGE\5AB84D6ACFE1F23C4FAE0AB88F26E3A396351AC9\INCLUDE\EIGEN3\EIGEN\SRC\CORE\SOLVERBASE.H
C:\USERS\EVERBEEK\.CONAN\DATA\EIGEN\3.3.7\CONAN\STABLE\PACKAGE\5AB84D6ACFE1F23C4FAE0AB88F26E3A396351AC9\INCLUDE\EIGEN3\EIGEN\SRC\CORE\PERMUTATIONMATRIX.H
C:\USERS\EVERBEEK\.CONAN\DATA\EIGEN\3.3.7\CONAN\STABLE\PACKAGE\5AB84D6ACFE1F23C4FAE0AB88F26E3A396351AC9\INCLUDE\EIGEN3\EIGEN\SRC\CORE\TRANSPOSITIONS.H
C:\USERS\EVERBEEK\.CONAN\DATA\EIGEN\3.3.7\CONAN\STABLE\PACKAGE\5AB84D6ACFE1F23C4FAE0AB88F26E3A396351AC9\INCLUDE\EIGEN3\EIGEN\SRC\CORE\TRIANGULARMATRIX.H
C:\USERS\EVERBEEK\.CONAN\DATA\EIGEN\3.3.7\CONAN\STABLE\PACKAGE\5AB84D6ACFE1F23C4FAE0AB88F26E3A396351AC9\INCLUDE\EIGEN3\EIGEN\SRC\CORE\SELFADJOINTVIEW.H
C:\USERS\EVERBEEK\.CONAN\DATA\EIGEN\3.3.7\CONAN\STABLE\PACKAGE\5AB84D6ACFE1F23C4FAE0AB88F26E3A396351AC9\INCLUDE\EIGEN3\EIGEN\SRC\CORE\PRODUCTS\GENERALBLOCKPANELKERNEL.H
C:\USERS\EVERBEEK\.CONAN\DATA\EIGEN\3.3.7\CONAN\STABLE\PACKAGE\5AB84D6ACFE1F23C4FAE0AB88F26E3A396351AC9\INCLUDE\EIGEN3\EIGEN\SRC\CORE\PRODUCTS\PARALLELIZER.H
C:\USERS\EVERBEEK\.CONAN\DATA\EIGEN\3.3.7\CONAN\STABLE\PACKAGE\5AB84D6ACFE1F23C4FAE0AB88F26E3A396351AC9\INCLUDE\EIGEN3\EIGEN\SRC\CORE\PRODUCTEVALUATORS.H
C:\USERS\EVERBEEK\.CONAN\DATA\EIGEN\3.3.7\CONAN\STABLE\PACKAGE\5AB84D6ACFE1F23C4FAE0AB88F26E3A396351AC9\INCLUDE\EIGEN3\EIGEN\SRC\CORE\PRODUCTS\GENERALMATRIXVECTOR.H
C:\USERS\EVERBEEK\.CONAN\DATA\EIGEN\3.3.7\CONAN\STABLE\PACKAGE\5AB84D6ACFE1F23C4FAE0AB88F26E3A396351AC9\INCLUDE\EIGEN3\EIGEN\SRC\CORE\PRODUCTS\GENERALMATRIXMATRIX.H
C:\USERS\EVERBEEK\.CONAN\DATA\EIGEN\3.3.7\CONAN\STABLE\PACKAGE\5AB84D6ACFE1F23C4FAE0AB88F26E3A396351AC9\INCLUDE\EIGEN3\EIGEN\SRC\CORE\SOLVETRIANGULAR.H
C:\USERS\EVERBEEK\.CONAN\DATA\EIGEN\3.3.7\CONAN\STABLE\PACKAGE\5AB84D6ACFE1F23C4FAE0AB88F26E3A396351AC9\INCLUDE\EIGEN3\EIGEN\SRC\CORE\PRODUCTS\GENERALMATRIXMATRIXTRIANGULAR.H
C:\USERS\EVERBEEK\.CONAN\DATA\EIGEN\3.3.7\CONAN\STABLE\PACKAGE\5AB84D6ACFE1F23C4FAE0AB88F26E3A396351AC9\INCLUDE\EIGEN3\EIGEN\SRC\CORE\PRODUCTS\SELFADJOINTMATRIXVECTOR.H
C:\USERS\EVERBEEK\.CONAN\DATA\EIGEN\3.3.7\CONAN\STABLE\PACKAGE\5AB84D6ACFE1F23C4FAE0AB88F26E3A396351AC9\INCLUDE\EIGEN3\EIGEN\SRC\CORE\PRODUCTS\SELFADJOINTMATRIXMATRIX.H
C:\USERS\EVERBEEK\.CONAN\DATA\EIGEN\3.3.7\CONAN\STABLE\PACKAGE\5AB84D6ACFE1F23C4FAE0AB88F26E3A396351AC9\INCLUDE\EIGEN3\EIGEN\SRC\CORE\PRODUCTS\SELFADJOINTPRODUCT.H
C:\USERS\EVERBEEK\.CONAN\DATA\EIGEN\3.3.7\CONAN\STABLE\PACKAGE\5AB84D6ACFE1F23C4FAE0AB88F26E3A396351AC9\INCLUDE\EIGEN3\EIGEN\SRC\CORE\PRODUCTS\SELFADJOINTRANK2UPDATE.H
C:\USERS\EVERBEEK\.CONAN\DATA\EIGEN\3.3.7\CONAN\STABLE\PACKAGE\5AB84D6ACFE1F23C4FAE0AB88F26E3A396351AC9\INCLUDE\EIGEN3\EIGEN\SRC\CORE\PRODUCTS\TRIANGULARMATRIXVECTOR.H
C:\USERS\EVERBEEK\.CONAN\DATA\EIGEN\3.3.7\CONAN\STABLE\PACKAGE\5AB84D6ACFE1F23C4FAE0AB88F26E3A396351AC9\INCLUDE\EIGEN3\EIGEN\SRC\CORE\PRODUCTS\TRIANGULARMATRIXMATRIX.H
C:\USERS\EVERBEEK\.CONAN\DATA\EIGEN\3.3.7\CONAN\STABLE\PACKAGE\5AB84D6ACFE1F23C4FAE0AB88F26E3A396351AC9\INCLUDE\EIGEN3\EIGEN\SRC\CORE\PRODUCTS\TRIANGULARSOLVERMATRIX.H
C:\USERS\EVERBEEK\.CONAN\DATA\EIGEN\3.3.7\CONAN\STABLE\PACKAGE\5AB84D6ACFE1F23C4FAE0AB88F26E3A396351AC9\INCLUDE\EIGEN3\EIGEN\SRC\CORE\PRODUCTS\TRIANGULARSOLVERVECTOR.H
C:\USERS\EVERBEEK\.CONAN\DATA\EIGEN\3.3.7\CONAN\STABLE\PACKAGE\5AB84D6ACFE1F23C4FAE0AB88F26E3A396351AC9\INCLUDE\EIGEN3\EIGEN\SRC\CORE\BANDMATRIX.H
C:\USERS\EVERBEEK\.CONAN\DATA\EIGEN\3.3.7\CONAN\STABLE\PACKAGE\5AB84D6ACFE1F23C4FAE0AB88F26E3A396351AC9\INCLUDE\EIGEN3\EIGEN\SRC\CORE\COREITERATORS.H
C:\USERS\EVERBEEK\.CONAN\DATA\EIGEN\3.3.7\CONAN\STABLE\PACKAGE\5AB84D6ACFE1F23C4FAE0AB88F26E3A396351AC9\INCLUDE\EIGEN3\EIGEN\SRC\CORE\CONDITIONESTIMATOR.H
C:\USERS\EVERBEEK\.CONAN\DATA\EIGEN\3.3.7\CONAN\STABLE\PACKAGE\5AB84D6ACFE1F23C4FAE0AB88F26E3A396351AC9\INCLUDE\EIGEN3\EIGEN\SRC\CORE\BOOLEANREDUX.H
C:\USERS\EVERBEEK\.CONAN\DATA\EIGEN\3.3.7\CONAN\STABLE\PACKAGE\5AB84D6ACFE1F23C4FAE0AB88F26E3A396351AC9\INCLUDE\EIGEN3\EIGEN\SRC\CORE\SELECT.H
C:\USERS\EVERBEEK\.CONAN\DATA\EIGEN\3.3.7\CONAN\STABLE\PACKAGE\5AB84D6ACFE1F23C4FAE0AB88F26E3A396351AC9\INCLUDE\EIGEN3\EIGEN\SRC\CORE\VECTORWISEOP.H
C:\USERS\EVERBEEK\.CONAN\DATA\EIGEN\3.3.7\CONAN\STABLE\PACKAGE\5AB84D6ACFE1F23C4FAE0AB88F26E3A396351AC9\INCLUDE\EIGEN3\EIGEN\SRC\CORE\RANDOM.H
C:\USERS\EVERBEEK\.CONAN\DATA\EIGEN\3.3.7\CONAN\STABLE\PACKAGE\5AB84D6ACFE1F23C4FAE0AB88F26E3A396351AC9\INCLUDE\EIGEN3\EIGEN\SRC\CORE\REPLICATE.H
C:\USERS\EVERBEEK\.CONAN\DATA\EIGEN\3.3.7\CONAN\STABLE\PACKAGE\5AB84D6ACFE1F23C4FAE0AB88F26E3A396351AC9\INCLUDE\EIGEN3\EIGEN\SRC\CORE\REVERSE.H
C:\USERS\EVERBEEK\.CONAN\DATA\EIGEN\3.3.7\CONAN\STABLE\PACKAGE\5AB84D6ACFE1F23C4FAE0AB88F26E3A396351AC9\INCLUDE\EIGEN3\EIGEN\SRC\CORE\ARRAYWRAPPER.H
C:\USERS\EVERBEEK\.CONAN\DATA\EIGEN\3.3.7\CONAN\STABLE\PACKAGE\5AB84D6ACFE1F23C4FAE0AB88F26E3A396351AC9\INCLUDE\EIGEN3\EIGEN\SRC\CORE\GLOBALFUNCTIONS.H
C:\USERS\EVERBEEK\.CONAN\DATA\EIGEN\3.3.7\CONAN\STABLE\PACKAGE\5AB84D6ACFE1F23C4FAE0AB88F26E3A396351AC9\INCLUDE\EIGEN3\EIGEN\SRC\CORE\UTIL\REENABLESTUPIDWARNINGS.H
C:\USERS\EVERBEEK\.CONAN\DATA\EIGEN\3.3.7\CONAN\STABLE\PACKAGE\5AB84D6ACFE1F23C4FAE0AB88F26E3A396351AC9\INCLUDE\EIGEN3\EIGEN\LU
C:\USERS\EVERBEEK\.CONAN\DATA\EIGEN\3.3.7\CONAN\STABLE\PACKAGE\5AB84D6ACFE1F23C4FAE0AB88F26E3A396351AC9\INCLUDE\EIGEN3\EIGEN\SRC\MISC\KERNEL.H
C:\USERS\EVERBEEK\.CONAN\DATA\EIGEN\3.3.7\CONAN\STABLE\PACKAGE\5AB84D6ACFE1F23C4FAE0AB88F26E3A396351AC9\INCLUDE\EIGEN3\EIGEN\SRC\MISC\IMAGE.H
C:\USERS\EVERBEEK\.CONAN\DATA\EIGEN\3.3.7\CONAN\STABLE\PACKAGE\5AB84D6ACFE1F23C4FAE0AB88F26E3A396351AC9\INCLUDE\EIGEN3\EIGEN\SRC\LU\FULLPIVLU.H
C:\USERS\EVERBEEK\.CONAN\DATA\EIGEN\3.3.7\CONAN\STABLE\PACKAGE\5AB84D6ACFE1F23C4FAE0AB88F26E3A396351AC9\INCLUDE\EIGEN3\EIGEN\SRC\LU\PARTIALPIVLU.H
C:\USERS\EVERBEEK\.CONAN\DATA\EIGEN\3.3.7\CONAN\STABLE\PACKAGE\5AB84D6ACFE1F23C4FAE0AB88F26E3A396351AC9\INCLUDE\EIGEN3\EIGEN\SRC\LU\DETERMINANT.H
C:\USERS\EVERBEEK\.CONAN\DATA\EIGEN\3.3.7\CONAN\STABLE\PACKAGE\5AB84D6ACFE1F23C4FAE0AB88F26E3A396351AC9\INCLUDE\EIGEN3\EIGEN\SRC\LU\INVERSEIMPL.H
C:\USERS\EVERBEEK\.CONAN\DATA\EIGEN\3.3.7\CONAN\STABLE\PACKAGE\5AB84D6ACFE1F23C4FAE0AB88F26E3A396351AC9\INCLUDE\EIGEN3\EIGEN\SRC\LU\ARCH\INVERSE_SSE.H
C:\USERS\EVERBEEK\.CONAN\DATA\EIGEN\3.3.7\CONAN\STABLE\PACKAGE\5AB84D6ACFE1F23C4FAE0AB88F26E3A396351AC9\INCLUDE\EIGEN3\EIGEN\CHOLESKY
C:\USERS\EVERBEEK\.CONAN\DATA\EIGEN\3.3.7\CONAN\STABLE\PACKAGE\5AB84D6ACFE1F23C4FAE0AB88F26E3A396351AC9\INCLUDE\EIGEN3\EIGEN\JACOBI
C:\USERS\EVERBEEK\.CONAN\DATA\EIGEN\3.3.7\CONAN\STABLE\PACKAGE\5AB84D6ACFE1F23C4FAE0AB88F26E3A396351AC9\INCLUDE\EIGEN3\EIGEN\SRC\JACOBI\JACOBI.H
C:\USERS\EVERBEEK\.CONAN\DATA\EIGEN\3.3.7\CONAN\STABLE\PACKAGE\5AB84D6ACFE1F23C4FAE0AB88F26E3A396351AC9\INCLUDE\EIGEN3\EIGEN\SRC\CHOLESKY\LLT.H
C:\USERS\EVERBEEK\.CONAN\DATA\EIGEN\3.3.7\CONAN\STABLE\PACKAGE\5AB84D6ACFE1F23C4FAE0AB88F26E3A396351AC9\INCLUDE\EIGEN3\EIGEN\SRC\CHOLESKY\LDLT.H
C:\USERS\EVERBEEK\.CONAN\DATA\EIGEN\3.3.7\CONAN\STABLE\PACKAGE\5AB84D6ACFE1F23C4FAE0AB88F26E3A396351AC9\INCLUDE\EIGEN3\EIGEN\QR
C:\USERS\EVERBEEK\.CONAN\DATA\EIGEN\3.3.7\CONAN\STABLE\PACKAGE\5AB84D6ACFE1F23C4FAE0AB88F26E3A396351AC9\INCLUDE\EIGEN3\EIGEN\HOUSEHOLDER
C:\USERS\EVERBEEK\.CONAN\DATA\EIGEN\3.3.7\CONAN\STABLE\PACKAGE\5AB84D6ACFE1F23C4FAE0AB88F26E3A396351AC9\INCLUDE\EIGEN3\EIGEN\SRC\HOUSEHOLDER\HOUSEHOLDER.H
C:\USERS\EVERBEEK\.CONAN\DATA\EIGEN\3.3.7\CONAN\STABLE\PACKAGE\5AB84D6ACFE1F23C4FAE0AB88F26E3A396351AC9\INCLUDE\EIGEN3\EIGEN\SRC\HOUSEHOLDER\HOUSEHOLDERSEQUENCE.H
C:\USERS\EVERBEEK\.CONAN\DATA\EIGEN\3.3.7\CONAN\STABLE\PACKAGE\5AB84D6ACFE1F23C4FAE0AB88F26E3A396351AC9\INCLUDE\EIGEN3\EIGEN\SRC\HOUSEHOLDER\BLOCKHOUSEHOLDER.H
C:\USERS\EVERBEEK\.CONAN\DATA\EIGEN\3.3.7\CONAN\STABLE\PACKAGE\5AB84D6ACFE1F23C4FAE0AB88F26E3A396351AC9\INCLUDE\EIGEN3\EIGEN\SRC\QR\HOUSEHOLDERQR.H
C:\USERS\EVERBEEK\.CONAN\DATA\EIGEN\3.3.7\CONAN\STABLE\PACKAGE\5AB84D6ACFE1F23C4FAE0AB88F26E3A396351AC9\INCLUDE\EIGEN3\EIGEN\SRC\QR\FULLPIVHOUSEHOLDERQR.H
C:\USERS\EVERBEEK\.CONAN\DATA\EIGEN\3.3.7\CONAN\STABLE\PACKAGE\5AB84D6ACFE1F23C4FAE0AB88F26E3A396351AC9\INCLUDE\EIGEN3\EIGEN\SRC\QR\COLPIVHOUSEHOLDERQR.H
C:\USERS\EVERBEEK\.CONAN\DATA\EIGEN\3.3.7\CONAN\STABLE\PACKAGE\5AB84D6ACFE1F23C4FAE0AB88F26E3A396351AC9\INCLUDE\EIGEN3\EIGEN\SRC\QR\COMPLETEORTHOGONALDECOMPOSITION.H
C:\USERS\EVERBEEK\.CONAN\DATA\EIGEN\3.3.7\CONAN\STABLE\PACKAGE\5AB84D6ACFE1F23C4FAE0AB88F26E3A396351AC9\INCLUDE\EIGEN3\EIGEN\SVD
C:\USERS\EVERBEEK\.CONAN\DATA\EIGEN\3.3.7\CONAN\STABLE\PACKAGE\5AB84D6ACFE1F23C4FAE0AB88F26E3A396351AC9\INCLUDE\EIGEN3\EIGEN\SRC\MISC\REALSVD2X2.H
C:\USERS\EVERBEEK\.CONAN\DATA\EIGEN\3.3.7\CONAN\STABLE\PACKAGE\5AB84D6ACFE1F23C4FAE0AB88F26E3A396351AC9\INCLUDE\EIGEN3\EIGEN\SRC\SVD\UPPERBIDIAGONALIZATION.H
C:\USERS\EVERBEEK\.CONAN\DATA\EIGEN\3.3.7\CONAN\STABLE\PACKAGE\5AB84D6ACFE1F23C4FAE0AB88F26E3A396351AC9\INCLUDE\EIGEN3\EIGEN\SRC\SVD\SVDBASE.H
C:\USERS\EVERBEEK\.CONAN\DATA\EIGEN\3.3.7\CONAN\STABLE\PACKAGE\5AB84D6ACFE1F23C4FAE0AB88F26E3A396351AC9\INCLUDE\EIGEN3\EIGEN\SRC\SVD\JACOBISVD.H
C:\USERS\EVERBEEK\.CONAN\DATA\EIGEN\3.3.7\CONAN\STABLE\PACKAGE\5AB84D6ACFE1F23C4FAE0AB88F26E3A396351AC9\INCLUDE\EIGEN3\EIGEN\SRC\SVD\BDCSVD.H
C:\USERS\EVERBEEK\.CONAN\DATA\EIGEN\3.3.7\CONAN\STABLE\PACKAGE\5AB84D6ACFE1F23C4FAE0AB88F26E3A396351AC9\INCLUDE\EIGEN3\EIGEN\GEOMETRY
C:\USERS\EVERBEEK\.CONAN\DATA\EIGEN\3.3.7\CONAN\STABLE\PACKAGE\5AB84D6ACFE1F23C4FAE0AB88F26E3A396351AC9\INCLUDE\EIGEN3\EIGEN\SRC\GEOMETRY\ORTHOMETHODS.H
C:\USERS\EVERBEEK\.CONAN\DATA\EIGEN\3.3.7\CONAN\STABLE\PACKAGE\5AB84D6ACFE1F23C4FAE0AB88F26E3A396351AC9\INCLUDE\EIGEN3\EIGEN\SRC\GEOMETRY\EULERANGLES.H
C:\USERS\EVERBEEK\.CONAN\DATA\EIGEN\3.3.7\CONAN\STABLE\PACKAGE\5AB84D6ACFE1F23C4FAE0AB88F26E3A396351AC9\INCLUDE\EIGEN3\EIGEN\SRC\GEOMETRY\HOMOGENEOUS.H
C:\USERS\EVERBEEK\.CONAN\DATA\EIGEN\3.3.7\CONAN\STABLE\PACKAGE\5AB84D6ACFE1F23C4FAE0AB88F26E3A396351AC9\INCLUDE\EIGEN3\EIGEN\SRC\GEOMETRY\ROTATIONBASE.H
C:\USERS\EVERBEEK\.CONAN\DATA\EIGEN\3.3.7\CONAN\STABLE\PACKAGE\5AB84D6ACFE1F23C4FAE0AB88F26E3A396351AC9\INCLUDE\EIGEN3\EIGEN\SRC\GEOMETRY\ROTATION2D.H
C:\USERS\EVERBEEK\.CONAN\DATA\EIGEN\3.3.7\CONAN\STABLE\PACKAGE\5AB84D6ACFE1F23C4FAE0AB88F26E3A396351AC9\INCLUDE\EIGEN3\EIGEN\SRC\GEOMETRY\QUATERNION.H
C:\USERS\EVERBEEK\.CONAN\DATA\EIGEN\3.3.7\CONAN\STABLE\PACKAGE\5AB84D6ACFE1F23C4FAE0AB88F26E3A396351AC9\INCLUDE\EIGEN3\EIGEN\SRC\GEOMETRY\ANGLEAXIS.H
C:\USERS\EVERBEEK\.CONAN\DATA\EIGEN\3.3.7\CONAN\STABLE\PACKAGE\5AB84D6ACFE1F23C4FAE0AB88F26E3A396351AC9\INCLUDE\EIGEN3\EIGEN\SRC\GEOMETRY\TRANSFORM.H
C:\USERS\EVERBEEK\.CONAN\DATA\EIGEN\3.3.7\CONAN\STABLE\PACKAGE\5AB84D6ACFE1F23C4FAE0AB88F26E3A396351AC9\INCLUDE\EIGEN3\EIGEN\SRC\GEOMETRY\TRANSLATION.H
C:\USERS\EVERBEEK\.CONAN\DATA\EIGEN\3.3.7\CONAN\STABLE\PACKAGE\5AB84D6ACFE1F23C4FAE0AB88F26E3A396351AC9\INCLUDE\EIGEN3\EIGEN\SRC\GEOMETRY\SCALING.H
C:\USERS\EVERBEEK\.CONAN\DATA\EIGEN\3.3.7\CONAN\STABLE\PACKAGE\5AB84D6ACFE1F23C4FAE0AB88F26E3A396351AC9\INCLUDE\EIGEN3\EIGEN\SRC\GEOMETRY\HYPERPLANE.H
C:\USERS\EVERBEEK\.CONAN\DATA\EIGEN\3.3.7\CONAN\STABLE\PACKAGE\5AB84D6ACFE1F23C4FAE0AB88F26E3A396351AC9\INCLUDE\EIGEN3\EIGEN\SRC\GEOMETRY\PARAMETRIZEDLINE.H
C:\USERS\EVERBEEK\.CONAN\DATA\EIGEN\3.3.7\CONAN\STABLE\PACKAGE\5AB84D6ACFE1F23C4FAE0AB88F26E3A396351AC9\INCLUDE\EIGEN3\EIGEN\SRC\GEOMETRY\ALIGNEDBOX.H
C:\USERS\EVERBEEK\.CONAN\DATA\EIGEN\3.3.7\CONAN\STABLE\PACKAGE\5AB84D6ACFE1F23C4FAE0AB88F26E3A396351AC9\INCLUDE\EIGEN3\EIGEN\SRC\GEOMETRY\UMEYAMA.H
C:\USERS\EVERBEEK\.CONAN\DATA\EIGEN\3.3.7\CONAN\STABLE\PACKAGE\5AB84D6ACFE1F23C4FAE0AB88F26E3A396351AC9\INCLUDE\EIGEN3\EIGEN\SRC\GEOMETRY\ARCH\GEOMETRY_SSE.H
C:\USERS\EVERBEEK\.CONAN\DATA\EIGEN\3.3.7\CONAN\STABLE\PACKAGE\5AB84D6ACFE1F23C4FAE0AB88F26E3A396351AC9\INCLUDE\EIGEN3\EIGEN\EIGENVALUES
C:\USERS\EVERBEEK\.CONAN\DATA\EIGEN\3.3.7\CONAN\STABLE\PACKAGE\5AB84D6ACFE1F23C4FAE0AB88F26E3A396351AC9\INCLUDE\EIGEN3\EIGEN\SRC\EIGENVALUES\TRIDIAGONALIZATION.H
C:\USERS\EVERBEEK\.CONAN\DATA\EIGEN\3.3.7\CONAN\STABLE\PACKAGE\5AB84D6ACFE1F23C4FAE0AB88F26E3A396351AC9\INCLUDE\EIGEN3\EIGEN\SRC\EIGENVALUES\REALSCHUR.H
C:\USERS\EVERBEEK\.CONAN\DATA\EIGEN\3.3.7\CONAN\STABLE\PACKAGE\5AB84D6ACFE1F23C4FAE0AB88F26E3A396351AC9\INCLUDE\EIGEN3\EIGEN\SRC\EIGENVALUES\HESSENBERGDECOMPOSITION.H
C:\USERS\EVERBEEK\.CONAN\DATA\EIGEN\3.3.7\CONAN\STABLE\PACKAGE\5AB84D6ACFE1F23C4FAE0AB88F26E3A396351AC9\INCLUDE\EIGEN3\EIGEN\SRC\EIGENVALUES\EIGENSOLVER.H
C:\USERS\EVERBEEK\.CONAN\DATA\EIGEN\3.3.7\CONAN\STABLE\PACKAGE\5AB84D6ACFE1F23C4FAE0AB88F26E3A396351AC9\INCLUDE\EIGEN3\EIGEN\SRC\EIGENVALUES\SELFADJOINTEIGENSOLVER.H
C:\USERS\EVERBEEK\.CONAN\DATA\EIGEN\3.3.7\CONAN\STABLE\PACKAGE\5AB84D6ACFE1F23C4FAE0AB88F26E3A396351AC9\INCLUDE\EIGEN3\EIGEN\SRC\EIGENVALUES\GENERALIZEDSELFADJOINTEIGENSOLVER.H
C:\USERS\EVERBEEK\.CONAN\DATA\EIGEN\3.3.7\CONAN\STABLE\PACKAGE\5AB84D6ACFE1F23C4FAE0AB88F26E3A396351AC9\INCLUDE\EIGEN3\EIGEN\SRC\EIGENVALUES\COMPLEXSCHUR.H
C:\USERS\EVERBEEK\.CONAN\DATA\EIGEN\3.3.7\CONAN\STABLE\PACKAGE\5AB84D6ACFE1F23C4FAE0AB88F26E3A396351AC9\INCLUDE\EIGEN3\EIGEN\SRC\EIGENVALUES\COMPLEXEIGENSOLVER.H
C:\USERS\EVERBEEK\.CONAN\DATA\EIGEN\3.3.7\CONAN\STABLE\PACKAGE\5AB84D6ACFE1F23C4FAE0AB88F26E3A396351AC9\INCLUDE\EIGEN3\EIGEN\SRC\EIGENVALUES\REALQZ.H
C:\USERS\EVERBEEK\.CONAN\DATA\EIGEN\3.3.7\CONAN\STABLE\PACKAGE\5AB84D6ACFE1F23C4FAE0AB88F26E3A396351AC9\INCLUDE\EIGEN3\EIGEN\SRC\EIGENVALUES\GENERALIZEDEIGENSOLVER.H
C:\USERS\EVERBEEK\.CONAN\DATA\EIGEN\3.3.7\CONAN\STABLE\PACKAGE\5AB84D6ACFE1F23C4FAE0AB88F26E3A396351AC9\INCLUDE\EIGEN3\EIGEN\SRC\EIGENVALUES\MATRIXBASEEIGENVALUES.H
C:\USERS\EVERBEEK\GITLAB\FORMATION-CLUSTER-FLIGHT-SIMULATION\BASILISK\SRC\ARCHITECTURE\UTILITIES\AVSEIGENMRP.H
