^C:\Users\everbeek\GitLab\formation-cluster-flight-simulation\basilisk\dist3\lowPassFilterTorqueCommand.vcxproj
C:\Users\everbeek\GitLab\formation-cluster-flight-simulation\basilisk\dist3\Basilisk\fswAlgorithms\lowPassFilterTorqueCommand.lib
C:\Users\everbeek\GitLab\formation-cluster-flight-simulation\basilisk\dist3\Basilisk\fswAlgorithms\lowPassFilterTorqueCommand.exp
