^C:\USERS\EVERBEEK\GITLAB\FORMATION-CLUSTER-FLIGHT-SIMULATION\BASILISK\DIST3\BASILISK\FSWALGORITHMS\HEADINGSUKFPYTHON_WRAP.C|C:\USERS\EVERBEEK\GITLAB\FORMATION-CLUSTER-FLIGHT-SIMULATION\BASILISK\SRC\FSWALGORITHMS\ATTDETERMINATION\HEADINGSUKF\HEADINGSUKF.C
C:\USERS\EVERBEEK\GITLAB\FORMATION-CLUSTER-FLIGHT-SIMULATION\BASILISK\DIST3\HEADINGSUKF.DIR\RELEASE\HEADINGSUKF.OBJ
C:\USERS\EVERBEEK\GITLAB\FORMATION-CLUSTER-FLIGHT-SIMULATION\BASILISK\DIST3\HEADINGSUKF.DIR\RELEASE\HEADINGSUKFPYTHON_WRAP.OBJ
