^C:\USERS\EVERBEEK\GITLAB\FORMATION-CLUSTER-FLIGHT-SIMULATION\BASILISK\DIST3\BASILISK\FSWALGORITHMS\THRMOMENTUMMANAGEMENTPYTHON_WRAP.C|C:\USERS\EVERBEEK\GITLAB\FORMATION-CLUSTER-FLIGHT-SIMULATION\BASILISK\SRC\FSWALGORITHMS\ATTCONTROL\THRMOMENTUMMANAGEMENT\THRMOMENTUMMANAGEMENT.C
C:\USERS\EVERBEEK\GITLAB\FORMATION-CLUSTER-FLIGHT-SIMULATION\BASILISK\DIST3\THRMOMENTUMMANAGEMENT.DIR\RELEASE\THRMOMENTUMMANAGEMENT.OBJ
C:\USERS\EVERBEEK\GITLAB\FORMATION-CLUSTER-FLIGHT-SIMULATION\BASILISK\DIST3\THRMOMENTUMMANAGEMENT.DIR\RELEASE\THRMOMENTUMMANAGEMENTPYTHON_WRAP.OBJ
