^C:\USERS\EVERBEEK\GITLAB\FORMATION-CLUSTER-FLIGHT-SIMULATION\BASILISK\DIST3\INERTIALUKF.DIR\RELEASE\INERTIALUKF.OBJ|C:\USERS\EVERBEEK\GITLAB\FORMATION-CLUSTER-FLIGHT-SIMULATION\BASILISK\DIST3\INERTIALUKF.DIR\RELEASE\INERTIALUKFPYTHON_WRAP.OBJ
/OUT:"C:\USERS\EVERBEEK\GITLAB\FORMATION-CLUSTER-FLIGHT-SIMULATION\BASILISK\DIST3\BASILISK\FSWALGORITHMS\_INERTIALUKF.PYD" /INCREMENTAL:NO /NOLOGO BASILISK\ARCHITECTURELIB.LIB BASILISK\ARCHITECTUREUTILITIES.LIB ARCHITECTURE\UTILITIES\RELEASE\MODULEIDGENERATOR.LIB BASILISK\CMSGCINTERFACE.LIB C:\USERS\EVERBEEK\APPDATA\LOCAL\PROGRAMS\PYTHON\PYTHON39\LIBS\PYTHON39.LIB KERNEL32.LIB USER32.LIB GDI32.LIB WINSPOOL.LIB SHELL32.LIB OLE32.LIB OLEAUT32.LIB UUID.LIB COMDLG32.LIB ADVAPI32.LIB /MANIFEST /MANIFESTUAC:"level='asInvoker' uiAccess='false'" /manifest:embed /PDB:"C:/USERS/EVERBEEK/GITLAB/FORMATION-CLUSTER-FLIGHT-SIMULATION/BASILISK/DIST3/BASILISK/FSWALGORITHMS/_INERTIALUKF.PDB" /SUBSYSTEM:CONSOLE /TLBID:1 /DYNAMICBASE /NXCOMPAT /IMPLIB:"C:/USERS/EVERBEEK/GITLAB/FORMATION-CLUSTER-FLIGHT-SIMULATION/BASILISK/DIST3/BASILISK/FSWALGORITHMS/INERTIALUKF.LIB" /MACHINE:X64  /machine:x64 /DLL INERTIALUKF.DIR\RELEASE\INERTIALUKFPYTHON_WRAP.OBJ
INERTIALUKF.DIR\RELEASE\INERTIALUKF.OBJ
