^C:\Users\everbeek\GitLab\formation-cluster-flight-simulation\basilisk\dist3\mtbMomentumManagementSimple.vcxproj
C:\Users\everbeek\GitLab\formation-cluster-flight-simulation\basilisk\dist3\Basilisk\fswAlgorithms\mtbMomentumManagementSimple.lib
C:\Users\everbeek\GitLab\formation-cluster-flight-simulation\basilisk\dist3\Basilisk\fswAlgorithms\mtbMomentumManagementSimple.exp
