^C:\Users\everbeek\GitLab\formation-cluster-flight-simulation\basilisk\dist3\onboardDataHandlingLib.vcxproj
C:\Users\everbeek\GitLab\formation-cluster-flight-simulation\basilisk\dist3\Basilisk\onboardDataHandlingLib.lib
C:\Users\everbeek\GitLab\formation-cluster-flight-simulation\basilisk\dist3\Basilisk\onboardDataHandlingLib.exp
