^C:\Users\everbeek\GitLab\formation-cluster-flight-simulation\basilisk\dist3\vizInterface.vcxproj
C:\Users\everbeek\GitLab\formation-cluster-flight-simulation\basilisk\dist3\Basilisk\simulation\vizInterface.lib
C:\Users\everbeek\GitLab\formation-cluster-flight-simulation\basilisk\dist3\Basilisk\simulation\vizInterface.exp
