^C:\Users\everbeek\GitLab\formation-cluster-flight-simulation\basilisk\dist3\cssWlsEst.vcxproj
C:\Users\everbeek\GitLab\formation-cluster-flight-simulation\basilisk\dist3\Basilisk\fswAlgorithms\cssWlsEst.lib
C:\Users\everbeek\GitLab\formation-cluster-flight-simulation\basilisk\dist3\Basilisk\fswAlgorithms\cssWlsEst.exp
