^C:\USERS\EVERBEEK\GITLAB\FORMATION-CLUSTER-FLIGHT-SIMULATION\BASILISK\DIST3\MSISATMOSPHERE.DIR\RELEASE\MSISATMOSPHERE.OBJ|C:\USERS\EVERBEEK\GITLAB\FORMATION-CLUSTER-FLIGHT-SIMULATION\BASILISK\DIST3\MSISATMOSPHERE.DIR\RELEASE\MSISATMOSPHEREPYTHON_WRAP.OBJ|C:\USERS\EVERBEEK\GITLAB\FORMATION-CLUSTER-FLIGHT-SIMULATION\BASILISK\DIST3\MSISATMOSPHERE.DIR\RELEASE\NRLMSISE-00.OBJ|C:\USERS\EVERBEEK\GITLAB\FORMATION-CLUSTER-FLIGHT-SIMULATION\BASILISK\DIST3\MSISATMOSPHERE.DIR\RELEASE\NRLMSISE-00_DATA.OBJ
/OUT:"C:\USERS\EVERBEEK\GITLAB\FORMATION-CLUSTER-FLIGHT-SIMULATION\BASILISK\DIST3\BASILISK\SIMULATION\_MSISATMOSPHERE.PYD" /INCREMENTAL:NO /NOLOGO BASILISK\ENVIRONMENTLIB.LIB BASILISK\ARCHITECTURELIB.LIB BASILISK\ARCHITECTUREUTILITIES.LIB ARCHITECTURE\UTILITIES\RELEASE\MODULEIDGENERATOR.LIB BASILISK\CMSGCINTERFACE.LIB "C:\USERS\EVERBEEK\GITLAB\FORMATION-CLUSTER-FLIGHT-SIMULATION\BASILISK\SRC\..\LIBS\CSPICE\LIB\CSPICE_WIN64.LIB" C:\USERS\EVERBEEK\APPDATA\LOCAL\PROGRAMS\PYTHON\PYTHON39\LIBS\PYTHON39.LIB KERNEL32.LIB USER32.LIB GDI32.LIB WINSPOOL.LIB SHELL32.LIB OLE32.LIB OLEAUT32.LIB UUID.LIB COMDLG32.LIB ADVAPI32.LIB /MANIFEST /MANIFESTUAC:"level='asInvoker' uiAccess='false'" /manifest:embed /PDB:"C:/USERS/EVERBEEK/GITLAB/FORMATION-CLUSTER-FLIGHT-SIMULATION/BASILISK/DIST3/BASILISK/SIMULATION/_MSISATMOSPHERE.PDB" /SUBSYSTEM:CONSOLE /TLBID:1 /DYNAMICBASE /NXCOMPAT /IMPLIB:"C:/USERS/EVERBEEK/GITLAB/FORMATION-CLUSTER-FLIGHT-SIMULATION/BASILISK/DIST3/BASILISK/SIMULATION/MSISATMOSPHERE.LIB" /MACHINE:X64  /machine:x64 /DLL MSISATMOSPHERE.DIR\RELEASE\MSISATMOSPHEREPYTHON_WRAP.OBJ
MSISATMOSPHERE.DIR\RELEASE\MSISATMOSPHERE.OBJ
"MSISATMOSPHERE.DIR\RELEASE\NRLMSISE-00.OBJ"
"MSISATMOSPHERE.DIR\RELEASE\NRLMSISE-00_DATA.OBJ"
