^C:\Users\everbeek\GitLab\formation-cluster-flight-simulation\basilisk\dist3\msisAtmosphere.vcxproj
C:\Users\everbeek\GitLab\formation-cluster-flight-simulation\basilisk\dist3\Basilisk\simulation\msisAtmosphere.lib
C:\Users\everbeek\GitLab\formation-cluster-flight-simulation\basilisk\dist3\Basilisk\simulation\msisAtmosphere.exp
