^C:\USERS\EVERBEEK\GITLAB\FORMATION-CLUSTER-FLIGHT-SIMULATION\BASILISK\DIST3\BASILISK\SIMULATION\SIMPLETRANSMITTERPYTHON_WRAP.CXX|C:\USERS\EVERBEEK\GITLAB\FORMATION-CLUSTER-FLIGHT-SIMULATION\BASILISK\SRC\SIMULATION\ONBOARDDATAHANDLING\TRANSMITTER\SIMPLETRANSMITTER.CPP
C:\USERS\EVERBEEK\GITLAB\FORMATION-CLUSTER-FLIGHT-SIMULATION\BASILISK\DIST3\SIMPLETRANSMITTER.DIR\RELEASE\SIMPLETRANSMITTERPYTHON_WRAP.OBJ
C:\USERS\EVERBEEK\GITLAB\FORMATION-CLUSTER-FLIGHT-SIMULATION\BASILISK\DIST3\SIMPLETRANSMITTER.DIR\RELEASE\SIMPLETRANSMITTER.OBJ
