^C:\Users\everbeek\GitLab\formation-cluster-flight-simulation\basilisk\dist3\hillToAttRef.vcxproj
C:\Users\everbeek\GitLab\formation-cluster-flight-simulation\basilisk\dist3\Basilisk\fswAlgorithms\hillToAttRef.lib
C:\Users\everbeek\GitLab\formation-cluster-flight-simulation\basilisk\dist3\Basilisk\fswAlgorithms\hillToAttRef.exp
