^C:\Users\everbeek\GitLab\formation-cluster-flight-simulation\basilisk\dist3\sunlineSuKF.vcxproj
C:\Users\everbeek\GitLab\formation-cluster-flight-simulation\basilisk\dist3\Basilisk\fswAlgorithms\sunlineSuKF.lib
C:\Users\everbeek\GitLab\formation-cluster-flight-simulation\basilisk\dist3\Basilisk\fswAlgorithms\sunlineSuKF.exp
