^C:\USERS\EVERBEEK\GITLAB\FORMATION-CLUSTER-FLIGHT-SIMULATION\BASILISK\SRC\ARCHITECTURE\MESSAGING\MESSAGING.I
C:\USERS\EVERBEEK\GITLAB\FORMATION-CLUSTER-FLIGHT-SIMULATION\BASILISK\DIST3\BASILISK\ARCHITECTURE\MESSAGINGPYTHON_WRAP.CXX
C:\USERS\EVERBEEK\GITLAB\FORMATION-CLUSTER-FLIGHT-SIMULATION\BASILISK\DIST3\BASILISK\ARCHITECTURE\MESSAGING.PY
^C:\USERS\EVERBEEK\GITLAB\FORMATION-CLUSTER-FLIGHT-SIMULATION\BASILISK\SRC\CMAKELISTS.TXT
C:\USERS\EVERBEEK\GITLAB\FORMATION-CLUSTER-FLIGHT-SIMULATION\BASILISK\DIST3\CMAKEFILES\GENERATE.STAMP
