^C:\USERS\EVERBEEK\GITLAB\FORMATION-CLUSTER-FLIGHT-SIMULATION\BASILISK\DIST3\BASILISK\FSWALGORITHMS\DIPOLEMAPPINGPYTHON_WRAP.C|C:\USERS\EVERBEEK\GITLAB\FORMATION-CLUSTER-FLIGHT-SIMULATION\BASILISK\SRC\FSWALGORITHMS\EFFECTORINTERFACES\DIPOLEMAPPING\DIPOLEMAPPING.C
C:\USERS\EVERBEEK\GITLAB\FORMATION-CLUSTER-FLIGHT-SIMULATION\BASILISK\DIST3\DIPOLEMAPPING.DIR\RELEASE\DIPOLEMAPPINGPYTHON_WRAP.OBJ
C:\USERS\EVERBEEK\GITLAB\FORMATION-CLUSTER-FLIGHT-SIMULATION\BASILISK\DIST3\DIPOLEMAPPING.DIR\RELEASE\DIPOLEMAPPING.OBJ
