^C:\Users\everbeek\GitLab\formation-cluster-flight-simulation\basilisk\dist3\prvSteering.vcxproj
C:\Users\everbeek\GitLab\formation-cluster-flight-simulation\basilisk\dist3\Basilisk\fswAlgorithms\prvSteering.lib
C:\Users\everbeek\GitLab\formation-cluster-flight-simulation\basilisk\dist3\Basilisk\fswAlgorithms\prvSteering.exp
