^C:\Users\everbeek\GitLab\formation-cluster-flight-simulation\basilisk\dist3\swig_conly_data.vcxproj
C:\Users\everbeek\GitLab\formation-cluster-flight-simulation\basilisk\dist3\Basilisk\architecture\swig_conly_data.lib
C:\Users\everbeek\GitLab\formation-cluster-flight-simulation\basilisk\dist3\Basilisk\architecture\swig_conly_data.exp
