^C:\Users\everbeek\GitLab\formation-cluster-flight-simulation\basilisk\dist3\simpleSolarPanel.vcxproj
C:\Users\everbeek\GitLab\formation-cluster-flight-simulation\basilisk\dist3\Basilisk\simulation\simpleSolarPanel.lib
C:\Users\everbeek\GitLab\formation-cluster-flight-simulation\basilisk\dist3\Basilisk\simulation\simpleSolarPanel.exp
