^C:\Users\everbeek\GitLab\formation-cluster-flight-simulation\basilisk\dist3\cModuleTemplate.vcxproj
C:\Users\everbeek\GitLab\formation-cluster-flight-simulation\basilisk\dist3\Basilisk\moduleTemplates\cModuleTemplate.lib
C:\Users\everbeek\GitLab\formation-cluster-flight-simulation\basilisk\dist3\Basilisk\moduleTemplates\cModuleTemplate.exp
