^C:\USERS\EVERBEEK\GITLAB\FORMATION-CLUSTER-FLIGHT-SIMULATION\BASILISK\DIST3\BASILISK\ARCHITECTURE\SIM_MODELPYTHON_WRAP.CXX|C:\USERS\EVERBEEK\GITLAB\FORMATION-CLUSTER-FLIGHT-SIMULATION\BASILISK\SRC\ARCHITECTURE\SYSTEM_MODEL\SIM_MODEL.CPP|C:\USERS\EVERBEEK\GITLAB\FORMATION-CLUSTER-FLIGHT-SIMULATION\BASILISK\SRC\ARCHITECTURE\SYSTEM_MODEL\SYS_MODEL_TASK.CPP|C:\USERS\EVERBEEK\GITLAB\FORMATION-CLUSTER-FLIGHT-SIMULATION\BASILISK\SRC\ARCHITECTURE\SYSTEM_MODEL\SYS_PROCESS.CPP
C:\USERS\EVERBEEK\GITLAB\FORMATION-CLUSTER-FLIGHT-SIMULATION\BASILISK\DIST3\SIM_MODEL.DIR\RELEASE\SIM_MODELPYTHON_WRAP.OBJ
C:\USERS\EVERBEEK\GITLAB\FORMATION-CLUSTER-FLIGHT-SIMULATION\BASILISK\DIST3\SIM_MODEL.DIR\RELEASE\SYS_MODEL_TASK.OBJ
C:\USERS\EVERBEEK\GITLAB\FORMATION-CLUSTER-FLIGHT-SIMULATION\BASILISK\DIST3\SIM_MODEL.DIR\RELEASE\SIM_MODEL.OBJ
C:\USERS\EVERBEEK\GITLAB\FORMATION-CLUSTER-FLIGHT-SIMULATION\BASILISK\DIST3\SIM_MODEL.DIR\RELEASE\SYS_PROCESS.OBJ
