^C:\USERS\EVERBEEK\GITLAB\FORMATION-CLUSTER-FLIGHT-SIMULATION\BASILISK\DIST3\SIM_MODEL.DIR\RELEASE\SIM_MODEL.OBJ|C:\USERS\EVERBEEK\GITLAB\FORMATION-CLUSTER-FLIGHT-SIMULATION\BASILISK\DIST3\SIM_MODEL.DIR\RELEASE\SIM_MODELPYTHON_WRAP.OBJ|C:\USERS\EVERBEEK\GITLAB\FORMATION-CLUSTER-FLIGHT-SIMULATION\BASILISK\DIST3\SIM_MODEL.DIR\RELEASE\SYS_MODEL_TASK.OBJ|C:\USERS\EVERBEEK\GITLAB\FORMATION-CLUSTER-FLIGHT-SIMULATION\BASILISK\DIST3\SIM_MODEL.DIR\RELEASE\SYS_PROCESS.OBJ
/OUT:"C:\USERS\EVERBEEK\GITLAB\FORMATION-CLUSTER-FLIGHT-SIMULATION\BASILISK\DIST3\BASILISK\ARCHITECTURE\_SIM_MODEL.PYD" /INCREMENTAL:NO /NOLOGO BASILISK\ARCHITECTURELIB.LIB BASILISK\ARCHITECTUREUTILITIES.LIB ARCHITECTURE\UTILITIES\RELEASE\MODULEIDGENERATOR.LIB BASILISK\CMSGCINTERFACE.LIB C:\USERS\EVERBEEK\APPDATA\LOCAL\PROGRAMS\PYTHON\PYTHON39\LIBS\PYTHON39.LIB KERNEL32.LIB USER32.LIB GDI32.LIB WINSPOOL.LIB SHELL32.LIB OLE32.LIB OLEAUT32.LIB UUID.LIB COMDLG32.LIB ADVAPI32.LIB /MANIFEST /MANIFESTUAC:"level='asInvoker' uiAccess='false'" /manifest:embed /PDB:"C:/USERS/EVERBEEK/GITLAB/FORMATION-CLUSTER-FLIGHT-SIMULATION/BASILISK/DIST3/BASILISK/ARCHITECTURE/_SIM_MODEL.PDB" /SUBSYSTEM:CONSOLE /TLBID:1 /DYNAMICBASE /NXCOMPAT /IMPLIB:"C:/USERS/EVERBEEK/GITLAB/FORMATION-CLUSTER-FLIGHT-SIMULATION/BASILISK/DIST3/BASILISK/ARCHITECTURE/SIM_MODEL.LIB" /MACHINE:X64  /machine:x64 /DLL SIM_MODEL.DIR\RELEASE\SIM_MODELPYTHON_WRAP.OBJ
SIM_MODEL.DIR\RELEASE\SIM_MODEL.OBJ
SIM_MODEL.DIR\RELEASE\SYS_MODEL_TASK.OBJ
SIM_MODEL.DIR\RELEASE\SYS_PROCESS.OBJ
