^C:\USERS\EVERBEEK\GITLAB\FORMATION-CLUSTER-FLIGHT-SIMULATION\BASILISK\DIST3\BASILISK\SIMULATION\EXPONENTIALATMOSPHEREPYTHON_WRAP.CXX|C:\USERS\EVERBEEK\GITLAB\FORMATION-CLUSTER-FLIGHT-SIMULATION\BASILISK\SRC\SIMULATION\ENVIRONMENT\EXPONENTIALATMOSPHERE\EXPONENTIALATMOSPHERE.CPP
C:\USERS\EVERBEEK\GITLAB\FORMATION-CLUSTER-FLIGHT-SIMULATION\BASILISK\DIST3\EXPONENTIALATMOSPHERE.DIR\RELEASE\EXPONENTIALATMOSPHEREPYTHON_WRAP.OBJ
C:\USERS\EVERBEEK\GITLAB\FORMATION-CLUSTER-FLIGHT-SIMULATION\BASILISK\DIST3\EXPONENTIALATMOSPHERE.DIR\RELEASE\EXPONENTIALATMOSPHERE.OBJ
