^C:\Users\everbeek\GitLab\formation-cluster-flight-simulation\basilisk\dist3\thrForceMapping.vcxproj
C:\Users\everbeek\GitLab\formation-cluster-flight-simulation\basilisk\dist3\Basilisk\fswAlgorithms\thrForceMapping.lib
C:\Users\everbeek\GitLab\formation-cluster-flight-simulation\basilisk\dist3\Basilisk\fswAlgorithms\thrForceMapping.exp
