^C:\Users\everbeek\GitLab\formation-cluster-flight-simulation\basilisk\dist3\starTracker.vcxproj
C:\Users\everbeek\GitLab\formation-cluster-flight-simulation\basilisk\dist3\Basilisk\simulation\starTracker.lib
C:\Users\everbeek\GitLab\formation-cluster-flight-simulation\basilisk\dist3\Basilisk\simulation\starTracker.exp
