^C:\USERS\EVERBEEK\GITLAB\FORMATION-CLUSTER-FLIGHT-SIMULATION\BASILISK\SRC\FSWALGORITHMS\ATTGUIDANCE\SUNSAFEPOINT\SUNSAFEPOINT.I
C:\USERS\EVERBEEK\GITLAB\FORMATION-CLUSTER-FLIGHT-SIMULATION\BASILISK\DIST3\BASILISK\FSWALGORITHMS\SUNSAFEPOINTPYTHON_WRAP.C
C:\USERS\EVERBEEK\GITLAB\FORMATION-CLUSTER-FLIGHT-SIMULATION\BASILISK\DIST3\BASILISK\FSWALGORITHMS\SUNSAFEPOINT.PY
^C:\USERS\EVERBEEK\GITLAB\FORMATION-CLUSTER-FLIGHT-SIMULATION\BASILISK\SRC\CMAKELISTS.TXT
C:\USERS\EVERBEEK\GITLAB\FORMATION-CLUSTER-FLIGHT-SIMULATION\BASILISK\DIST3\CMAKEFILES\GENERATE.STAMP
