^C:\Users\everbeek\GitLab\formation-cluster-flight-simulation\basilisk\dist3\sunSafePoint.vcxproj
C:\Users\everbeek\GitLab\formation-cluster-flight-simulation\basilisk\dist3\Basilisk\fswAlgorithms\sunSafePoint.lib
C:\Users\everbeek\GitLab\formation-cluster-flight-simulation\basilisk\dist3\Basilisk\fswAlgorithms\sunSafePoint.exp
